<svg xmlns="http://www.w3.org/2000/svg" width="22" height="22" version="1.1">
 <defs>
  <style id="current-color-scheme" type="text/css">
   .ColorScheme-Text { color:#e7e6df; } .ColorScheme-Highlight { color:#4285f4; }
  </style>
 </defs>
 <g transform="translate(2)">
  <path style="fill:currentColor" class="ColorScheme-Text" d="m3 6v12c0 0.554 0.446 1 1 1h10c0.554 0 1-0.446 1-1v-12h-12zm2.5 2h7a0.50005 0.50005 0 0 1 0.5 0.5v2 2a0.50005 0.50005 0 0 1 -0.5 0.5h-7a0.50005 0.50005 0 0 1 -0.5 -0.5v-2-2a0.50005 0.50005 0 0 1 0.5 -0.5zm0.5 1v1h6v-1h-6zm0 2v1h6v-1h-6zm0 3h1v1h1v-1h1v1h1v-1h1v1h1v-1h1v1h-1v1h1v1h-1v-1h-1v1h-1v-1h-1v1h-1v-1h-1v1h-1v-1h-1v-1h1v-1zm0 1v1h1v-1h-1zm2 1h1v-1h-1v1zm2 0h1v-1h-1v1z"/>
  <path fill-rule="evenodd" style="fill:currentColor" class="ColorScheme-Text" d="m3 5 2-2h8l2 2z"/>
 </g>
</svg>
