<svg xmlns="http://www.w3.org/2000/svg" width="22" height="22" version="1.1">
 <defs>
  <style id="current-color-scheme" type="text/css">
   .ColorScheme-Text { color:#e7e6df; } .ColorScheme-Highlight { color:#4285f4; }
  </style>
 </defs>
 <g transform="translate(-321 -527.36)">
  <path style="fill:currentColor" class="ColorScheme-Text" d="m327 531.36s-2 0-2 2.0625v9.9375c0 2 2 2 2 2h10c2 0 2-2 2-2v-10s0-2-2-2zm3.0002 2h4c2 0 2.0522 2.3514 2 2v1h-2v-1h-4v6h4v-1h2v1s0 2-2 2h-4s-2 0-2-2v-6c0-2 2-2 2-2z"/>
 </g>
</svg>
