<svg xmlns="http://www.w3.org/2000/svg" width="22" height="22" version="1.1">
 <defs>
  <style id="current-color-scheme" type="text/css">
   .ColorScheme-Text { color:#e7e6df; } .ColorScheme-Highlight { color:#4285f4; }
  </style>
 </defs>
 <path d="m 11,3.9999997 c -3.0506,0 -5.9194,1.0732 -8,3.0000001 L 11,18 19,6.9999998 c -2.081,-1.9269 -4.949,-3 -8,-3.0000001 z m 0,2.0000001 c 1.928417,0 3.635471,0.64124 5.130859,1.546875 L 11,14.601562 5.86914,7.5468748 C 7.36453,6.6413187 9.07196,5.9999998 11,5.9999998 Z" style="fill:currentColor" class="ColorScheme-Text"/>
</svg>
