<svg xmlns="http://www.w3.org/2000/svg" width="22" height="22" version="1.1">
 <defs>
  <style id="current-color-scheme" type="text/css">
   .ColorScheme-Text { color:#e7e6df; } .ColorScheme-Highlight { color:#4285f4; }
  </style>
 </defs>
 <path style="fill:currentColor" class="ColorScheme-Text" d="M 11 3 A 8 8 0 0 0 3 11 A 8 8 0 0 0 3.9921875 14.857422 L 5.6660156 13.744141 A 6 6 0 0 1 5 11 A 6 6 0 0 1 11 5 A 6 6 0 0 1 15.59375 7.1503906 L 17.265625 6.0371094 A 8 8 0 0 0 11 3 z M 8 6.5996094 L 8 8.5410156 L 9.2890625 9.4003906 L 8 10.259766 L 8 12.199219 L 12.199219 9.4003906 L 8 6.5996094 z M 18.011719 7.1503906 L 16.337891 8.2636719 A 6 6 0 0 1 17 11 A 6 6 0 0 1 11 17 A 6 6 0 0 1 6.4121094 14.857422 L 4.7402344 15.96875 A 8 8 0 0 0 11 19 A 8 8 0 0 0 19 11 A 8 8 0 0 0 18.011719 7.1503906 z M 14 9.8007812 L 9.8007812 12.599609 L 14 15.400391 L 14 13.458984 L 12.710938 12.599609 L 14 11.740234 L 14 9.8007812 z"/>
</svg>
