<svg xmlns="http://www.w3.org/2000/svg" width="22" height="22" version="1">
 <defs>
  <style id="current-color-scheme" type="text/css">
   .ColorScheme-Text { color:#e7e6df; } .ColorScheme-Highlight { color:#4285f4; }
  </style>
 </defs>
 <path style="fill:currentColor" class="ColorScheme-Text" d="m7 3a4 4 0 0 0 -4 4 4 4 0 0 0 1.1152 2.7695 7 7 0 0 0 -0.1152 1.2305 7 7 0 0 0 7 7 7 7 0 0 0 1.238 -0.113 4 4 0 0 0 2.762 1.113 4 4 0 0 0 4 -4 4 4 0 0 0 -1.115 -2.77 7 7 0 0 0 0.115 -1.23 7 7 0 0 0 -7 -7 7 7 0 0 0 -1.2383 0.1133 4 4 0 0 0 -2.7617 -1.1133zm4 3.0898a1 1 0 0 1 1 1 1 1 0 0 1 -1 1 3 3 0 0 0 -3 3.0002h1l-2 3-2-3h1a5 5 0 0 1 4.906 -4.9962 1 1 0 0 1 0.094 -0.004zm4 2l2 3.0002h-1a5 5 0 0 1 -4.906 4.996 1 1 0 0 1 -0.094 0.004 1 1 0 0 1 -1 -1 1 1 0 0 1 1 -1 3 3 0 0 0 3 -3h-1l2-3.0002z"/>
 <path style="fill:currentColor" class="ColorScheme-Text" d="m-22.069-6.0812"/>
</svg>
