<svg xmlns="http://www.w3.org/2000/svg" width="22" height="22" version="1.1">
 <defs>
  <style id="current-color-scheme" type="text/css">
   .ColorScheme-Text { color:#e7e6df; } .ColorScheme-Highlight { color:#4285f4; }
  </style>
 </defs>
 <path style="fill:currentColor" class="ColorScheme-Text" d="m9.0273 5.002c-0.3917 0.0111-0.7898 0.0839-1.1855 0.2187-1.6926 0.5749-2.9693 2.2417-3.3477 4.3125-1.111 0.268-2.0486 1.2488-2.3769 2.6558-0.4654 2 0.5036 4.062 2.1582 4.623 0.027 0.008 0.0345 0.025 0.0625 0.032 0.2282 0.099 0.4927 0.156 0.75 0.156h11.98c0.43 0 0.823-0.147 1.159-0.406 1.341-0.774 2.072-2.618 1.656-4.405-0.307-1.32-1.168-2.2896-2.19-2.6245-0.009-0.044 0.01-0.0811 0-0.125-0.465-1.9998-2.193-3.1557-3.847-2.5938-0.318 0.108-0.609 0.2548-0.875 0.4688-0.912-1.4803-2.395-2.3528-3.9417-2.3125h-0.002zm-0.6855 3.998h1.3418c0.1826 0 0.3164 0.2168 0.3164 0.4688v5.0622c0 0.252-0.1338 0.469-0.3164 0.469h-1.3418c-0.1826 0-0.3418-0.217-0.3418-0.469v-5.0622c0-0.252 0.1592-0.4688 0.3418-0.4688zm3.0002 0h1.342c0.182 0 0.316 0.2168 0.316 0.4688v5.0622c0 0.252-0.134 0.469-0.316 0.469h-1.342c-0.183 0-0.342-0.217-0.342-0.469v-5.0622c0-0.252 0.159-0.4688 0.342-0.4688z"/>
</svg>
