<svg xmlns="http://www.w3.org/2000/svg" width="22" height="22" version="1.1">
 <defs>
  <style id="current-color-scheme" type="text/css">
   .ColorScheme-Text { color:#e7e6df; } .ColorScheme-Highlight { color:#4285f4; }
  </style>
 </defs>
 <path style="fill:currentColor" class="ColorScheme-Highlight" d="m 11.000005,2.9999721 c -0.1926,0 -0.383065,0.010178 -0.572265,0.023437 -0.0237,0.00175 -0.04651,0.00194 -0.07031,0.00391 -2.8577998,0.22552 -5.2791532,1.9428 -6.5019533,4.375 -0.079116,0.1574499 -0.1596861,0.3152656 -0.2285162,0.4785156 -0.37451,0.8457 -0.5782944,1.7420406 -0.6152344,2.6816403 -0.00162,0.03035 -0.00262,0.06135 -0.00391,0.0918 -0.00247,0.08976 -0.00646,0.179012 -0.00586,0.269532 -2.321e-4,0.02539 -0.00195,0.05073 -0.00195,0.07617 0,0.93022 0.1657181,1.819337 0.4550781,2.648438 0.11645,0.371679 0.2502294,0.746683 0.4121094,1.126953 0.40323,0.94731 0.454075,1.204793 0.390625,1.996093 -0.044209,0.55135 -0.1940394,1.114741 -0.3808594,1.431641 -0.16938,0.28738 -0.3046875,0.584666 -0.3046875,0.660156 0,0.23342 1.3473157,0.151313 2.5410151,-0.154297 1.3984,-0.35802 1.521369,-0.357817 2.667969,0.002 0.52453,0.1646 1.121575,0.252873 1.7968752,0.277343 0.02825,0.0014 0.05761,0.0028 0.08594,0.0039 0.0924,0.003 0.181844,0.0078 0.277344,0.0078 0.0078,0 0.01373,5.7e-5 0.02148,0 0.01231,5.5e-5 0.02478,0 0.03711,0 0.22339,0 0.443449,-0.01152 0.662109,-0.0293 1.9778,-0.14065 3.566394,-0.871468 4.996094,-2.298828 1.178,-1.176 1.908766,-2.627284 2.197266,-4.146485 0.02658,-0.13883 0.04706,-0.280545 0.06641,-0.421875 0.0117,-0.08676 0.02438,-0.172725 0.0332,-0.259765 0.01939,-0.18667 0.03067,-0.376057 0.03711,-0.566407 0.0014,-0.04797 0.0034,-0.09459 0.0039,-0.142578 6.94e-4,-0.04469 0.0039,-0.08994 0.0039,-0.134789 0,-4.3580005 -3.450397,-7.8778411 -7.779297,-7.9941411 -0.0336,-0.0015 -0.06786,-0.00142 -0.101562,-0.00195 -0.04,-5.828e-4 -0.07904,-0.00391 -0.119141,-0.00391 z m -2.4999998,4 c 0.8284269,0 1.4999998,0.6715729 1.4999998,1.5 0,0.5 0,1.5 -0.9999998,1.5 0,0.9999999 2.0315628,2.9457239 2.9999998,2.9999999 0,-1 1,-1 1.5,-1 0.828427,0 1.5,0.671573 1.5,1.5 0,0.828427 -0.671573,1.5 -1.5,1.5 l -0.560547,0 C 12.643144,14.99348 12.297749,14.884023 11.812505,14.707003 10.189558,14.114943 9.0628482,13.164506 7.9082081,11.414035 7.2356132,10.394352 7.0036051,9.7806973 7.0000051,9.0175502 l 0,-0.5175781 c 0,-0.8284271 0.671573,-1.5 1.5000001,-1.5 z"/>
</svg>
