<svg xmlns="http://www.w3.org/2000/svg" width="22" height="22" version="1.1">
 <defs>
  <style id="current-color-scheme" type="text/css">
   .ColorScheme-Text { color:#e7e6df; } .ColorScheme-Highlight { color:#4285f4; }
  </style>
 </defs>
 <g transform="translate(0 -1030.4)">
  <path style="fill:currentColor" class="ColorScheme-Text" d="m10.998 4s-3.7785 0.0006-6.2968 0.1895c-0.3518 0.044-1.1182 0.048-1.8028 0.791-0.5395 0.5664-0.7148 1.8515-0.7148 1.8515s-0.1771 1.511-0.1797 3.0215l-0.0039 2.2875c-0.0026 1.51 0.1797 3.021 0.1797 3.021s0.1753 1.285 0.7148 1.852c0.6846 0.743 1.5839 0.721 1.9844 0.798 1.4397 0.144 6.1191 0.188 6.1191 0.188s1.211-0.015 2.408-0.039c-0.26-0.604-0.406-1.265-0.406-1.961 0-2.75 2.25-5 5-5 0.71 0 1.385 0.154 1.998 0.424l0.002-1.5705c0.003-1.5105-0.18-3.0215-0.18-3.0215s-0.175-1.2851-0.715-1.8515c-0.684-0.7435-1.452-0.7475-1.804-0.791-2.518-0.1889-6.295-0.1895-6.295-0.1895h-0.008zm-2.998 3l6 4.014-6 3.986v-8z" transform="translate(-9.5367e-7 1030.4)"/>
  <path style="fill:currentColor" class="ColorScheme-Text" d="m20.828 1043.5c-1.562-1.5621-4.0948-1.5621-5.6568 0-1.5621 1.5621-1.5621 4.0947-0.000005 5.6568 1.562 1.5621 4.0948 1.5621 5.6568 0 1.5621-1.5621 1.5621-4.0947 0.000005-5.6568zm-0.70709 0.7071a3 3 0 0 1 -0.000022 4.2426l-0.70709-0.7071a2 2 0 0 0 0.000015 -2.8285l0.70709-0.707zm-4.2426 0 0.70709 0.7071a2 2 0 0 0 -0.000015 2.8285l-0.70709 0.707a3 3 0 0 1 0.000022 -4.2426z"/>
 </g>
</svg>
