<svg xmlns="http://www.w3.org/2000/svg" width="16" height="16" version="1.1">
 <defs>
  <style id="current-color-scheme" type="text/css">
   .ColorScheme-Text { color:#cbe3e7; } .ColorScheme-Highlight { color:#4285f4; } .ColorScheme-NeutralText { color:#ff9800; } .ColorScheme-PositiveText { color:#4caf50; } .ColorScheme-NegativeText { color:#f44336; }
  </style>
 </defs>
 <path style="fill:currentColor" class="ColorScheme-Text" d="M 5.7070312 2 C 4.5642923 2.1936686 3.4715699 2.5330861 2.4511719 2.9941406 C 2.4423719 2.9979206 2.4347075 3.0035987 2.4296875 3.0117188 C 0.35546147 6.0610407 -0.21234175 9.0371143 0.06640625 11.974609 C 0.06770625 11.988979 0.0746075 12.001026 0.0859375 12.009766 C 1.4544515 12.99871 2.7810087 13.6001 4.0820312 13.998047 C 4.1028512 14.004247 4.1254219 13.997328 4.1386719 13.980469 C 4.4464289 13.566912 4.7198601 13.509352 4.9550781 13.050781 C 4.9689581 13.023931 4.9561124 12.993042 4.9277344 12.982422 C 4.4925894 12.819993 4.0782601 12.621379 3.6796875 12.396484 C 3.6481575 12.378364 3.6448281 12.33374 3.6738281 12.3125 C 3.7577081 12.25065 3.8437401 12.186067 3.9238281 12.121094 C 3.9383181 12.109224 3.9575694 12.107704 3.9746094 12.115234 C 6.5930606 13.29162 9.4280671 13.29162 12.015625 12.115234 C 12.032655 12.107134 12.051286 12.109294 12.066406 12.121094 C 12.146516 12.186064 12.2319 12.250655 12.316406 12.3125 C 12.345406 12.33374 12.342077 12.378364 12.310547 12.396484 C 11.911974 12.625748 11.498278 12.820613 11.0625 12.982422 C 11.03413 12.993042 11.021266 13.023931 11.035156 13.050781 C 11.275421 13.508709 11.549483 13.564937 11.851562 13.978516 C 11.864183 13.996006 11.887383 14.004307 11.908203 13.998047 C 13.215537 13.600101 14.541641 12.998711 15.910156 12.009766 C 15.922146 12.000966 15.930371 11.988979 15.931641 11.974609 C 16.265246 8.5785429 15.371269 5.6288148 13.564453 3.0136719 C 13.560053 3.0049319 13.553762 2.9978846 13.544922 2.9941406 C 12.525156 2.5337377 11.432433 2.1942896 10.289062 2 C 10.268243 1.99622 10.247048 2.0047415 10.236328 2.0234375 C 10.095679 2.2695784 9.9391689 2.4722174 9.8300781 2.7246094 C 8.60031 2.5434427 7.3764263 2.5434427 6.171875 2.7246094 C 6.0627286 2.4666248 5.9010362 2.2695785 5.7597656 2.0234375 C 5.7490396 2.0053235 5.7278553 1.996873 5.7070312 2 z M 5.4980469 7 C 6.3399196 7 7.0131614 7.6790792 7 8.5 C 7 9.326832 6.3333392 10 5.4980469 10 C 4.6758697 10 4 9.326832 4 8.5 C 4 7.6731675 4.6627321 7 5.4980469 7 z M 10.5 7 C 11.341895 7 12.013139 7.6790792 12 8.5 C 12.000001 9.326832 11.341895 10 10.5 10 C 9.6778459 10 9 9.326832 9 8.5 C 9 7.6731675 9.6646838 7 10.5 7 z"/>
</svg>
