<svg xmlns="http://www.w3.org/2000/svg" width="16" height="16" version="1.1">
 <defs>
  <style id="current-color-scheme" type="text/css">
   .ColorScheme-Text { color:#cbe3e7; } .ColorScheme-Highlight { color:#4285f4; } .ColorScheme-NeutralText { color:#ff9800; } .ColorScheme-PositiveText { color:#4caf50; } .ColorScheme-NegativeText { color:#f44336; }
  </style>
 </defs>
 <path style="fill:currentColor" class="ColorScheme-Text" d="M 6.8800455,1 C 6.4161319,1 6.0403649,1.3757618 6.0403649,1.8396806 c 0,0.4639189 0.375767,0.8408208 0.8396806,0.8408208 2.1649825,0 3.9204105,1.7543164 3.9204105,3.9192702 0,0.463925 0.375755,0.8396815 0.83968,0.8396815 0.463925,0 0.839682,-0.3757565 0.839682,-0.8396815 C 12.479818,3.5069791 9.97282,1 6.8800455,1 Z M 6.5997725,3.520182 C 3.5069791,3.5201873 0.9999991,6.0271498 1,9.1199545 c 0,0.463925 0.3757617,0.8396806 0.8396806,0.8396806 0.4639198,0 0.8408208,-0.3757556 0.8408208,-0.8396806 0,-2.1649827 1.7543163,-3.9204104 3.9192711,-3.9204104 0.4639245,0 0.8396805,-0.3757617 0.8396805,-0.8396815 0,-0.4639188 -0.375756,-0.8396806 -0.8396805,-0.8396806 z m 7.5605465,2.520182 c -0.463925,0 -0.84082,0.3757688 -0.84082,0.8396815 0,2.1649836 -1.754287,3.9204105 -3.919271,3.9204105 -0.463925,0 -0.839681,0.375756 -0.839681,0.839681 0,0.463925 0.375756,0.839681 0.839681,0.839681 C 12.493003,12.479818 15,9.9728205 15,6.8800455 15,6.4161328 14.624244,6.040364 14.160319,6.040364 Z M 4.3598626,8.5605478 c -0.4639189,0 -0.8396806,0.3757547 -0.8396806,0.8396797 C 3.520182,12.493003 6.0271497,15 9.119954,15 c 0.463925,0 0.839682,-0.375756 0.839682,-0.839681 0,-0.463925 -0.375757,-0.84082 -0.839682,-0.84082 -2.1649831,0 -3.9204099,-1.754288 -3.9204099,-3.9192715 0,-0.463925 -0.3757617,-0.8396797 -0.8396815,-0.8396797 z"/>
</svg>
