<svg xmlns="http://www.w3.org/2000/svg" width="16" height="16" version="1.1">
 <defs>
  <style id="current-color-scheme" type="text/css">
   .ColorScheme-Text { color:#cbe3e7; } .ColorScheme-Highlight { color:#4285f4; } .ColorScheme-NeutralText { color:#ff9800; } .ColorScheme-PositiveText { color:#4caf50; } .ColorScheme-NegativeText { color:#f44336; }
  </style>
 </defs>
 <path style="fill:currentColor" class="ColorScheme-Text" d="M 7 1 C 6.96924 1 6.659927 1.6290934 6.46875 2.0078125 C 6.1888835 2.562226 6.0555541 2.9898894 6.0097656 3.4824219 C 5.9984536 3.6041319 6.0002225 3.7242929 6.0078125 3.8417969 C 6.0030763 3.8947319 6.00049 3.946858 6 4 C 6 4.4587653 6.1601643 4.8774025 6.4199219 5.2148438 C 4.9615166 5.6130806 3.7224106 6.545039 2.9316406 7.7910156 C 2.7764446 7.9939532 2.6404076 8.204923 2.5410156 8.4316406 C 2.3848326 8.7879022 2.2676025 9.1563479 2.1796875 9.5546875 C 2.1211875 9.7910527 2.0725127 10.030858 2.0429688 10.277344 C 2.0403687 10.299284 2.0478587 10.303891 2.0585938 10.300781 C 2.0473137 10.395721 2.0322175 10.486501 2.0234375 10.585938 C 1.9953175 10.904694 1.9922699 11.035155 2.0136719 11.035156 L 6 7 L 5.0390625 10.011719 C 5.0442625 10.016919 4.9331774 10.059399 5.0664062 9.9980469 C 5.8849506 9.6211565 6.6352694 9.1115363 7.5371094 9.0039062 C 7.8481182 8.9667906 8.9257704 8.966026 9.25 9 C 9.57761 9.0343275 9.8914162 9.219586 10.214844 9.421875 C 10.769183 9.1448664 11.380302 9.0004443 12 9 C 12.408814 8.9999039 12.815227 9.06248 13.205078 9.1855469 C 13.293398 8.938976 13.334463 8.6708623 13.302734 8.4257812 C 13.295934 8.3733493 13.282114 8.3243231 13.271484 8.2734375 C 13.292644 8.2210445 13.272983 8.1323305 13.189453 7.9863281 C 13.107253 7.7679272 12.985456 7.5499904 12.802734 7.3027344 C 11.917775 6.3302765 10.8369 5.5643702 9.5800781 5.2128906 C 9.8392798 4.8756471 10 4.4582227 10 4 C 9.999983 3.949163 9.9980506 3.8983453 9.9941406 3.8476562 C 9.9958406 3.7969863 10.000627 3.745172 9.9980469 3.6953125 C 9.9627497 3.010501 9.566885 2.5413464 8.96875 2.2324219 C 8.6520787 2.0688674 8.167645 1.9928182 7.8515625 1.9921875 C 7.3695269 1.9261045 7.2900031 1.2786987 7 1 z M 4.5527344 9.8867188 C 4.5527344 9.8867185 4.1387175 10.24991 2.7246094 11.738281 C 2.5567584 11.908014 2.3317251 11.999422 2.0957031 12.019531 C 2.2871422 13.128541 2.7866278 14.161353 3.5371094 15 L 8.5410156 15 C 8.1881535 14.392419 8.0015552 13.702612 8 13 C 8.001626 11.885529 8.4681309 10.822265 9.2871094 10.066406 C 9.2577293 10.05454 9.1523473 9.9947561 9.1464844 9.9941406 C 9.0522454 9.9842606 7.698979 9.9909935 7.65625 9.9960938 C 7.0599863 10.067255 6.4051922 10.482424 5.4902344 10.904297 C 5.4878344 10.905497 5.486775 10.905009 5.484375 10.90625 C 5.481095 10.90785 5.47194 10.914416 5.46875 10.916016 C 5.418052 10.941056 5.411068 10.946749 5.3300781 10.974609 C 5.3098311 10.981609 5.2136109 11.007663 5.2128906 11.007812 C 5.2125305 11.007899 4.9533051 11.029297 4.953125 11.029297 L 4.625 10.957031 L 4.5390625 10.917969 L 5 10.03125 C 5 10.03125 4.7758519 9.958379 4.5527344 9.8867188 z M 5 12 C 5.5522847 12 6 12.447715 6 13 C 6 13.552285 5.5522847 14 5 14 C 4.4477153 14 4 13.552285 4 13 C 4 12.447715 4.4477153 12 5 12 z"/>
 <path style="fill:currentColor" class="ColorScheme-NegativeText" d="m 12,10 c -1.656751,0 -3,1.35 -3,3 0,1.65 1.343249,3 3,3 1.65675,0 3,-1.35 3,-3 0,-1.65 -1.34325,-3 -3,-3 z m -1,1 h 2 v 2.5 h -2 z m 0,3 h 2 v 1.005859 h -2 z"/>
 <circle style="fill:currentColor" class="ColorScheme-NegativeText" cx="13.5" cy="3.5" r="1.5"/>
</svg>
