<svg xmlns="http://www.w3.org/2000/svg" width="16" height="16" version="1.1">
 <path style="opacity:0.3;fill:#a9b1d6" d="M 1,15 15,1 V 15 Z"/>
 <path style="fill:#a9b1d6" d="M 9,7 1,15 H 9 Z"/>
</svg>
