<svg xmlns="http://www.w3.org/2000/svg" width="16" height="16" version="1.1">
 <defs>
  <style id="current-color-scheme" type="text/css">
   .ColorScheme-Text { color:#FCE8C3; } .ColorScheme-Highlight { color:#4285f4; } .ColorScheme-NeutralText { color:#ff9800; } .ColorScheme-PositiveText { color:#4caf50; } .ColorScheme-NegativeText { color:#f44336; }
  </style>
 </defs>
 <path style="fill:currentColor" class="ColorScheme-Text" d="M 7,16 V 11.5 L 3.25,15.25 2,14 8,8 14,14 12.75,15.25 9,11.5 V 16 Z M 7,0 V 4.5 L 3.25,0.75 2,2 8,8 14,2 12.75,0.75 9,4.5 V 0 Z"/>
</svg>
