<svg xmlns="http://www.w3.org/2000/svg" width="16" height="16" version="1.1">
 <defs>
  <style id="current-color-scheme" type="text/css">
   .ColorScheme-Text { color:#FCE8C3; } .ColorScheme-Highlight { color:#4285f4; } .ColorScheme-NeutralText { color:#ff9800; } .ColorScheme-PositiveText { color:#4caf50; } .ColorScheme-NegativeText { color:#f44336; }
  </style>
 </defs>
 <path style="fill:currentColor" class="ColorScheme-Text" d="M 11,6 C 6,6 6,11 6,11 V 16 H 7 V 11 C 7,11 7,7 11,7 H 16 V 6 Z M 10,2 C 2,2 2,10 2,10 V 16 H 3 V 10 C 3,10 3,3 10,3 H 16 V 2 Z"/>
 <path style="fill:currentColor" class="ColorScheme-Text" d="M 1,11 H 4 V 14 H 1 Z M 5,11 H 8 V 14 H 5 Z M 11,5 H 14 V 8 H 11 Z M 11,1 H 14 V 4 H 11 Z"/>
</svg>
