<svg xmlns="http://www.w3.org/2000/svg" width="16" height="16" version="1.1" viewBox="0 0 16 16">
 <defs>
  <style id="current-color-scheme" type="text/css">
   .ColorScheme-Text { color:#FCE8C3; } .ColorScheme-Highlight { color:#4285f4; } .ColorScheme-NeutralText { color:#ff9800; } .ColorScheme-PositiveText { color:#4caf50; } .ColorScheme-NegativeText { color:#f44336; }
  </style>
 </defs>
 <path style="fill:currentColor" class="ColorScheme-Text" d="M 6 0 L 6 6 L 10 6 L 10 0 L 6 0 z M 10 6 L 10 10 L 16 10 L 16 6 L 10 6 z M 10 10 L 6 10 L 6 16 L 10 16 L 10 10 z M 6 10 L 6 6 L 0 6 L 0 10 L 6 10 z"/>
</svg>
