<svg xmlns="http://www.w3.org/2000/svg" width="22" height="22" version="1.1">
 <defs>
  <style id="current-color-scheme" type="text/css">
   .ColorScheme-Text { color:#efefef; } .ColorScheme-Highlight { color:#4285f4; }
  </style>
 </defs>
 <path style="opacity:0.3;fill:currentColor" class="ColorScheme-Text" d="M 11,3 C 6.5817,3 3,6.5817 3,11 3,13.607 4.2532,15.916 6.1836,17.377 6.219,17.357 6.2562,17.341 6.291,17.32 6.864,16.981 7.4135,16.582 7.9434,16.156 6.1832,15.11 5,13.196 5,11 5,7.6862 7.6863,5 11,5 11.726,5 12.418,5.1349 13.063,5.3711 13.065,4.8268 13.04,4.2831 12.945,3.748 12.999,3.5617 13.02,3.4675 13.061,3.2812 V 3.2773 C 12.402,3.1019 11.714,3 11,3 Z M 13.178,3.3066 C 13.336,4.0296 13.391,4.7626 13.391,5.498 15.514,6.422 17,8.5364 17,11 17,14.313 14.314,17 11,17 10.032,17 9.1204,16.765 8.3105,16.357 8.3018,16.365 8.2939,16.374 8.2852,16.381 7.7062,16.852 7.0814,17.238 6.4199,17.553 7.718,18.462 9.2949,19 11,19 15.418,19 19,15.418 19,11 19,7.3376 16.536,4.2559 13.178,3.3066 Z"/>
 <path style="fill:currentColor" class="ColorScheme-Text" d="M 13.115,3.002 C 13.115,3.002 13.083,3.1676 13.061,3.2813 13.02,3.4676 12.945,3.7481 12.945,3.7481 13.102,4.6384 13.106,5.5551 13.02,6.4512 L 12.936,7.0626 C 12.917,7.1087 13.309,7.0997 13.309,7.0997 L 13.369,6.4688 C 13.421,5.3079 13.415,4.1394 13.115,3.002 Z M 12.916,7.1094 C 12.535,7.4479 12.149,7.8068 11.863,8.2149 11.174,9.2009 10.734,10.447 9.8437,11.299 9.4817,11.644 8.627,12.209 8.627,12.209 8.8549,12.242 9.108,12.265 9.3359,12.219 8.8762,12.51 8.3618,12.786 7.9863,13.174 7.9863,13.174 7.6078,13.558 7.4277,13.756 7.5733,13.666 7.7437,13.564 7.9199,13.563 8.2111,13.559 8.7695,13.236 8.7695,13.236 8.7695,13.236 7.7181,13.913 7.2871,14.332 7.2871,14.332 6.7654,14.798 6.5547,15.07 L 6.3613,15.311 C 6.7157,15.18 7.0756,15.045 7.4473,14.965 L 7.0742,15.096 C 6.7447,15.226 6.3675,15.324 6.0859,15.488 5.5783,15.785 5.0751,16.545 4.7227,17.047 4.5349,17.312 4.2255,17.536 4.0723,17.809 3.9841,17.965 3.9926,18.129 4.0137,18.17 4.1688,18.455 4.9439,18.696 5.3691,18.801 5.8806,18.924 6.4185,18.979 6.9453,19 7.2575,18.935 7.5807,18.806 7.8105,18.586 8.1228,18.288 8.5738,17.999 8.7539,17.613 8.8573,17.395 9.0158,17.267 9.0215,17.264 8.7859,17.653 8.5277,18.031 8.248,18.389 8.114,18.558 7.9297,18.773 7.9297,18.773 8.2419,18.662 8.5685,18.478 8.875,18.428 9.0646,18.396 9.2743,18.308 9.4199,18.174 9.5751,18.03 9.8093,17.973 9.9473,17.826 10.328,17.418 10.585,16.796 10.949,16.367 L 11.189,16.057 11.311,15.885 10.709,17.193 10.705,17.205 C 10.64,17.323 10.543,17.437 10.443,17.543 L 10.404,17.586 10.424,17.59 C 10.813,17.385 11.156,17.072 11.527,16.826 L 11.559,16.807 C 11.836,16.646 12.082,16.362 12.287,16.135 12.481,15.92 12.579,15.79 12.631,15.484 L 12.635,15.457 12.859,14.137 12.932,13.748 12.961,13.654 V 13.701 C 12.946,14.475 12.821,15.308 12.94,16.068 13.028,16.631 13.078,16.516 13.078,16.516 13.13,15.852 13.061,15.045 13.279,14.441 13.427,14.033 13.664,13.59 13.74,13.15 13.819,12.699 13.816,12.218 13.805,11.756 13.789,11.158 13.752,10.555 13.666,9.959 13.747,10.242 13.864,10.539 13.879,10.83 L 13.91,11.672 C 13.975,11.325 14.025,10.956 13.986,10.603 13.95,10.279 14.013,9.9477 13.977,9.629 13.977,9.629 13.915,8.7603 13.773,8.3633 13.637,7.9757 13.461,7.5888 13.357,7.1993 L 13.295,7.1094 C 13.145,8.1739 12.78,9.2573 12.445,10.25 12.023,11.507 11.346,12.57 10.709,13.709 10.124,14.754 9.1971,15.638 8.2852,16.381 7.4899,17.028 6.6104,17.522 5.6641,17.879 5.3697,17.989 5.0402,18.027 4.7285,18.037 4.4991,18.043 4.3281,18.029 4.3281,18.029 5.0049,17.884 5.6907,17.675 6.291,17.32 7.9562,16.334 9.525,14.983 10.502,13.262 11.123,12.169 11.71,11.097 12.119,9.8966 12.425,8.995 12.743,8.0578 12.916,7.1094 Z"/>
</svg>
