<svg xmlns="http://www.w3.org/2000/svg" width="22" height="22" version="1.1">
 <defs>
  <style id="current-color-scheme" type="text/css">
   .ColorScheme-Text { color:#efefef; } .ColorScheme-Highlight { color:#4285f4; }
  </style>
 </defs>
 <path style="stroke-linejoin:round;stroke:currentColor;fill:none" class="ColorScheme-Text" d="m18 19.5-1.5-0c-1-0-1-0-1-1l-0-2c-0-1 0-1 1-1h1.5"/>
</svg>
