<svg xmlns="http://www.w3.org/2000/svg" width="22" height="22" version="1.1">
 <defs>
  <style id="current-color-scheme" type="text/css">
   .ColorScheme-Text { color:#efefef; } .ColorScheme-Highlight { color:#4285f4; }
  </style>
 </defs>
 <path style="fill:currentColor" class="ColorScheme-Text" d="M 10.5,3 C 9.12,3 8,4.12 8,5.5 8,6.88 9.12,8 10.5,8 11.88,8 13,6.88 13,5.5 13,4.12 11.88,3 10.5,3 Z M 4,9 l 0,2 4,0 0,8 2,0 0,-5 1,0 0,5 2,0 0,-8 4,0 0,-2 z"/>
</svg>
