<svg xmlns="http://www.w3.org/2000/svg" width="22" height="22" version="1.1">
 <defs>
  <style id="current-color-scheme" type="text/css">
   .ColorScheme-Text { color:#efefef; } .ColorScheme-Highlight { color:#4285f4; }
  </style>
 </defs>
 <g transform="translate(-305 -1005.4)">
  <path style="fill:currentColor" class="ColorScheme-Text" d="m310 1008.4c-2 0-2 2-2 2v12c0 2 2 2 2 2h12s2 0 2-2v-12c0-2-2-2-2-2h-12zm0 1.9981h12v12h-12v-12z"/>
 </g>
</svg>
