<svg xmlns="http://www.w3.org/2000/svg" width="16" height="16" version="1.1">
 <defs>
  <style id="current-color-scheme" type="text/css">
   .ColorScheme-Text { color:#d9d9d9; } .ColorScheme-Highlight { color:#4285f4; } .ColorScheme-NeutralText { color:#ff9800; } .ColorScheme-PositiveText { color:#4caf50; } .ColorScheme-NegativeText { color:#f44336; }
  </style>
 </defs>
 <path style="fill:currentColor" class="ColorScheme-Text" d="M 3,1 C 3,1 2,1 2,2 V 14 C 2,15 3,15 3,15 H 13 C 14,15 14,14 14,14 V 9.75 L 12,11 V 13 H 4 V 3 H 12 V 5 L 14,6.25 V 2 C 14,1 13,1 13,1 Z M 10,5 V 7 H 6 V 9 H 10 V 11 L 14.5,8 Z"/>
</svg>
