<svg xmlns="http://www.w3.org/2000/svg" width="16" height="16" version="1">
 <defs>
  <style id="current-color-scheme" type="text/css">
   .ColorScheme-Text { color:#d9d9d9; } .ColorScheme-Highlight { color:#4285f4; } .ColorScheme-NeutralText { color:#ff9800; } .ColorScheme-PositiveText { color:#4caf50; } .ColorScheme-NegativeText { color:#f44336; }
  </style>
 </defs>
 <path style="fill:currentColor" class="ColorScheme-Text" d="M 4.5,1 A 3.5,3.5 0 0 0 1,4.5 3.5,3.5 0 0 0 2.0859,7.0293 6,6 0 0 0 2,8 6,6 0 0 0 8,14 6,6 0 0 0 8.9707,13.918 3.5,3.5 0 0 0 11.5,15 3.5,3.5 0 0 0 15,11.5 3.5,3.5 0 0 0 13.914,8.9707 6,6 0 0 0 14,8 6,6 0 0 0 8,2 6,6 0 0 0 7.0293,2.082 3.5,3.5 0 0 0 4.5,1 Z M 8.1289,4 C 10.103,4 11.119,5.0424 11.119,5.6543 11.119,6.2682 10.824,6.3594 10.34,6.3594 9.3986,6.3594 9.7845,5.2266 8.0215,5.2266 7.4375,5.2266 6.709,5.492 6.709,6.1738 6.709,6.7219 7.3551,6.924 8.4941,7.2051 10.212,7.6651 11.5,8.1242 11.5,9.7012 11.5,11.232 10.253,12 8.2793,12 6.3062,12 5.0449,10.819 5.0449,10.207 5.0449,9.595 5.2773,9.4414 5.7617,9.4414 6.7045,9.4414 6.5787,10.73 8.3418,10.73 8.9268,10.73 9.791,10.463 9.791,9.7793 9.791,9.2333 9.7451,9 8.4941,8.707 7.1581,8.526 5,8 5,6.4238 5,4.8929 6.1552,4 8.1289,4 Z"/>
</svg>
