<svg xmlns="http://www.w3.org/2000/svg" width="16" height="16" version="1.1">
 <defs>
  <style id="current-color-scheme" type="text/css">
   .ColorScheme-Text { color:#d9d9d9; } .ColorScheme-Highlight { color:#4285f4; } .ColorScheme-NeutralText { color:#ff9800; } .ColorScheme-PositiveText { color:#4caf50; } .ColorScheme-NegativeText { color:#f44336; }
  </style>
 </defs>
 <path style="fill:currentColor" class="ColorScheme-Text" d="M 6,11 V 5 L 12,11 Z M 0,9 V 11 C 2.77,11 5,13.23 5,16 H 7 C 7,12.122 3.878,9 0,9 Z"/>
 <path style="opacity:0.3;fill:currentColor" class="ColorScheme-Text" d="M 0,0 V 2 C 7.756,2 14,8.244 14,16 H 16 C 16,7.136 8.864,0 0,0 Z"/>
</svg>
