<svg xmlns="http://www.w3.org/2000/svg" width="16" height="16" version="1.1">
 <defs>
  <style id="current-color-scheme" type="text/css">
   .ColorScheme-Text { color:#d9d9d9; } .ColorScheme-Highlight { color:#4285f4; } .ColorScheme-NeutralText { color:#ff9800; } .ColorScheme-PositiveText { color:#4caf50; } .ColorScheme-NegativeText { color:#f44336; }
  </style>
 </defs>
 <path style="opacity:0.3;fill:currentColor" class="ColorScheme-Text" d="M 4,4 H 12 V 16 H 4 Z"/>
 <path style="fill:currentColor" class="ColorScheme-Text" d="M 8 0 C 8 0 4 0 4 4 L 4 16 L 5 16 L 5 4 L 11 4 L 11 16 L 12 16 L 12 4 C 12 0 8 0 8 0 z"/>
</svg>
