<svg xmlns="http://www.w3.org/2000/svg" width="22" height="22" viewBox="0 0 22 22">
 <defs>
  <style id="current-color-scheme" type="text/css">
   .ColorScheme-Text { color:#d0d0d0; } .ColorScheme-Highlight { color:#4285f4; } .ColorScheme-NeutralText { color:#ff9800; } .ColorScheme-PositiveText { color:#4caf50; } .ColorScheme-NegativeText { color:#f44336; }
  </style>
 </defs>
 <path style="fill:currentColor" class="ColorScheme-Text" d="M 2 3 L 2 7 L 1 7 L 1 9 L 2 9 L 2 13 L 6 13 L 6 9 L 10 9 L 10 13 L 14 13 L 14 9 L 15 9 L 15 7 L 14 7 L 14 3 L 10 3 L 10 7 L 6 7 L 6 3 L 2 3 z" transform="translate(3 3)"/>
</svg>
