<svg xmlns="http://www.w3.org/2000/svg" width="22" height="22" viewBox="0 0 22 22">
 <defs>
  <style id="current-color-scheme" type="text/css">
   .ColorScheme-Text { color:#d0d0d0; } .ColorScheme-Highlight { color:#4285f4; } .ColorScheme-NeutralText { color:#ff9800; } .ColorScheme-PositiveText { color:#4caf50; } .ColorScheme-NegativeText { color:#f44336; }
  </style>
 </defs>
 <path style="fill:currentColor" class="ColorScheme-Text" d="M 7 1 L 7 5 L 4 5 L 4 8 L 13 8 L 13 5 L 10 5 L 10 1 L 7 1 z M 4 9 C 4 11.761 3.1046 15 2 15 L 11 15 C 12.105 15 13 11.761 13 9 L 4 9 z" transform="translate(3 3)"/>
</svg>
