<svg xmlns="http://www.w3.org/2000/svg" width="22" height="22" version="1.1">
 <defs>
  <style id="current-color-scheme" type="text/css">
   .ColorScheme-Text { color:#d0d0d0; } .ColorScheme-Highlight { color:#4285f4; } .ColorScheme-NeutralText { color:#ff9800; } .ColorScheme-PositiveText { color:#4caf50; } .ColorScheme-NegativeText { color:#f44336; }
  </style>
 </defs>
 <g transform="translate(3,3)">
  <path style="fill:currentColor" class="ColorScheme-Text" d="M 5,3 C 0,3 0,8 0,8 0,8 0,13 5,13 H 7 V 11 H 5 C 2,11 2,8 2,8 2,8 2,5 5,5 H 7 V 3 Z M 9,3 V 5 H 11 C 14,5 14,8 14,8 14,8 14,11 11,11 H 9 V 13 H 11 C 16,13 16,8 16,8 16,8 16,3 11,3 Z M 5,7 V 9 H 11 V 7 Z"/>
 </g>
</svg>
