<svg xmlns="http://www.w3.org/2000/svg" width="22" height="22" version="1.1">
 <defs>
  <style id="current-color-scheme" type="text/css">
   .ColorScheme-Text { color:#d0d0d0; } .ColorScheme-Highlight { color:#4285f4; } .ColorScheme-NeutralText { color:#ff9800; } .ColorScheme-PositiveText { color:#4caf50; } .ColorScheme-NegativeText { color:#f44336; }
  </style>
 </defs>
 <path style="fill:currentColor" class="ColorScheme-Text" d="M 11.835,6.0045 11.794,6.0314 V 6.3182 C 11.794,6.3531 11.809,6.3776 11.84,6.3988 11.87,6.4212 11.901,6.4347 11.935,6.4347 L 12.067,6.4481 C 12.405,6.4619 12.565,6.5499 12.611,6.6049 12.692,6.7024 12.73,6.8107 12.534,7.2327 L 11.363,9.5347 10.306,7.3977 C 9.9585,6.7149 9.8738,6.5017 10.397,6.4615 L 10.605,6.4346 C 10.706,6.4346 10.755,6.3998 10.755,6.3316 V 6.0314 L 10.678,6.0045 7.8237,6.009 7.7828,6.0359 V 6.336 C 7.7828,6.4031 7.8545,6.4213 7.9915,6.4391 8.4812,6.5028 8.4691,6.553 8.9535,7.5007 L 10.664,10.915 9.0625,14.069 8.9717,14.047 5.7635,7.1337 C 5.6886,6.954 5.6546,6.8213 5.6546,6.7393 5.6546,6.5632 5.8138,6.4702 6.1356,6.457 L 6.5123,6.4391 C 6.6116,6.4391 6.662,6.4012 6.662,6.3226 V 6.0403 L 6.6257,6.009 H 3.0318 L 3,6.0403 V 6.336 C 3,6.39 3.0654,6.4242 3.2042,6.4391 3.5823,6.4591 3.8333,6.5191 3.9529,6.6183 4.072,6.7187 4.3658,7.3667 4.3658,7.3667 L 8.1276,15.521 C 8.3971,16.116 8.7328,16.209 9.144,15.503 L 10.991,11.843 C 11,11.718 11.113,11.883 11.113,11.883 L 12.802,15.494 C 13.106,16.115 13.452,16.175 13.804,15.512 L 17.421,7.4067 C 17.538,7.1077 17.698,6.879 17.906,6.7121 18.114,6.5464 18.435,6.4532 18.868,6.4343 18.957,6.4343 19,6.3953 19,6.3178 V 6.0311 L 18.968,5.9997 H 15.66 L 15.619,6.0311 V 6.3178 C 15.619,6.3516 15.634,6.3772 15.665,6.3985 15.696,6.4208 15.726,6.4343 15.76,6.4343 L 16.037,6.4478 C 16.376,6.4616 16.468,6.528 16.6,6.6404 16.73,6.7557 16.747,6.9509 16.645,7.2277 L 13.718,14.087 13.605,14.056 11.744,10.306 13.745,6.7212 C 13.904,6.4958 13.993,6.4546 14.426,6.4345 14.514,6.4345 14.558,6.3966 14.558,6.318 V 6.0357 L 14.526,6.0043 Z"/>
</svg>
