<svg xmlns="http://www.w3.org/2000/svg" width="22" height="22" viewBox="0 0 22 22">
 <defs>
  <style id="current-color-scheme" type="text/css">
   .ColorScheme-Text { color:#d0d0d0; } .ColorScheme-Highlight { color:#4285f4; } .ColorScheme-NeutralText { color:#ff9800; } .ColorScheme-PositiveText { color:#4caf50; } .ColorScheme-NegativeText { color:#f44336; }
  </style>
 </defs>
 <path style="fill:currentColor" class="ColorScheme-Text" d="M 1 3 L 1 13 L 2 13 L 2 3 L 1 3 z M 14 3 L 14 13 L 15 13 L 15 3 L 14 3 z M 3 4 L 3 12 L 4 12 L 4 4 L 3 4 z M 12 4 L 12 12 L 13 12 L 13 4 L 12 4 z M 5 5 L 5 11 L 11 11 L 11 5 L 5 5 z" transform="translate(3 3)"/>
</svg>
