<svg xmlns="http://www.w3.org/2000/svg" width="16" height="16" version="1.1">
 <path style="fill:#e2d5bc" d="M 2,1 C 1,1 1,2 1,2 V 14 C 1,14 1,15 2,15 H 14 C 15,15 15,14 15,14 V 2 C 15,2 15,1 14,1 H 11 V 3 H 13 V 10 H 10 C 10,11.11 9.11,12 8,12 6.89,12 6,11.11 6,10 H 3 V 3 H 5 V 1 Z"/>
 <path style="fill:#e2d5bc" d="M 6,1 V 5 H 4 L 8,10 12,5 H 10 V 1 Z"/>
</svg>
