<svg xmlns="http://www.w3.org/2000/svg" width="16" height="16" version="1.1">
 <path style="fill:#e2d5bc" d="M 8,0.39 5.88,5.89 0,6.2 4.57,9.92 3.06,15.61 8,12.41 12.94,15.61 11.43,9.92 16,6.2 10.12,5.89 Z"/>
</svg>
