<svg xmlns="http://www.w3.org/2000/svg" width="16" height="16" version="1.1">
 <defs>
  <style id="current-color-scheme" type="text/css">
   .ColorScheme-Text { color:#f8f8f2; } .ColorScheme-Highlight { color:#4285f4; } .ColorScheme-NeutralText { color:#ff9800; } .ColorScheme-PositiveText { color:#4caf50; } .ColorScheme-NegativeText { color:#f44336; }
  </style>
 </defs>
 <path style="opacity:0.3;fill:currentColor" class="ColorScheme-Text" d="M 5,0 C 4.446,0 4,0.446 4,1 V 4 H 1 C 0.446,4 0,4.446 0,5 V 14 C 0,14.554 0.446,15 1,15 H 15 C 15.554,15 16,14.554 16,14 V 5 C 16,4.446 15.554,4 15,4 H 12 V 1 C 12,0.446 11.554,0 11,0 Z M 6,2 H 10 V 4 H 6 Z"/>
</svg>
