<svg xmlns="http://www.w3.org/2000/svg" width="16" height="16" version="1.1">
 <path style="fill:#c0c0c0" d="M 8,0 C 7.55,0 7.1,0.17 6.76,0.53 L 0.57,6.91 C 0.23,7.26 0.05,7.72 0.04,8.18 0.04,8.19 0.04,8.2 0.04,8.21 0.04,9.58 3.69,8.25 4.02,9.92 4.2,10.83 2.03,10.41 2.03,11.32 2.03,12.39 5.1,11.66 5.98,12.53 6.34,13.41 4.8,13.27 5.08,14.09 5.59,14.62 6.75,14.32 6.97,15.18 7.23,16.16 8.89,15.99 9.86,15.27 10.38,14.74 9.07,14.5 9.58,13.96 10.1,13.43 12.64,13.54 12.66,12.38 12.42,11.65 11.46,11.53 11.45,10.67 11.4,9.94 12.23,10.15 14.87,9.43 15.92,8.93 15.96,8.67 15.96,8.21 15.96,8.2 15.96,8.19 15.96,8.18 15.95,7.72 15.74,7.26 15.4,6.91 L 9.24,0.53 C 8.89,0.17 8.45,0 8,0 Z M 8.12,1.34 C 8.59,1.34 9.87,2.92 11.01,4.11 11.34,4.54 10.89,4.98 10.89,4.98 L 8.5,3.67 7.44,5.1 6.51,3.7 5.95,5.88 4.3,4.89 4.74,4.33 7.32,1.68 C 7.51,1.48 7.67,1.34 8.12,1.34 Z M 15.21,10.92 C 15.08,10.91 14.96,10.92 14.87,10.95 14.7,11 13.9,11.03 13.97,11.63 14.69,11.94 15.79,12.18 15.92,11.57 16.02,11.12 15.59,10.93 15.21,10.92 Z M 2.87,12.94 C 2.8,12.95 2.75,12.97 2.69,13 2.14,13.21 1.77,13.65 2.28,13.84 2.79,14.03 3.14,13.83 3.59,13.59 4.04,13.35 4.02,13.31 3.99,13.22 3.93,13.23 3.52,12.98 3.09,12.94 3.02,12.93 2.94,12.93 2.87,12.94 Z"/>
</svg>
