<svg xmlns="http://www.w3.org/2000/svg" width="16" height="16" version="1.1">
 <path style="fill:#CFD5D6" d="M 7,11 H 10 V 12 H 7 Z"/>
 <path style="fill:#CFD5D6" d="M 7,13 H 10 V 14 H 7 Z"/>
 <path style="fill:#CFD5D6" d="M -2.22,-7.82 H 0.78 V -6.82 H -2.22 Z" transform="rotate(135)"/>
 <path style="fill:#CFD5D6" d="M -2.22,-5.82 H 0.78 V -4.82 H -2.22 Z" transform="rotate(135)"/>
 <path style="fill:#CFD5D6" d="M -12.82,4.2 H -9.82 V 7.2 H -12.82 Z" transform="rotate(-135)"/>
 <path style="fill:#CFD5D6" d="M 8.5,5 C 7.12,5 6,6.119 6,7.5 6,8.881 7.12,10 8.5,10 9.88,10 11,8.881 11,7.5 11,6.119 9.88,5 8.5,5 Z M 8.5,6 C 9.33,6 10,6.672 10,7.5 10,8.328 9.33,9 8.5,9 7.67,9 7,8.328 7,7.5 7,6.672 7.67,6 8.5,6 Z"/>
</svg>
