<svg xmlns="http://www.w3.org/2000/svg" width="32" height="32" version="1">
 <rect style="opacity:0.2" width="25" height="16" x="3" y="12" rx="1.25" ry="1.25"/>
 <path style="fill:#ba6236" d="M 3,21.75 C 3,22.442 3.5575,23 4.25,23 H 26.75 C 27.442,23 28,22.442 28,21.75 V 8.25 C 28,7.5575 27.442,7 26.75,7 H 14 V 6.25 C 14,5.5575 13.443,5 12.75,5 H 4.25 C 3.5575,5 3,5.5575 3,6.25"/>
 <rect style="opacity:0.2" width="25" height="16" x="3" y="10" rx="1.25" ry="1.25"/>
 <rect style="fill:#e4e4e4" width="21" height="10" x="5" y="9" rx="1.25" ry="1.25"/>
 <rect style="fill:#ba6236" width="25" height="16" x="3" y="11" rx="1.25" ry="1.25"/>
 <path style="opacity:0.1;fill:#ffffff" d="M 4.25 5 C 3.5575 5 3 5.5575 3 6.25 L 3 7.25 C 3 6.5575 3.5575 6 4.25 6 L 12.75 6 C 13.443 6 14 6.5575 14 7.25 L 14 8 L 26.75 8 C 27.442 8 28 8.5575 28 9.25 L 28 8.25 C 28 7.5575 27.442 7 26.75 7 L 14 7 L 14 6.25 C 14 5.5575 13.443 5 12.75 5 L 4.25 5 z"/>
 <path style="fill:#22221b;fill-rule:evenodd" d="m 12.055391,14.000099 c -0.08401,0 -0.168122,0.04757 -0.199495,0.142885 L 10.635908,18 h 2.838967 l -1.219989,-3.857016 c -0.03139,-0.09532 -0.115484,-0.142885 -0.199495,-0.142885 z M 13.474875,18 l 2.02513,6 2.02513,-6 z m 4.05026,0 h 2.838968 l -1.219989,-3.857016 c -0.06274,-0.190645 -0.336216,-0.190645 -0.39899,0 z m 2.838968,0 -4.864098,6 5.327028,-3.819864 c 0.146989,-0.105359 0.208568,-0.292063 0.152435,-0.462577 z m -4.864098,6 -4.864097,-6 -0.615366,1.717559 c -0.05613,0.170514 0.0054,0.357218 0.152435,0.462577 z"/>
</svg>
