<svg xmlns="http://www.w3.org/2000/svg" width="24" height="24" version="1">
 <rect style="opacity:0.2" width="20" height="12" x="2" y="9.5" rx="1" ry="1"/>
 <path style="fill:#EF2F27" d="M 2,17 C 2,17.554 2.446,18 3,18 H 21 C 21.554,18 22,17.554 22,17 V 6 C 22,5.446 21.554,5 21,5 H 12 C 10.5,5 10,3 8.5,3 H 3 C 2.446,3 2,3.446 2,4"/>
 <rect style="opacity:0.2" width="20" height="10" x="2" y="10.5" rx="1" ry="1"/>
 <rect style="fill:#e4e4e4" width="16" height="8" x="4" y="7" rx="1" ry="1"/>
 <rect style="fill:#EF2F27" width="20" height="10" x="2" y="11" rx="1" ry="1"/>
 <path style="opacity:0.1;fill:#ffffff" d="M 3,3 C 2.446,3 2,3.446 2,4 V 4.5 C 2,3.946 2.446,3.5 3,3.5 H 8.5 C 10,3.5 10.5,5.5 12,5.5 H 21 C 21.554,5.5 22,5.946 22,6.5 V 6 C 22,5.446 21.554,5 21,5 H 12 C 10.5,5 10,3 8.5,3 Z"/>
 <path style="fill:#1C1B19" d="M 11,17.088 C 10.839,17.031 10.67,17.001 10.5,17 9.672,17 9,17.672 9,18.5 9,19.329 9.672,20 10.5,20 11.328,20 12,19.329 12,18.5 V 15 H 15 V 17.088 C 14.839,17.031 14.67,17.001 14.5,17 13.672,17 13,17.672 13,18.5 13,19.329 13.672,20 14.5,20 15.328,20 16,19.329 16,18.5 V 13.5 C 16,13.223 15.666,13 15.25,13 H 11.75 C 11.334,13 11,13.223 11,13.5"/>
</svg>
