<svg xmlns="http://www.w3.org/2000/svg" width="16" height="16" version="1.1">
 <path style="opacity:0.3;fill:#d9d9d9" d="M 12,0 V 11 L 7,16 H 14 C 15.11,16 16,15.108 16,14 V 2 C 16,0.892 15.11,0 14,0 Z"/>
 <path style="fill:#d9d9d9" d="M 2,0 C 0.89,0 0,0.892 0,2 V 14 C 0,15.108 0.89,16 2,16 H 6 V 13 C 6,13 6,11 8,11 H 11 V 0 Z M 2,2 H 3.5 C 4.33,2 5,2.669 5,3.5 5,3.887 4.85,4.235 4.61,4.5 4.85,4.765 5,5.113 5,5.5 5,6.331 4.33,7 3.5,7 H 2 V 6 H 3.5 C 3.78,6 4,5.777 4,5.5 4,5.223 3.78,5 3.5,5 H 2 V 4 H 3.5 C 3.78,4 4,3.777 4,3.5 4,3.223 3.78,3 3.5,3 H 2 Z M 6.5,2 H 8 V 7 H 7 V 3 H 6 Z"/>
</svg>
