<svg xmlns="http://www.w3.org/2000/svg" width="22" height="22" version="1.1">
 <defs>
  <style id="current-color-scheme" type="text/css">
   .ColorScheme-Text { color:#D3C6AA; } .ColorScheme-Highlight { color:#4285f4; } .ColorScheme-NeutralText { color:#ff9800; } .ColorScheme-PositiveText { color:#4caf50; } .ColorScheme-NegativeText { color:#f44336; }
  </style>
 </defs>
 <path style="fill:currentColor;opacity:0.3" class="ColorScheme-Text" d="M 8.5 5 A 1.5 1.5 0 0 0 7 6.5 A 1.5 1.5 0 0 0 8.5 8 C 10.005792 8 11.445151 8.322598 12.744141 9.1269531 C 13.330491 8.3563929 14.104587 7.697638 15.056641 7.1660156 C 13.073485 5.6926702 10.777478 5 8.5 5 z M 3.515625 6 A 1.5 1.5 0 0 0 3.3222656 6.0097656 A 1.5 1.5 0 0 0 2.0097656 7.6777344 C 2.324551 10.330335 3.3599573 12.220342 4.7109375 13.466797 C 6.0619177 14.713251 7.609899 15.326857 8.9121094 15.880859 A 1.5 1.5 0 0 0 10.880859 15.087891 A 1.5 1.5 0 0 0 10.087891 13.119141 C 8.7660246 12.556776 7.5961137 12.047774 6.7441406 11.261719 C 5.8921675 10.475663 5.23956 9.4232569 4.9902344 7.3222656 A 1.5 1.5 0 0 0 3.515625 6 z M 18.433594 7 A 1.5 1.5 0 0 0 18.140625 7.0429688 C 15.576693 7.6758583 13.904178 8.8687335 13.070312 10.449219 C 12.236448 12.029704 12.192712 13.668269 12.009766 15.335938 A 1.5 1.5 0 0 0 13.335938 16.990234 A 1.5 1.5 0 0 0 14.990234 15.664062 C 15.182306 13.91321 15.314091 12.625743 15.724609 11.847656 C 16.135128 11.06957 16.775855 10.471334 18.859375 9.9570312 A 1.5 1.5 0 0 0 19.957031 8.140625 A 1.5 1.5 0 0 0 18.537109 7 A 1.5 1.5 0 0 0 18.433594 7 z M 7.8085938 8.890625 C 7.6996418 9.514551 7.5823434 10.071034 7.4492188 10.548828 C 8.0617079 11.103426 9.013834 11.557303 10.150391 12.048828 C 10.434002 11.239205 10.618677 10.318594 10.777344 9.3378906 C 10.05939 9.1142468 9.3048286 9 8.5 9 C 8.2591492 9 8.0298586 8.955794 7.8085938 8.890625 z M 18.466797 11.121094 C 17.899298 11.299742 17.457781 11.478524 17.214844 11.638672 C 16.883354 11.857195 16.763796 12.021767 16.609375 12.314453 C 16.501304 12.519289 16.404004 12.907084 16.310547 13.410156 A 1.5 1.5 0 0 0 18.158203 13.847656 A 1.5 1.5 0 0 0 18.847656 11.841797 C 18.726116 11.593117 18.597653 11.355357 18.466797 11.121094 z M 3.7402344 13.904297 C 3.5642588 13.943002 3.427816 13.987457 3.2304688 14.023438 A 1.5 1.5 0 0 0 2.0234375 15.769531 A 1.5 1.5 0 0 0 3.7695312 16.976562 C 4.9042515 16.769679 5.9023281 16.45024 6.7675781 16.013672 C 5.870866 15.574821 4.9243274 15.023349 4.0332031 14.201172 C 3.9323108 14.108086 3.8376263 14.003637 3.7402344 13.904297 z"/>
</svg>
