<svg xmlns="http://www.w3.org/2000/svg" width="22" height="22" version="1.1">
 <defs>
  <style id="current-color-scheme" type="text/css">
   .ColorScheme-Text { color:#D3C6AA; } .ColorScheme-Highlight { color:#4285f4; } .ColorScheme-NeutralText { color:#ff9800; } .ColorScheme-PositiveText { color:#4caf50; } .ColorScheme-NegativeText { color:#f44336; }
  </style>
 </defs>
 <path fill-rule="evenodd" style="fill:currentColor" class="ColorScheme-Text" d="m11.928 7.7935c1.8641 0.027066 2.1077 1.4722 2.6528 1.508 0.67581 0.043499 1.0585 0.88737 0.78596 1.4577-0.27256 0.57031-0.69168 0.28032-0.70568 0.95794-0.0084 0.39439 0.17362 0.68728 0.32204 0.69211 0.41912-0.31996 0.8597-0.32576 1.0809-0.11793 0.22029 0.20783 0.22123 0.62928 0.21842 1.1629 0.99598 1.1406 1.2443 1.2296 1.5075 1.7651 0.20349 0.41469 0.40325 1.1561-0.14468 1.3939-0.39298 1.564-1.5084 2.1015-2.6202 1.9652-0.37151-0.03867-1.3311 0.71724-3.3221 0.29096-1.5392-0.32962-8.4476-2.0174-7.6374-5.1241 0.71782-2.7404 3.1858-8.8718 3.9186-9.5832 0 0-0.14748 1.4935 0.49939 2.1024 0.2859-2.4111 2.1065-3.1863 2.7455-3.2646-0.626 0.7443-0.943 1.5988-0.76 2.3383 1.42-1.7603 3.798-1.5814 4.899-1.0024-4.747 0.841-3.438 3.4586-3.438 3.4586z"/>
</svg>
