<svg xmlns="http://www.w3.org/2000/svg" width="22" height="22" version="1.1">
 <defs>
  <style id="current-color-scheme" type="text/css">
   .ColorScheme-Text { color:#D3C6AA; } .ColorScheme-Highlight { color:#4285f4; } .ColorScheme-NeutralText { color:#ff9800; } .ColorScheme-PositiveText { color:#4caf50; } .ColorScheme-NegativeText { color:#f44336; }
  </style>
 </defs>
 <path style="fill:currentColor" class="ColorScheme-Text" d="M 16 4 C 13.894331 4.000493 12.149595 5.6333541 12.009766 7.734375 L 10.033203 11.001953 A 3 3 0 0 0 10 11 A 3 3 0 0 0 7.796875 11.96875 L 3.4082031 10.085938 A 0.99811608 0.99864687 0 0 0 3.0214844 10 A 0.99811608 0.99864687 0 0 0 2.6210938 11.923828 L 7.0078125 13.804688 A 3 3 0 0 0 7 14 A 3 3 0 0 0 10 17 A 3 3 0 0 0 13 14 A 3 3 0 0 0 12.994141 13.886719 L 16.339844 11.982422 C 18.408544 11.806026 19.998383 10.076206 20 8 C 20 5.790861 18.209139 3.9999999 16 4 z M 16 5 C 17.656854 4.9999999 19 6.3431457 19 8 C 19 9.6568543 17.656854 11 16 11 C 14.343146 11 13 9.6568543 13 8 C 13 6.3431457 14.343146 4.9999999 16 5 z M 16 6 C 14.895431 6.0000001 14 6.8954305 14 8 C 14 9.1045695 14.895431 9.9999999 16 10 C 17.104569 9.9999999 18 9.1045695 18 8 C 18 6.8954305 17.104569 6.0000001 16 6 z M 10 12 A 2 2 0 0 1 12 14 A 2 2 0 0 1 10 16 A 2 2 0 0 1 8.0175781 14.238281 L 9.6074219 14.919922 A 0.99896958 0.99950083 0 1 0 10.394531 13.082031 L 8.8027344 12.400391 A 2 2 0 0 1 10 12 z"/>
 <path style="fill:currentColor" class="ColorScheme-Text" d="M 13.349609,10.990234 A 3.9999998,3.9999998 0 0 0 13.363281,11.001953 L 13.353516,11 Z"/>
</svg>
