<svg xmlns="http://www.w3.org/2000/svg" width="16" height="16" version="1.1">
 <path style="fill:#c0c0c0" d="M 0,5 V 12 H 12 Z M 2,8 5,10 H 2 Z"/>
 <path style="fill:#c0c0c0" d="M 3,1 C 3,1 2,1 2,2 V 4.75 L 4,5.9 V 3 H 12 V 13 H 2 V 14 C 2,15 3,15 3,15 H 13 C 13,15 14,15 14,14 V 2 C 14,1 13,1 13,1 Z"/>
</svg>
