<svg xmlns="http://www.w3.org/2000/svg" width="16" height="16" version="1.1">
 <path style="fill:#c0c0c0" d="M 10,2 A 2,2 0 0 1 8,4 2,2 0 0 1 6,2 2,2 0 0 1 8,0 2,2 0 0 1 10,2 Z"/>
 <path style="fill:#c0c0c0" d="M 7,16 V 9 L 3.5,12.5 2,11 8,5 14,11 12.5,12.5 9,9 V 16 Z"/>
</svg>
