<svg xmlns="http://www.w3.org/2000/svg" width="16" height="16" version="1.1">
 <path style="fill:#c0c0c0" d="M 8,2 A 1,1 0 0 0 7,3 1,1 0 0 0 8,4 4,4 0 0 1 12,8 H 10 L 13,12 16,8 H 14 A 6,6 0 0 0 8,2 Z M 3,4 0,8 H 2 A 6,6 0 0 0 8,14 1,1 0 0 0 9,13 1,1 0 0 0 8,12 4,4 0 0 1 4,8 H 6 Z"/>
</svg>
