/* XPM */
static char * title_5_active_xpm[] = {
"2 26 3 1",
" 	c None",
".	c #c8582d",
"+	c #232a2f",
"..",
"++",
"++",
"++",
"++",
"++",
"++",
"++",
"++",
"++",
"++",
"++",
"++",
"++",
"++",
"++",
"++",
"++",
"++",
"++",
"++",
"++",
"++",
"++",
"++",
"++"};
