/* XPM */
static char * menu_prelight_xpm[] = {
"24 16 2 1",
" 	c None",
".	c #22221b",
"........................",
"........................",
"........................",
"........................",
"........................",
"........................",
"........................",
"........................",
"........................",
"........................",
"........................",
"........................",
"........................",
"........................",
"........................",
"........................"};
