<svg xmlns="http://www.w3.org/2000/svg" width="16" height="16" version="1.1">
 <path style="fill:#cac9bf" d="M 1,3 H 2 V 13 H 1 Z"/>
 <path style="fill:#cac9bf" d="M 3,4 H 4 V 12 H 3 Z"/>
 <path style="fill:#cac9bf" d="M 12,4 H 13 V 12 H 12 Z"/>
 <path style="fill:#cac9bf" d="M 14,3 H 15 V 13 H 14 Z"/>
 <path style="fill:#cac9bf" d="M 5,5 V 11 H 11 V 5 Z"/>
</svg>
