<svg xmlns="http://www.w3.org/2000/svg" width="16" height="16" version="1.1">
 <path style="fill:#d0d0d0" d="M 5,1 V 9.19 C 4.68,9.08 4.36,9 4,9 2.34,9 1,10.35 1,12 1,13.66 2.34,15 4,15 5.66,15 7,13.66 7,12 V 5 H 13 V 9.19 C 12.68,9.08 12.36,9 12,9 10.34,9 9,10.35 9,12 9,13.66 10.34,15 12,15 13.66,15 15,13.66 15,12 V 1 Z"/>
</svg>
