<svg xmlns="http://www.w3.org/2000/svg" width="16" height="16" version="1.1">
 <path style="opacity:0.3;fill:#c0c0c0" d="M 8,1 C 4.9494,1 2.0806,2.0732 0,4 l 8,10.9995 3,-3.375 V 5 h 4 V 6.125 L 16,4 C 13.919,2.0731 11.051,1 8,1 Z"/>
 <path style="fill:#4285f4" class="warning" d="M 12,6 V 10 L 12.25,12 H 13.75 L 14,10 V 6 Z M 12,13 V 15 H 14 V 13 Z"/>
</svg>
