<svg xmlns="http://www.w3.org/2000/svg" width="22" height="22" version="1.1">
 <defs>
  <style id="current-color-scheme" type="text/css">
   .ColorScheme-Text { color:#c0c0c0; } .ColorScheme-Highlight { color:#4285f4; }
  </style>
 </defs>
 <g transform="translate(3,3)">
  <path style="fill:currentColor" class="ColorScheme-Highlight" d="M 12,7 V 11 L 12.25,13 H 13.75 L 14,11 V 7 Z M 12,14 V 16 H 14 V 14 Z"/>
  <path style="fill:currentColor" class="ColorScheme-Text" d="M 9,2 A 1,1 0 0 1 8,3 1,1 0 0 1 7,2 1,1 0 0 1 8,1 1,1 0 0 1 9,2 Z M 8,0 C 8,0 6,0 6,2 H 2 C 2,2 1,2 1,3 V 14 C 1,15 2,15 2,15 H 11 V 12 H 4 V 11 H 11 V 9 H 4 V 8 H 11 V 6 H 4 V 5 H 12 V 6 H 15 V 3 C 15,2 14,2 14,2 H 10 C 10,0 8,0 8,0 Z"/>
 </g>
</svg>
