<svg xmlns="http://www.w3.org/2000/svg" width="22" height="22" viewBox="0 0 22 22">
 <defs>
  <style id="current-color-scheme" type="text/css">
   .ColorScheme-Text { color:#c0c3cf; } .ColorScheme-Highlight { color:#4285f4; }
  </style>
 </defs>
 <path style="fill:currentColor" class="ColorScheme-Text" d="M 1 0 L 1 16 L 3 16 L 3 15 L 3 0 L 1 0 z M 3 15 L 5.5 15 L 6.5625 12 L 11.4375 12 L 12.5 15 L 15.28125 15 L 10 1 L 8 1 L 3 15 z M 9 5 L 10.75 10 L 7.25 10 L 9 5 z" transform="translate(3 3)"/>
</svg>
