<svg xmlns="http://www.w3.org/2000/svg" width="22" height="22" viewBox="0 0 22 22">
 <defs>
  <style id="current-color-scheme" type="text/css">
   .ColorScheme-Text { color:#c0c3cf; } .ColorScheme-Highlight { color:#4285f4; }
  </style>
 </defs>
 <path style="fill:currentColor" class="ColorScheme-Text" d="m1 1v5h7v-5h-7zm8 0v7h6v-7h-6zm-8 8v6h7v-6h-7zm8 0v4h6v-4h-6z" transform="translate(3 3)"/>
</svg>
