<svg xmlns="http://www.w3.org/2000/svg" width="22" height="22" version="1.1">
 <defs>
  <style id="current-color-scheme" type="text/css">
   .ColorScheme-Text { color:#c0c3cf; } .ColorScheme-Highlight { color:#4285f4; }
  </style>
 </defs>
 <g transform="translate(3,3)">
  <path style="fill:currentColor" class="ColorScheme-Text" d="M 1,0 V 2 H 3 V 7 H 7 V 2 H 9 V 7 H 13 V 2 H 15 V 0 Z M 1,9 V 11 H 3 V 16 H 7 V 11 H 9 V 16 H 13 V 11 H 15 V 9 Z"/>
 </g>
</svg>
