<svg xmlns="http://www.w3.org/2000/svg" width="22" height="22" version="1.1">
 <defs>
  <style id="current-color-scheme" type="text/css">
   .ColorScheme-Text { color:#c0c3cf; } .ColorScheme-Highlight { color:#4285f4; }
  </style>
 </defs>
 <g transform="translate(3,3)">
  <path style="fill:currentColor" class="ColorScheme-Text" d="M 6,3 V 7.2891 L 3.7695,5.5937 V 7.3887 L 0,7.2012 V 8.7988 L 3.7695,8.6113 V 10.406 L 6,8.7109 V 13 L 9.4687,8.7285 V 9.8887 L 11.676,8.2148 V 11.611 L 13.748,8.5898 V 9.5371 L 16,8 13.748,6.4629 V 7.4102 L 11.676,4.3887 V 7.7852 L 9.4687,6.1113 V 7.2715 Z"/>
 </g>
</svg>
