<svg xmlns="http://www.w3.org/2000/svg" width="22" height="22" version="1.1">
 <defs>
  <style id="current-color-scheme" type="text/css">
   .ColorScheme-Text { color:#c0c3cf; } .ColorScheme-Highlight { color:#4285f4; }
  </style>
 </defs>
 <rect style="fill:currentColor" class="ColorScheme-Highlight" width="6" height="6" x="8" y="8"/>
 <path style="fill:currentColor" class="ColorScheme-Text" d="M 3 12 L 3 16 L 7 16 L 15 16 L 16 16 L 19 16 L 19 12 L 15 12 L 15 15 L 7 15 L 7 12 L 3 12 z"/>
 <path style="fill:currentColor" class="ColorScheme-Highlight" transform="matrix(0.69282032,0,0,0.39999999,4.0717967,2.6000001)" d="M 5.6698729,3.5000001 10,3.5 14.330127,3.4999999 12.165063,7.2500001 10,11 7.8349365,7.2499999 Z"/>
</svg>
