<svg xmlns="http://www.w3.org/2000/svg" width="22" height="22" version="1.1">
 <defs>
  <style id="current-color-scheme" type="text/css">
   .ColorScheme-Text { color:#c0c3cf; } .ColorScheme-Highlight { color:#4285f4; }
  </style>
 </defs>
 <g transform="translate(3,3)">
  <path style="fill:currentColor" class="ColorScheme-Text" d="M 10,10 V 12 H 12 V 10 Z M 7,10 V 12 H 9 V 10 Z M 4,10 V 12 H 6 V 10 Z M 10,7 V 9 H 12 V 7 Z M 7,7 V 9 H 9 V 7 Z M 4,7 V 9 H 6 V 7 Z M 10,4 V 6 H 12 V 4 Z M 7,4 V 6 H 9 V 4 Z M 4,4 V 6 H 6 V 4 Z M 3,1 C 1,1 1,3 1,3 V 15 H 15 V 3 C 15,3 15,1 13,1 Z M 3,3 H 13 V 13 H 3 Z"/>
 </g>
</svg>
