/* XPM */
static char * title_4_active_xpm[] = {
"2 26 3 1",
" 	c None",
".	c #C0C3CF",
"+	c #1C1d21",
"..",
"++",
"++",
"++",
"++",
"++",
"++",
"++",
"++",
"++",
"++",
"++",
"++",
"++",
"++",
"++",
"++",
"++",
"++",
"++",
"++",
"++",
"++",
"++",
"++",
"++"};
