<svg xmlns="http://www.w3.org/2000/svg" width="22" height="22" version="1.1">
 <defs>
  <style id="current-color-scheme" type="text/css">
   .ColorScheme-Text { color:#cbe3e7; } .ColorScheme-Highlight { color:#4285f4; } .ColorScheme-NeutralText { color:#ff9800; } .ColorScheme-PositiveText { color:#4caf50; } .ColorScheme-NegativeText { color:#f44336; }
  </style>
 </defs>
 <path style="fill:currentColor" class="ColorScheme-Text" d="M 9.3378906 3 C 9.2917506 3 8.9898905 3.5097587 8.703125 4.0722656 C 8.2833253 4.8957293 8.0823547 5.5282129 8.0136719 6.2597656 C 7.9967029 6.44054 8.0003426 6.6184414 8.0117188 6.7929688 C 8.0046383 6.8715927 8.00072 6.9503658 8 7.0292969 C 8 7.350909 8.06468 7.6552539 8.1601562 7.9453125 C 6.895099 8.5095454 5.823752 9.4303815 5.0878906 10.589844 C 4.9068303 10.826602 4.7468155 11.073389 4.6308594 11.337891 C 4.4486475 11.753525 4.313504 12.183712 4.2109375 12.648438 C 4.1426895 12.924193 4.0852482 13.20267 4.0507812 13.490234 C 4.0477112 13.515834 4.0557914 13.521208 4.0683594 13.517578 C 4.0552044 13.628341 4.0375768 13.733607 4.0273438 13.849609 C 3.9945392 14.221498 3.990599 14.374998 4.015625 14.375 L 8 10 L 6.96875 13.455078 C 6.97482 13.461178 7.1062876 13.407508 7.2617188 13.335938 C 8.2166789 12.896235 9.4068491 12.129473 10.458984 12.003906 C 10.821824 11.960606 12.080719 11.956424 12.458984 11.996094 C 12.832034 12.035184 13.188956 12.195526 13.556641 12.376953 C 14.485487 11.493524 15.718143 11.000626 17 11 C 17.04691 11.0019 17.09379 11.004513 17.140625 11.007812 C 17.124655 10.955732 17.099268 10.896318 17.054688 10.818359 C 16.958797 10.563556 16.816689 10.307994 16.603516 10.019531 C 15.812931 9.1507866 14.885394 8.4287802 13.837891 7.9492188 C 13.934232 7.6579794 14 7.3524242 14 7.0292969 C 13.999974 6.9537899 13.997887 6.8780222 13.992188 6.8027344 C 13.994787 6.7274754 14.001947 6.6521806 13.998047 6.578125 C 13.94482 5.5609826 13.350328 4.8631388 12.453125 4.4042969 C 11.978118 4.1613714 11.251468 4.0478117 10.777344 4.046875 C 10.185851 4.045709 9.7363509 3.537145 9.4472656 3.1210938 C 9.4009907 3.0544931 9.3516794 2.9999994 9.3378906 3 z M 12.355469 12.990234 C 12.213148 12.975324 10.678186 12.984094 10.578125 12.996094 C 9.9135234 13.075414 8.7491037 13.751739 7.6796875 14.244141 C 7.5909405 14.285001 7.5096359 14.321392 7.4355469 14.351562 C 7.3985019 14.366643 7.366892 14.379364 7.3164062 14.396484 C 7.2911633 14.405084 7.2657062 14.414496 7.1992188 14.429688 C 7.1659748 14.437288 7.1266108 14.447525 7.0273438 14.453125 C 6.9777107 14.455925 6.7992596 14.441486 6.7988281 14.441406 C 6.7986124 14.441294 6.5782807 14.37507 6.578125 14.375 C 6.5779693 14.374934 6.2598605 14.160252 6.2597656 14.160156 C 6.1301038 14.029833 6.0388721 13.866291 5.9960938 13.6875 L 4.7558594 15.048828 C 4.5835357 15.238164 4.3451639 15.354204 4.0898438 15.373047 C 4.2920062 16.722159 4.8839712 17.9828 5.7929688 19 L 13.007812 19 C 12.355913 18.135498 12.002253 17.082743 12 16 C 12.000368 14.999137 12.3011 14.021417 12.863281 13.193359 C 12.650594 13.088004 12.470002 13.002236 12.355469 12.990234 z M 8 15 C 8.5522847 15 9 15.447715 9 16 C 9 16.552285 8.5522847 17 8 17 C 7.4477153 17 7 16.552285 7 16 C 7 15.447715 7.4477153 15 8 15 z"/>
 <path style="fill:currentColor" class="ColorScheme-NegativeText" d="M 17 12 C 14.7909 12 13 13.7909 13 16 C 13 18.2091 14.7909 20 17 20 C 19.2091 20 21 18.2091 21 16 C 21 13.7909 19.2091 12 17 12 z M 16 13 L 18 13 L 18 17 L 16 17 L 16 13 z M 16 18 L 18 18 L 18 19 L 16 19 L 16 18 z"/>
 <circle style="fill:currentColor" class="ColorScheme-NegativeText" cx="18" cy="6" r="2"/>
</svg>
