<svg xmlns="http://www.w3.org/2000/svg" width="22" height="22" version="1.1">
 <defs>
  <style id="current-color-scheme" type="text/css">
   .ColorScheme-Text { color:#cbe3e7; } .ColorScheme-Highlight { color:#4285f4; } .ColorScheme-NeutralText { color:#ff9800; } .ColorScheme-PositiveText { color:#4caf50; } .ColorScheme-NegativeText { color:#f44336; }
  </style>
 </defs>
 <path style="fill:currentColor" class="ColorScheme-Text" d="m 10.466797,3.0039062 c -0.6684961,0.03465 -1.9618667,0.3406927 -2.6347658,1.4316407 0,0 -0.6211408,-0.2001508 0.1035157,-1.3398438 C 7.9355469,3.0957031 6.0002798,3 4.9433594,4 H 3 v 10.166016 c 0,0 2.6301792,5.81363 11.175781,4.689453 0,0 3.86735,-0.584437 3.361328,-4.208985 0,0 1.208391,-1.374352 1.38086,-3.126953 0.159394,-1.6186086 0.141687,-2.3876035 -0.541016,-4.4853435 -0.04765,-0.146236 -0.250044,-0.13521 -0.28125,0.015625 -0.239303,1.15718 -0.705748,3.5013695 -2.722656,4.6845625 0,0 1.061817,-1.374641 0.482422,-3.75326 -0.01857,-0.07629 -0.123961,-0.068314 -0.132813,0.00977 -0.08497,0.754987 -0.387588,1.8036391 -1.417968,2.132166 0,0 -0.84007,-2.4086226 -3.634766,-3.9824216 0,0 0.241394,-0.7526635 0.310547,-1.2890625 0.06894,-0.536623 -0.173044,-0.7866144 -0.03516,-1.0371094 0.138102,-0.250501 0.689454,-0.6074218 0.689454,-0.6074219 0,0 -0.499471,-0.2377789 -1.167969,-0.203125 z m 1.46875,7.9980468 c 0.603757,-0.0382 1.100446,0.458669 1.0625,1.0625 -0.0317,0.497666 -0.433741,0.902209 -0.931641,0.933594 -0.603749,0.0382 -1.102693,-0.458671 -1.064453,-1.0625 0.03139,-0.497953 0.435702,-0.902209 0.933594,-0.933594 z m 3.490234,5 c 0.136667,0.0079 0.286952,0.03438 0.410157,0.105469 0.04094,0.02367 0.183378,0.105882 0.162109,0.203125 -0.02021,0.09264 -0.175936,0.146571 -0.234375,0.166015 -0.179349,0.05976 -0.250353,0.0094 -0.484375,0.05664 -0.05708,0.0115 -0.232009,0.04783 -0.382813,0.144531 -0.122798,0.07885 -0.09225,0.10987 -0.205078,0.183594 -0.110958,0.07267 -0.346439,0.177861 -0.513672,0.125 -0.159694,-0.05038 -0.175041,-0.217825 -0.177734,-0.25 -0.01883,-0.229131 0.243373,-0.402298 0.353516,-0.474609 0.113094,-0.07408 0.368941,-0.214288 0.75,-0.25 0.06448,-0.0061 0.185597,-0.01759 0.322265,-0.0098 z"/>
</svg>
