<svg xmlns="http://www.w3.org/2000/svg" width="22" height="22" version="1.1">
 <defs>
  <style id="current-color-scheme" type="text/css">
   .ColorScheme-Text { color:#cbe3e7; } .ColorScheme-Highlight { color:#4285f4; } .ColorScheme-NeutralText { color:#ff9800; } .ColorScheme-PositiveText { color:#4caf50; } .ColorScheme-NegativeText { color:#f44336; }
  </style>
 </defs>
 <path style="fill:currentColor;opacity:0.3" class="ColorScheme-Text" d="M 6.0253906 4 L 6.0253906 4.0019531 C 3.5366823 4.0019531 1.6659672 6.0030219 1.5351562 8.4824219 L 1.0371094 16.943359 C 0.72208294 18.793359 2.5196244 19.9605 4.03125 17.9375 C 4.9738288 16.6585 7 14 7 14 L 15 14.041016 L 17.988281 18.0625 C 19.487306 20.0745 21.174891 18.420374 20.984375 17.058594 L 20.488281 8.5839844 C 20.489065 8.5493604 20.498047 8.5172394 20.498047 8.4824219 C 20.498017 6.0000219 18.496121 4 16.007812 4 L 6.0253906 4 z M 8 5 L 9.4140625 5 C 9.6792616 5.000051 9.933582 5.1054325 10.121094 5.2929688 L 11 6.171875 L 11.878906 5.2929688 C 12.066418 5.1054322 12.320738 5.0000509 12.585938 5 L 14 5 C 14.552262 5.0000552 14.999945 5.4477381 15 6 L 15 7.4140625 C 14.999949 7.6792615 14.894567 7.933582 14.707031 8.1210938 L 13.828125 9 L 14.707031 9.8789062 C 14.894567 10.066418 14.999949 10.320738 15 10.585938 L 15 12 C 14.999945 12.552262 14.552262 12.999945 14 13 L 12.585938 13 C 12.320738 12.999949 12.066418 12.894568 11.878906 12.707031 L 11 11.828125 L 10.121094 12.707031 C 9.9335821 12.894567 9.6792616 12.999949 9.4140625 13 L 8 13 C 7.4477381 12.999945 7.0000552 12.552262 7 12 L 7 10.585938 C 7.0000509 10.320738 7.1054324 10.066418 7.2929688 9.8789062 L 8.171875 9 L 7.2929688 8.1210938 C 7.1054325 7.9335821 7.000051 7.6792615 7 7.4140625 L 7 6 C 6.7614659 5.4477381 7.0716882 5.0000552 8 5 z"/>
 <path style="fill:currentColor" class="ColorScheme-NegativeText" d="M 8 6 L 8 7.4140625 L 9.5859375 9 L 8 10.585938 L 8 12 L 9.4140625 12 L 11 10.414062 L 12.585938 12 L 14 12 L 14 10.585938 L 12.414062 9 L 14 7.4140625 L 14 6 L 12.585938 6 L 11 7.5859375 L 9.4140625 6 L 8 6 z"/>
</svg>
