<svg xmlns="http://www.w3.org/2000/svg" width="22" height="22" version="1.1">
 <defs>
  <style id="current-color-scheme" type="text/css">
   .ColorScheme-Text { color:#cbe3e7; } .ColorScheme-Highlight { color:#4285f4; } .ColorScheme-NeutralText { color:#ff9800; } .ColorScheme-PositiveText { color:#4caf50; } .ColorScheme-NegativeText { color:#f44336; }
  </style>
 </defs>
 <path style="fill:currentColor" class="ColorScheme-Text" d="m12.5 4c-1.5387 0-2.9701 0.7889-3.7949 2.0879-0.23072-0.057-0.4674-0.087-0.70508-0.088-1.6569 0-3 1.3431-3 3 0.0011 0.4065 0.08486 0.8085 0.24609 1.1816-1.9218 0.557-3.2446 2.317-3.2461 4.318 0 2.4853 2.0147 4.5 4.5 4.5h6.4453l-3.8145-4.1621a0.50005 0.50005 0 0 1 0.369 -0.8h2.5v-4.5a0.50005 0.50005 0 0 1 0.5 -0.5h5a0.50005 0.50005 0 0 1 0.21094 0.047c-0.226-0.163-0.464-0.3128-0.717-0.4416 0.0024-0.035 0.0043-0.07 0.0059-0.1055 0-2.4853-2.0147-4.5-4.5-4.5zm5.4023 5.2012a0.50005 0.50005 0 0 1 0.098 0.2988v4.5h1.957c0.01516-0.1663 0.04297-0.3297 0.04297-0.5-0.0023-1.6986-0.79549-3.2697-2.0977-4.2988zm-4.902 0.8v4.5a0.50005 0.50005 0 0 1 -0.5 0.5h-1.8633l4.3633 4.7598 4.3633-4.7598h-1.8633a0.50005 0.50005 0 0 1 -0.5 -0.5v-4.5h-4z"/>
</svg>
