<svg version="1.1" viewBox="0 0 22 22" xmlns="http://www.w3.org/2000/svg">
 <path d="m3 2c-0.547 0-1 0.41-1 1v1h-1c-0.502 0-1 0.385-1 1v14c0 0.546 0.493 1 1 1h20c0.516 0 1-0.437 1-1v-13c0-0.577-0.423-1-1-1h-2v-2c0-0.487-0.402-1-1-1z" style="color:#002b36;fill:#268bd2"/>
 <path d="m3 2c-0.544 0-1 0.399-1 1v1h-1c-0.507 0-1 0.396-1 1v14c0 0.487 0.419 1 1 1h20c0.521 0 1-0.443 1-1v-13c0-0.573-0.394-1-1-1h-2v-2c0-0.559-0.457-1-1-1zm10 3v1h8v13h-20v-14z" style="color:#002b36;fill:#6c71c4"/>
 <path d="m12.591 17.862h-0.04545l-0.04546-0.04608v-1.4286c0-0.32258-0.04546-0.59908-0.18182-0.82949 1.0455-0.18433 2.1818-0.73733 2.1818-2.8111 0-0.553-0.18182-1.0599-0.5-1.4747 0.09091-0.2765 0.13636-0.78341-0.09091-1.4286l-0.13636-0.13825s-0.09091-0.046083-0.18182-0.046083c-0.27273 0-0.68182 0.092166-1.3636 0.553-0.36364-0.04608-0.77273-0.13825-1.2273-0.13825s-0.86364 0.04608-1.2727 0.13825c-0.63636-0.41475-1.0909-0.50691-1.3636-0.50691-0.090909 0-0.13636 0.046083-0.18182 0.046083-0.045455 0-0.13636 0.092166-0.13636 0.13825-0.22727 0.64516-0.18182 1.1521-0.090909 1.4286-0.31818 0.41475-0.5 0.92166-0.5 1.4747 0 2.0276 1.1818 2.5806 2.1818 2.8111-0.045454 0.09217-0.090909 0.23041-0.13636 0.36866-0.090909 0.04608-0.22727 0.09217-0.40909 0.09217s-0.36364-0.04608-0.5-0.18433l-0.045455-0.04608c-0.045454-0.04609-0.045454-0.09217-0.090909-0.09217l-0.045455-0.04608-0.045454-0.04608c0-0.04608-0.36364-0.59908-1-0.64516-0.22727 0-0.40909 0.09217-0.45455 0.23042-0.090909 0.23042 0.18182 0.41475 0.31818 0.50691 0 0 0.27273 0.13825 0.45455 0.64516 0.090909 0.32258 0.5 0.92166 1.4545 0.92166h0.31818v0.64516l-0.045455 0.04608s-0.045454 0 0 0c-2.0455-0.82949-3.4091-2.765-3.4091-4.9309 0-2.8111 2.2273-5.0691 5-5.0691s5 2.2581 5 5.0691c0 2.1659-1.3636 4.1014-3.4091 4.7926z" style="fill-opacity:.322;font-variation-settings:normal;stop-color:#000000"/>
</svg>
