<svg xmlns="http://www.w3.org/2000/svg" width="16" height="16" version="1.1">
 <defs>
  <style id="current-color-scheme" type="text/css">
   .ColorScheme-Text { color:#e2d5bc; } .ColorScheme-Highlight { color:#4285f4; } .ColorScheme-NeutralText { color:#ff9800; } .ColorScheme-PositiveText { color:#4caf50; } .ColorScheme-NegativeText { color:#f44336; }
  </style>
 </defs>
 <path style="fill:currentColor" class="ColorScheme-Text" d="M 3.4891768,0.99999677 C 3.3615899,1.0963786 2.2306889,2.8701734 1.7623101,3.6447244 1.2115314,4.5556648 1.0556719,4.6722208 1.0109045,5.0189992 c -0.062674,0.4851262 0.097924,0.5664037 1.743261,2.2704219 0.5534367,0.573255 1.0163988,1.074712 1.0301089,1.11472 0.061835,0.179894 0.012814,0.451427 -0.1666754,0.926202 -0.2463635,0.651591 -0.2691946,0.8332359 -0.1502813,1.2267389 0.1294059,0.427633 0.3490851,0.771648 0.6803638,1.071005 0.3080555,0.276975 0.4275937,0.554495 0.609322,0.560091 0.065053,0.0014 0.4319081,-0.373583 0.8142504,-0.579216 v -0.0027 C 6.4043464,11.160012 6.5274176,11.067125 7.1642328,10.423226 7.6996236,9.8815861 7.800477,9.7186301 7.7243721,9.5134171 7.6984905,9.4440131 7.2941511,9.0196981 6.8281505,8.5708031 5.7270125,7.5103241 5.7752422,7.9402789 6.1942369,6.7892929 6.61891,6.1357919 6.4292436,6.0322829 6.224293,5.4570201 6.1486088,5.3967291 5.4834762,5.0885856 4.7460738,4.7739811 4.0085309,4.4596563 3.4102262,4.1819729 3.4154025,4.1565136 c 0.011751,-0.058193 0.825005,-0.1579318 1.415375,-0.174858 l 0.445378,-0.010929 0.8224482,0.3278588 C 6.8148817,4.5843733 6.9274432,4.6417618 6.981164,4.7575877 7.01502,4.8306087 7.041833,4.9291584 7.041273,4.9761602 7.0407138,5.0238622 6.9078987,5.5661918 6.7461764,6.3494159 6.4630228,7.7210019 6.4539991,7.4952371 6.5275857,7.5790291 c 0.1168144,0.132894 1.262723,0.440459 1.6203027,0.409824 0.408222,-0.03707 1.240988,-0.320025 1.325207,-0.415288 0.06814,-0.07722 0.05609,0.1166628 -0.221323,-1.2241492 -0.161999,-0.783224 -0.294539,-1.3262539 -0.295098,-1.3732557 -5.6e-4,-0.047562 0.02598,-0.1449923 0.06011,-0.2185725 0.05387,-0.1158259 0.15992,-0.1716231 0.797856,-0.4262165 1.0282476,-0.4111267 1.0082056,-0.4089011 1.9427236,-0.314198 0.436482,0.042246 0.80966,0.1001457 0.830645,0.1229472 0.02378,0.026438 -0.0027,0.058817 -0.06285,0.084697 -0.05736,0.026578 -0.657629,0.2830689 -1.336135,0.5737528 -0.678785,0.2905441 -1.3064996,0.5804412 -1.3935156,0.644789 -0.4602271,0.6835111 -0.1762751,0.9367853 0.00273,1.3213437 0.168717,0.461346 0.3060256,0.8816652 0.3060256,0.9345412 0,0.213747 -0.1411506,0.108658 -0.9153466,0.852433 -0.444736,0.427493 -0.839325,0.838335 -0.877097,0.915272 -0.03777,0.07666 -0.05779,0.195562 -0.04645,0.262288 0.01958,0.113727 0.55029,0.7009429 1.092954,1.2076129 0.227895,0.212627 1.6096576,1.201231 1.8306976,1.240399 0.184666,0.03217 0.38179,-0.281062 0.704954,-0.587414 0.317569,-0.300755 0.50794,-0.60159 0.636647,-1.010897 0.12032,-0.38301 0.09169,-0.6411599 -0.147541,-1.2622569 -0.181859,-0.474074 -0.229564,-0.734885 -0.169408,-0.91254 0.01399,-0.04238 0.508114,-0.575291 1.095685,-1.185755 1.281464,-1.3297606 1.585874,-1.565697 1.655823,-1.8032241 0.07834,-0.263546 0.02326,-0.6122829 -0.153014,-0.9617192 C 14.39388,3.6174815 12.657068,0.99999677 12.508775,0.99999677 11.74773,1.1391838 11.111243,1.7337121 10.309207,1.8749974 9.7060404,1.2647773 8.8466744,1.1377335 7.9976103,0.99999677 6.9496572,1.1821992 6.5145583,1.2047998 5.6832808,1.8749974 4.8934169,1.7443435 4.306881,1.1065903 3.4891768,0.99999677 Z M 8.0030734,11.133566 c -0.190209,-8.74e-4 -0.3800631,0.07689 -0.7186147,0.234966 -0.6070187,0.282571 -1.972965,1.051662 -2.0875419,1.17756 -0.1183537,0.130094 -0.057816,0.252771 0.24045,0.483591 0.6145718,0.475614 1.7924437,1.387935 1.7924437,1.387935 0.8010559,0.77916 0.7387086,0.781091 1.5601909,-0.02186 0,0 0.858354,-0.647893 1.6230366,-1.273185 0.430662,-0.351115 0.498932,-0.438325 0.428983,-0.562825 -0.05638,-0.09932 -1.4457226,-0.880803 -2.1093986,-1.185755 -0.348977,-0.160163 -0.53934,-0.239556 -0.729549,-0.240429 z"/>
</svg>
