<svg xmlns="http://www.w3.org/2000/svg" width="16" height="16" version="1.1">
 <defs>
  <style id="current-color-scheme" type="text/css">
   .ColorScheme-Text { color:#e2d5bc; } .ColorScheme-Highlight { color:#4285f4; } .ColorScheme-NeutralText { color:#ff9800; } .ColorScheme-PositiveText { color:#4caf50; } .ColorScheme-NegativeText { color:#f44336; }
  </style>
 </defs>
 <path style="fill:currentColor" class="ColorScheme-Text" d="m 1.1282504,4.9266955 c -0.104525,0.5641634 -0.1254742,1.0166084 -0.12825044,1.5262668 0.001225,0.046296 0.001278,0.091842 0.003421,0.1384416 0.1771933,4.5756681 3.9051768,8.2709491 8.4953106,8.4038701 0.023406,9.63e-4 0.045071,9.63e-4 0.068399,0.0017 0.3009256,0.01176 0.6436644,-0.01389 0.9182724,-0.03247 2.735598,-0.26691 4.71098,-2.375212 4.499027,-3.884386 C 13.643908,12.274276 11.912643,12.997814 10.105782,13 6.0440619,13 3,9.9588311 3,5.899154 3.0008508,4.0916203 3.7256911,2.3590328 4.9213733,1.0178788 2.7648652,1.1605916 1.4380047,3.4832265 1.1282504,4.9266955 Z"/>
 <path style="opacity:0.3;fill:currentColor" class="ColorScheme-Text" d="M 5.7827611,1.016 5.3433129,1.6299195 C 4.4885239,2.7458057 4.000795,4.1040487 4,5.5263955 v 0.00163 C 4.0003646,9.1112732 6.8917565,12 10.476866,12 c 1.4184,-0.0019 2.774782,-0.484442 3.88845,-1.334319 l 0.595916,-0.469174 C 14.863924,10.055028 14.748872,9.9169532 14.596691,9.7905578 13.571162,8.9385879 11.680914,8.3296999 9.7028376,6.3699107 7.6163059,4.3020846 7.0230732,2.3428444 6.1489678,1.3321103 6.035052,1.2003976 5.9105776,1.1012152 5.7827611,1.016 Z"/>
</svg>
