<svg xmlns="http://www.w3.org/2000/svg" width="16" height="16" version="1.1">
 <defs>
  <style id="current-color-scheme" type="text/css">
   .ColorScheme-Text { color:#e2d5bc; } .ColorScheme-Highlight { color:#4285f4; } .ColorScheme-NeutralText { color:#ff9800; } .ColorScheme-PositiveText { color:#4caf50; } .ColorScheme-NegativeText { color:#f44336; }
  </style>
 </defs>
 <path style="fill:currentColor" class="ColorScheme-Text" d="M 7.74648,-1.5e-6 C 3.5616824,-0.0037515 0.1127093,3.442649 0.0027025,7.7910145 -0.1091823,12.208403 3.266939,15.884505 7.541412,15.999999 c 3.45866,0.002 6.458715,-1.99765 7.185209,-5.257813 -1.072557,1.781236 -3.082126,2.333415 -4.876724,2.328125 C 8.372926,13.05807 6.7334273,12.713606 5.4731493,12.021482 3.8266724,11.110482 3.9467556,9.9709695 4.0005621,9.1738265 c 0.031089,-0.459186 0.2552824,-1.236413 0.8495696,-1.988281 0.192502,0.07091 0.3789271,0.155046 0.5448963,0.271484 0.4095878,0.276586 0.779476,0.690649 1.3046265,0.503907 C 7.058683,7.8349925 7.0775,7.6202175 6.9398775,7.2695295 6.823659,6.9843927 6.63254,6.4934654 6.3949811,6.304686 6.3004556,6.229867 6.1622927,6.1832628 6.0141397,6.1425766 6.2654439,5.9823551 6.5388107,5.8311585 6.851991,5.6992173 7.725887,5.3905757 8.694766,5.2149405 9.63311,5.226561 c 0.191785,0.2924412 0.36378,0.5935439 0.667937,0.7109375 0.508061,0.2064296 0.718609,-0.1307116 0.699187,-0.5410156 0.04719,0.013443 0.09601,0.022113 0.142571,0.037109 1.004669,0.2267407 1.728072,0.5180353 2.683468,0.8554687 0,0 -0.0082,0.016614 0.255847,0.082031 0.773302,0.1225117 1.224281,-0.093624 1.49993,-0.3828126 0.06638,-0.00381 0.129729,-0.027928 0.187491,-0.099609 0.104435,-0.1295163 0.302868,-0.3184787 0.189444,-0.5996094 0.03613,-0.1525268 0.04101,-0.2597656 0.04101,-0.2597656 L 15.947265,4.7304669 15.785163,4.32617 15.708993,4.154295 15.693373,4.123045 C 15.771743,4.058553 15.83149,3.9496866 15.841804,3.8144516 15.858294,3.6000194 15.751004,3.4140245 15.60158,3.3886704 15.601255,3.1509979 15.58708,2.879364 15.54299,2.5097641 15.48219,1.9998618 15.147582,1.7980061 15.039107,1.7187485 14.930389,1.6396335 14.422945,1.2569431 13.937596,1.0664047 13.451949,0.8758645 12.962175,0.7350858 12.357592,0.820311 c -0.06713,0.00949 -0.131072,0.019368 -0.197257,0.029297 -0.01172,-0.00372 -0.02052,-0.00796 -0.0332,-0.011719 -0.230544,-0.068484 -0.393663,-0.4420136 -0.582004,-0.4375 -0.01441,3.457e-4 -0.03017,0.00236 -0.04492,0.00391 -0.01452,0.00152 -0.02803,0.00307 -0.04297,0.00586 h -0.002 c -0.01522,0.00284 -0.02919,0.00745 -0.04492,0.011719 -0.01718,0.00466 -0.03528,0.010376 -0.05078,0.017578 -0.11022,0.051252 -0.176991,0.2445701 -0.21874,0.3710938 C 10.173903,0.3216255 9.092337,0.0348121 7.945689,0.0039047 7.878903,0.0020948 7.812905,5.85e-5 7.74648,-1.5e-6 Z m 5.693092,3.0039062 c 0.126994,-0.015117 0.260373,0.018183 0.369124,0.1035157 0.217747,0.1710387 0.255482,0.4841558 0.08593,0.7011719 -0.170042,0.2170151 -0.483516,0.2543995 -0.701139,0.083984 -0.217625,-0.1712882 -0.258047,-0.484031 -0.08789,-0.7011719 0.08484,-0.1083204 0.206974,-0.1723825 0.333968,-0.1875 z"/>
 <path style="opacity:0.3;fill:currentColor" class="ColorScheme-Text" d="m 9.322581,6.2781097 c -0.538112,0.019536 -1.077175,0.130022 -1.605394,0.2734707 0.05261,0.1210992 0.116987,0.2646962 0.148431,0.3418385 a 1.0000531,1.0002218 0 0 1 0.0059,0.01172 c 0.09985,0.2544336 0.232915,0.5903186 0.0957,1.0704436 -0.136932,0.47912 -0.593782,0.807271 -0.935505,0.927847 -0.5510901,0.194101 -1.1579731,0.04918 -1.5077411,-0.142596 -0.121435,-0.06658 -0.148347,-0.101499 -0.238271,-0.164082 -0.07932,0.223321 -0.280519,0.547281 -0.287095,0.642656 -0.02812,0.416524 -0.04214,0.731782 0.04687,0.9942625 0.08873,0.261637 0.253777,0.547005 0.90816,0.910268 l 0.0039,0.002 c 1.0622411,0.582278 2.5739141,0.912946 3.9002081,0.92394 1.586006,0.0039 3.177237,-0.458495 4.011531,-1.843975 a 1.0000531,1.0002218 0 0 1 1.074164,-0.4629935 5.9995838,6.0008577 0 0 0 0.05664,-0.761812 5.9995838,6.0008577 0 0 0 -0.230458,-1.631058 c -0.267672,0.03008 -0.547817,0.03711 -0.843711,-0.0098 a 1.0000531,1.0002218 0 0 1 -0.08398,-0.01758 c -0.153558,-0.03804 -0.240601,-0.0609 -0.357405,-0.107431 -0.0047,-0.0019 -0.01668,-0.0099 -0.02148,-0.01172 -0.721985,-0.2555625 -1.294497,-0.4371537 -1.915926,-0.615309 -0.0032,0.00318 -6.06e-4,0.0066 -0.0039,0.00977 -0.418004,0.403551 -1.132705,0.436325 -1.607358,0.2480724 C 9.551367,6.7151046 9.497915,6.4988423 9.322609,6.2781097 Z"/>
</svg>
