<svg xmlns="http://www.w3.org/2000/svg" width="16" height="16" version="1.1">
 <defs>
  <style id="current-color-scheme" type="text/css">
   .ColorScheme-Text { color:#e2d5bc; } .ColorScheme-Highlight { color:#4285f4; } .ColorScheme-NeutralText { color:#ff9800; } .ColorScheme-PositiveText { color:#4caf50; } .ColorScheme-NegativeText { color:#f44336; }
  </style>
 </defs>
 <path style="fill:currentColor" class="ColorScheme-Text" d="M 8.09159,8.550362e-4 C 5.7698589,-0.02387296 3.4797704,0.96201614 1.9001833,2.8211675 -0.50680675,5.65416 -0.64057095,9.7860475 1.5759646,12.770387 3.7925001,15.754727 7.789076,16.820097 11.197059,15.33484 14.605042,13.849583 16.54251,10.19891 15.865027,6.5438245 15.679647,5.153691 13.57616,5.542607 13.900184,6.9071055 14.410045,9.6578565 12.961063,12.383078 10.396277,13.500856 7.831493,14.618633 4.8495575,13.824941 3.1814333,11.578981 1.5133088,9.3330205 1.6141171,6.2481485 3.4255739,4.1160894 5.237031,1.9840307 8.265564,1.3857071 10.751746,2.6688238 11.946595,3.3121256 12.886011,1.4932544 11.669715,0.89148004 10.843831,0.46524174 9.970238,0.19542684 9.087684,0.07507384 8.756725,0.02994184 8.423266,0.00438784 8.09159,8.550362e-4 Z M 6.74784,5.000855 A 0.73085587,0.79027464 0 0 0 5.9997927,5.793824 v 4.416016 a 0.73085587,0.79027464 0 0 0 1.0957033,0.685547 l 3.539063,-2.2089845 a 0.73085587,0.79027464 0 0 0 0,-1.369141 L 7.095496,5.106324 A 0.73085587,0.79027464 0 0 0 6.74784,5.000855 Z"/>
</svg>
