<svg xmlns="http://www.w3.org/2000/svg" width="16" height="16" viewBox="0 0 12.8 12.8">
 <path d="m 1.6 0.8 c -0.398 0 -0.8 0.376 -0.8 0.8 l 0 0.8 c -0.372 0 -0.801 0.334 -0.8 0.8 l 0 8 c 0 0.482 0.386 0.8 0.8 0.8 l 11.2 0 c 0.43 0 0.801 -0.318 0.8 -0.8 l 0 -7.2 c -0.001 -0.482 -0.379 -0.8 -0.8 -0.8 l -0.8 0 0 -1.6 c 0 -0.446 -0.382 -0.8 -0.8 -0.8 z" style="visibility:visible;fill:#268bd2;fill-opacity:1;stroke:none;display:inline;color:#002b36;fill-rule:nonzero"/>
 <path d="m 1.6 0.8 c -0.398 0 -0.8 0.376 -0.8 0.8 l 0 0.8 c -0.372 0 -0.801 0.334 -0.8 0.8 l 0 8 c 0 0.482 0.376 0.8 0.8 0.8 l 11.2 0 c 0.433 0 0.801 -0.318 0.8 -0.8 l 0 -7.2 c -0.001 -0.482 -0.379 -0.8 -0.8 -0.8 l -0.8 0 0 -1.6 c 0 -0.446 -0.382 -0.8 -0.8 -0.8 z m -0.8 2.4 6.4 0 0 0.8 4.8 0 0 7.2 -11.2 0 z" style="visibility:visible;fill:#6c71c4;fill-opacity:1;stroke:none;display:inline;color:#002b36;fill-rule:nonzero"/>
</svg>
