<svg xmlns="http://www.w3.org/2000/svg" width="16" height="16" version="1.1">
 <defs>
  <style id="current-color-scheme" type="text/css">
   .ColorScheme-Text { color:#c0c0c0; } .ColorScheme-Highlight { color:#4285f4; }
  </style>
 </defs>
 <path style="opacity:0.3;fill:currentColor" class="ColorScheme-Highlight" d="M 6,1 V 2 H 3 V 14 C 3,14.55 3.446,15 4,15 H 11 V 5 H 13 V 2 H 10 V 1 Z"/>
 <path style="fill:currentColor" class="ColorScheme-Highlight" d="M 12,6 V 11 L 12.25,13 H 13.75 L 14,11 V 6 Z M 12,14 V 16 H 14 V 14 Z"/>
</svg>
