<svg xmlns="http://www.w3.org/2000/svg" width="16" height="16" version="1.1">
 <defs>
  <style id="current-color-scheme" type="text/css">
   .ColorScheme-Text { color:#c0c0c0; } .ColorScheme-Highlight { color:#4285f4; }
  </style>
 </defs>
 <path style="fill:currentColor" class="ColorScheme-Text" d="m 7.9999998,0.99995926 c -5.4346045,1.8154e-4 -5.5732505,0.00275 -5.7148445,0.086914 -0.30058,0.178744 -0.285156,-0.041423 -0.285156,4.1259762 0,4.2289817 -0.0057,4.1437437 0.322266,4.9638675 0.377323,0.943422 0.984746,1.740955 1.982422,2.607421 0.837112,0.72702 1.830489,1.3845 2.9375005,1.94336 0.374516,0.189069 0.567626,0.275585 0.757812,0.272461 0.190186,0.0031 0.383296,-0.08339 0.757813,-0.272461 1.107011,-0.55886 2.1003872,-1.21634 2.9375002,-1.94336 0.997676,-0.866466 1.605099,-1.663999 1.982422,-2.607421 0.328019,-0.8201248 0.322266,-0.7348858 0.322266,-4.9638675 0,-4.1674022 0.01542,-3.9472322 -0.285156,-4.1259762 -0.141594,-0.084181 -0.280239,-0.086733 -5.7148452,-0.086914 z m 0,2.00000004 c 2.2493602,7.5e-5 3.1924592,0.0035 3.9833992,0.00976 0.0068,0.5561302 0.0166,0.8595902 0.0166,2.2031252 0,2.1153977 -0.0043,3.1701647 -0.03418,3.6308597 -0.02989,0.460694 0.02587,0.161355 -0.145508,0.589843 -0.246929,0.6173978 -0.594472,1.1095098 -1.436524,1.8408198 -0.6565122,0.570182 -1.4778772,1.101155 -2.3837872,1.573248 z"/>
</svg>
