<svg xmlns="http://www.w3.org/2000/svg" width="16" height="16" version="1.1">
 <defs>
  <style id="current-color-scheme" type="text/css">
   .ColorScheme-Text { color:#c0c0c0; } .ColorScheme-Highlight { color:#4285f4; }
  </style>
 </defs>
 <path style="fill:currentColor" class="ColorScheme-Text" d="M 8 1 A 7 7 0 0 0 1.7871094 4.7871094 A 7 7 0 0 1 5 4 A 7 7 0 0 1 6.2597656 4.1171875 A 7 7 0 0 1 8.1074219 1.0058594 A 7 7 0 0 0 8 1 z M 9.4726562 1.1601562 A 6 6 0 0 0 7.2304688 4.375 A 7 7 0 0 1 10.923828 7.2890625 A 4.5 4.5 0 0 1 12.5 7 A 4.5 4.5 0 0 1 14.988281 7.7519531 A 7 7 0 0 0 9.4726562 1.1601562 z M 5 5 A 6 6 0 0 0 1.203125 6.359375 A 7 7 0 0 0 1 8 A 7 7 0 0 0 8 15 A 7 7 0 0 0 9.484375 14.832031 A 4.5 4.5 0 0 1 8 11.5 A 4.5 4.5 0 0 1 8.0429688 10.921875 A 7 7 0 0 1 6 6 A 7 7 0 0 1 6.0664062 5.0996094 A 6 6 0 0 0 5 5 z M 7.0351562 5.3632812 A 6 6 0 0 0 7 6 A 6 6 0 0 0 8.3457031 9.7714844 A 4.5 4.5 0 0 1 10.027344 7.7421875 A 6 6 0 0 0 7.0351562 5.3632812 z M 12.449219 8 A 3.5 3.5 0 0 0 10.025391 9.0253906 A 3.5 3.5 0 0 0 10.025391 13.974609 A 3.5 3.5 0 0 0 14.974609 13.974609 A 3.5 3.5 0 0 0 14.974609 9.0253906 A 3.5 3.5 0 0 0 12.449219 8 z M 12.539062 9 A 2.5 2.5 0 0 1 12.541016 9 A 2.5 2.5 0 0 1 14.267578 9.7324219 A 2.5 2.5 0 0 1 14.582031 12.875 L 11.121094 9.4140625 A 2.5 2.5 0 0 1 12.539062 9 z M 10.417969 10.125 L 13.878906 13.585938 A 2.5 2.5 0 0 1 10.732422 13.267578 A 2.5 2.5 0 0 1 10.417969 10.125 z"/>
</svg>
