<svg xmlns="http://www.w3.org/2000/svg" width="16" height="16" version="1.1">
 <defs>
  <style id="current-color-scheme" type="text/css">
   .ColorScheme-Text { color:#c0c0c0; } .ColorScheme-Highlight { color:#4285f4; }
  </style>
 </defs>
 <path style="fill:currentColor" class="ColorScheme-Text" d="M 2,1 C 1.446,1 1,1.446 1,2 V 14 C 1,14.554 1.446,15 2,15 H 5 V 5 H 10 V 1 Z M 11,1 V 15 H 14 C 14.554,15 15,14.554 15,14 V 2 C 15,1.446 14.554,1 14,1 Z M 6,6 V 15 H 10 V 6 Z"/>
</svg>
