<svg xmlns="http://www.w3.org/2000/svg" width="16" height="16" version="1.1">
 <defs>
  <style id="current-color-scheme" type="text/css">
   .ColorScheme-Text { color:#c0c0c0; } .ColorScheme-Highlight { color:#4285f4; }
  </style>
 </defs>
 <path style="fill:currentColor" class="ColorScheme-Text" d="M 8,1 C 4.1340068,1 1,3.9101491 1,7.5 1.000578,9.0815912 1.6217111,10.587594 2.7128906,11.755859 3.1825334,11.273575 3.8268276,11.00107 4.5,11 5.8807119,11 7,12.119288 7,13.5 6.9987202,13.640172 6.9856533,13.779988 6.9609375,13.917969 7.3044156,13.966831 7.6513715,13.999055 8,14 11.865993,14 15,11.089851 15,7.5 15,3.9101491 11.865993,1 8,1 Z M 7,4 9,7 13,5 8,11 7,7.5 3,9 Z"/>
 <circle style="fill:currentColor" class="ColorScheme-Highlight" cx="4.5" cy="13.5" r="1.5"/>
</svg>
