<svg xmlns="http://www.w3.org/2000/svg" width="16" height="16" version="1.1">
 <defs>
  <style id="current-color-scheme" type="text/css">
   .ColorScheme-Text { color:#FCE8C3; } .ColorScheme-Highlight { color:#4285f4; } .ColorScheme-NeutralText { color:#ff9800; } .ColorScheme-PositiveText { color:#4caf50; } .ColorScheme-NegativeText { color:#f44336; }
  </style>
 </defs>
 <path style="fill:currentColor" class="ColorScheme-Text" d="M 13.717634,-4.8810765e-4 A 0.70765795,0.75733846 0 0 0 13.358235,0.10302749 C 13.24969,0.17091649 6.0057455,4.675884 5.7639855,4.8237307 c -0.2903935,0.17802 -0.6485785,0.1810369 -0.9375617,0 L 1,2.4194338 v 2.0429687 c 0.9310925,0.5868618 3.2458391,2.0435014 3.8068912,2.3867184 0.3347973,0.2036656 0.6550584,0.1993496 0.97858,-0.00195 L 14.852474,1.20459 C 15.046308,1.083898 15.056592,0.71310517 14.838804,0.57958997 14.621713,0.44532089 14.211157,0.19252239 14.057502,0.09521499 a 0.70765795,0.75733846 0 0 0 -0.339866,-0.0957029977 z m 0,4.00000000765 a 0.70765795,0.7573384 0 0 0 -0.359399,0.1035156 c -0.108545,0.067889 -7.3524895,4.572858 -7.5942495,4.720703 -0.2903935,0.178021 -0.6485785,0.181038 -0.9375617,0 L 1,6.4194339 v 2.0429686 c 0.9310925,0.586862 3.2458391,2.0434995 3.8068912,2.3867175 0.3347973,0.203665 0.6550584,0.199353 0.97858,-0.002 L 14.852474,5.20459 C 15.046308,5.0838987 15.056592,4.7131052 14.838804,4.57959 14.621713,4.4453211 14.211157,4.1925221 14.057502,4.095215 A 0.70765795,0.7573384 0 0 0 13.717636,3.999512 Z m 0,3.9999996 a 0.70765795,0.7573398 0 0 0 -0.359399,0.103516 c -0.108545,0.06788 -7.3524895,4.5728555 -7.5942495,4.7207025 -0.2903935,0.178021 -0.6485785,0.181039 -0.9375617,0 L 1,10.419433 v 2.042969 c 0.9310925,0.586863 3.2458391,2.043502 3.8068912,2.386718 0.3347973,0.203668 0.6550584,0.19932 0.97858,-0.002 L 14.852474,9.2045425 c 0.193833,-0.120693 0.20412,-0.491485 -0.01367,-0.625 -0.217095,-0.134269 -0.627647,-0.387069 -0.781302,-0.484375 a 0.70765795,0.7573398 0 0 0 -0.339866,-0.0957 z"/>
</svg>
