<svg xmlns="http://www.w3.org/2000/svg" width="16" height="16" version="1.1">
 <defs>
  <style id="current-color-scheme" type="text/css">
   .ColorScheme-Text { color:#FCE8C3; } .ColorScheme-Highlight { color:#4285f4; } .ColorScheme-NeutralText { color:#ff9800; } .ColorScheme-PositiveText { color:#4caf50; } .ColorScheme-NegativeText { color:#f44336; }
  </style>
 </defs>
 <path style="fill:currentColor" class="ColorScheme-Text" d="M 8.5390625 1 A 1.6487165 1.5917475 0 0 0 7.6757812 1.2128906 L 2.8242188 3.9179688 A 1.6487165 1.5917475 0 0 0 2 5.296875 L 2 10.703125 A 1.6487165 1.5917475 0 0 0 2.8242188 12.083984 L 7.6757812 14.787109 A 1.6487165 1.5917475 0 0 0 9.3242188 14.787109 L 14.175781 12.083984 A 1.6487165 1.5917475 0 0 0 15 10.703125 L 15 5.296875 A 1.6487165 1.5917475 0 0 0 14.175781 3.9179688 L 9.3242188 1.2128906 A 1.6487165 1.5917475 0 0 0 8.5390625 1 z M 8.5 3 L 13 5.53125 L 13 10.46875 L 8.5 13 L 4 10.46875 L 4 5.53125 L 8.5 3 z M 7.4296875 6 C 6.6405883 6 6 6.7359673 6 7.6425781 C 6 9.0563826 8.2014282 10.166667 8.4765625 11 C 8.7516975 10.166667 10.953125 9.0563826 10.953125 7.6425781 C 10.953125 6.7359673 10.312536 6 9.5234375 6 C 9.1095982 6 8.7375687 6.2550999 8.4765625 6.578125 C 8.2155571 6.2550999 7.8435265 6 7.4296875 6 z"/>
</svg>
