<svg xmlns="http://www.w3.org/2000/svg" width="16" height="16" version="1.1">
 <path style="opacity:0.3;fill:#d0d0d0" d="M 8,4 7.6934,4.0137 C 7.1169,4.0592 6.5572,4.2291 6.0527,4.5117 6.3346,4.7339 6.6527,4.9903 6.668,5.0039 6.6695,5.0051 6.6704,5.0047 6.6719,5.0059 7.2501,5.4595 7.9694,5.7352 8.1445,5.7832 8.3208,5.8309 8.4571,5.9709 8.5,6.1484 8.5463,6.3402 8.4783,6.685 8.2969,6.9082 8.1154,7.1314 7.8546,7.3399 7.4062,7.6348 7.3289,7.6856 7.239,7.714 7.1465,7.7168 6.2653,7.745 5.7983,7.901 5.4844,8.0996 5.1541,8.3213 5.0495,8.4581 5.0215,8.543 4.9931,8.6287 4.9958,8.7947 5.1211,9.1602 5.2917,9.6576 5.5886,10.046 6.2087,10.466 6.8288,10.886 7.5851,11 8.209,11 9.6286,11 10.724,9.7338 10.725,8.2871 10.723,7.1996 10.096,6.216 9.1113,5.7539 8.6361,5.5331 8.7773,4.823 9.3008,4.8008 L 9.4961,4.793 C 9.921,4.793 10.274,4.9909 10.654,5.1211 9.942,4.4567 9.05,4 8,4 Z"/>
 <path style="fill:#d0d0d0" d="M 10.516,0 C 8.8251,1.149 8.0897,2.3107 7.7812,3.5215 7.7812,3.5215 7.9251,3.5 8,3.5 10.146,3.5 11.943,5.0167 12.389,7.0312 11.829,6.0009 10.751,5.293 9.4961,5.293 L 9.3242,5.3008 C 10.483,5.8446 11.223,7.0073 11.225,8.2871 11.224,9.9938 9.9241,11.439 8.2422,11.605 7.4955,11.623 6.6603,11.377 6.0937,10.99 5.2582,10.425 4.856,9.9277 4.6484,9.3223 4.373,8.5187 4.4636,8.1793 5.2129,7.6797 5.6199,7.4213 6.1921,7.2468 7.1309,7.2168 7.9884,6.6528 8.0549,6.4364 8.0137,6.2656 H 8.0117 C 7.7445,6.1924 7.0114,5.9097 6.3594,5.3965 6.3594,5.3965 5.7947,4.8963 5.4004,4.6289 5.2474,4.1214 5.128,3.5606 5.3281,2.4941 4.5578,2.7474 3.9317,3.415 3.4023,4.0098 L 3.3652,4.0078 C 3.0469,3.3948 3.0742,1.8633 3.0742,1.8633 1.4082,3.1516 0,5.2485 0,8.0937 0,12.46 3.5817,16 8,16 12.418,16 16,12.46 16,8.0937 16,6.0608 15.223,4.2074 13.947,2.8066 13.947,2.8066 13.828,2.6904 13.752,2.7187 14.204,3.4684 14.481,4.3326 14.559,5.252 L 14.074,4.5547 C 12.465,2.4931 10.995,1.8941 10.516,0 Z"/>
</svg>
