<svg xmlns="http://www.w3.org/2000/svg" width="16" height="16" version="1.1">
 <path style="fill:#d0d0d0" d="M 2,2 C 2,2 1,2 1,3 V 14 C 1,14 1,15 2,15 H 14 C 14,15 15,15 15,14 V 5 C 15,4 14,4 14,4 H 9 L 7,2 Z M 10.626,7.93 C 11.362,7.93 10.825,9.56 11.421,9.99 12.02,10.42 13.4,9.41 13.63,10.11 13.85,10.81 12.14,10.8 11.911,11.5 11.683,12.2 13.08,13.2 12.48,13.63 11.883,14.07 11.362,12.43 10.626,12.43 9.889,12.43 9.368,14.07 8.772,13.63 8.176,13.2 9.568,12.2 9.341,11.5 9.113,10.8 7.398,10.81 7.626,10.11 7.853,9.41 9.235,10.42 9.831,9.99 10.426,9.56 9.89,7.93 10.626,7.93 Z"/>
</svg>
