<svg xmlns="http://www.w3.org/2000/svg" width="24" height="24" version="1.1">
 <defs>
  <style id="current-color-scheme" type="text/css">
   .ColorScheme-Text { color:#efefef; } .ColorScheme-Highlight { color:#4285f4; }
  </style>
 </defs>
 <g transform="translate(4,4)">
  <path style="fill:currentColor" class="ColorScheme-Text" d="M 8,2 C 8,2 3,2 3,7 V 14 H 5 V 7 C 5,4 8,4 8,4 8,4 11,4 11,7 V 14 H 13 V 7 C 13,2 8,2 8,2 Z"/>
 </g>
</svg>
