<svg xmlns="http://www.w3.org/2000/svg" width="24" height="24" viewBox="0 0 24 24">
 <defs>
  <style id="current-color-scheme" type="text/css">
   .ColorScheme-Text { color:#efefef; } .ColorScheme-Highlight { color:#4285f4; }
  </style>
 </defs>
 <path style="fill:currentColor" class="ColorScheme-Text" d="M 2 3 L 2 5 L 14 5 L 14 3 L 2 3 z M 2 7 L 2 9 L 14 9 L 14 7 L 2 7 z M 2 11 L 2 13 L 14 13 L 14 11 L 2 11 z" transform="translate(4 4)"/>
</svg>
