<svg xmlns="http://www.w3.org/2000/svg" width="24" height="24" version="1.1">
 <defs>
  <style id="current-color-scheme" type="text/css">
   .ColorScheme-Text { color:#efefef; } .ColorScheme-Highlight { color:#4285f4; }
  </style>
 </defs>
 <path style="fill:currentColor" class="ColorScheme-Text" d="M 21,19 V 21 H 18 V 22 H 21 V 24 L 24,21.5 Z M 3,0 0,2.5 3,5 V 3 H 6 V 2 H 3 Z"/>
 <g transform="matrix(1,0,0.60159,1,-7.2189,0)">
  <path style="fill:currentColor" class="ColorScheme-Text" d="M 4.5,5 C 4,5 4,5.5 4,5.5 V 18.5 C 4,19 4.5,19 4.5,19 H 19.5 C 20,19 20,18.5 20,18.5 V 5.5 C 20,5 19.5,5 19.5,5 Z M 5,6 H 19 V 18 H 5 Z"/>
  <path style="opacity:0.3;fill:currentColor" class="ColorScheme-Text" d="M 5,6 H 19 V 18 H 5 Z"/>
 </g>
</svg>
