<svg xmlns="http://www.w3.org/2000/svg" width="24" height="24" version="1.1">
 <defs>
  <style id="current-color-scheme" type="text/css">
   .ColorScheme-Text { color:#e2d5bc; } .ColorScheme-Highlight { color:#4285f4; } .ColorScheme-NeutralText { color:#ff9800; } .ColorScheme-PositiveText { color:#4caf50; } .ColorScheme-NegativeText { color:#f44336; }
  </style>
 </defs>
 <path style="fill:currentColor" class="ColorScheme-Highlight" d="M 8.5,4 A 3.5,3.5 0 0 0 5,7.5 3.5,3.5 0 0 0 5.234375,8.7558594 C 6.486475,6.7692594 8.581625,5.3678062 11.015625,5.0664062 A 3.5,3.5 0 0 0 8.5,4 Z M 15.5,4 A 3.5,3.5 0 0 0 12.988282,5.0664062 C 15.419981,5.3687063 17.511672,6.7696063 18.763672,8.7539062 A 3.5,3.5 0 0 0 19,7.5 3.5,3.5 0 0 0 15.5,4 Z M 12,6 A 7,7 0 0 0 5,13 7,7 0 0 0 6.646485,17.509766 7,7 0 0 0 7.107422,18.005859 1,1 0 0 0 6.292969,18.292969 1,1 0 0 0 6.292969,19.707031 1,1 0 0 0 7.707032,19.707031 1,1 0 0 0 7.953125,18.701172 7,7 0 0 0 8.542969,19.076172 7,7 0 0 0 9.138672,19.378906 7,7 0 0 0 9.195313,19.404297 7,7 0 0 0 9.732422,19.613281 7,7 0 0 0 9.902344,19.669922 7,7 0 0 0 10.390625,19.804688 7,7 0 0 0 10.583985,19.847656 7,7 0 0 0 11.06836,19.929688 7,7 0 0 0 11.292969,19.957031 7,7 0 0 0 11.814454,19.994141 7,7 0 0 0 12,20 7,7 0 0 0 12.699219,19.964844 7,7 0 0 0 16.023438,18.722656 7,7 0 0 0 16.044922,18.708984 1,1 0 0 0 16.292969,19.707031 1,1 0 0 0 17.707031,19.707031 1,1 0 0 0 17.707031,18.292969 1,1 0 0 0 16.880859,18.007812 7,7 0 0 0 17.326172,17.529297 7,7 0 0 0 17.357422,17.496094 7,7 0 0 0 17.369141,17.480469 7,7 0 0 0 17.738281,16.994141 7,7 0 0 0 17.796875,16.914062 7,7 0 0 0 18.091797,16.431641 7,7 0 0 0 18.164062,16.304688 7,7 0 0 0 18.400391,15.8125 7,7 0 0 0 18.464844,15.669922 7,7 0 0 0 18.632812,15.207031 7,7 0 0 0 18.705078,14.988281 7,7 0 0 0 18.818359,14.546875 7,7 0 0 0 18.871094,14.3125 7,7 0 0 0 18.9375,13.863281 7,7 0 0 0 18.96875,13.609375 7,7 0 0 0 19,13 7,7 0 0 0 12,6 Z M 12,8 A 5,5 0 0 1 17,13 5,5 0 0 1 12,18 5,5 0 0 1 7,13 5,5 0 0 1 7.025391,12.5 5,5 0 0 1 12,8 Z M 13.929688,10.998047 A 0.50005,0.50005 0 0 0 13.699219,11.070312 L 11.25,12.484375 A 0.50005,0.50005 0 0 0 11.066407,13.166015 L 12.833985,16.228516 A 0.50005,0.50005 0 0 0 13.757813,16.099609 0.50005,0.50005 0 0 0 13.701172,15.728516 L 12.183594,13.099609 14.199219,11.935547 A 0.50005,0.50005 0 0 0 13.929688,10.998047 Z"/>
</svg>
