<svg xmlns="http://www.w3.org/2000/svg" width="24" height="24" version="1.1">
 <defs>
  <style id="current-color-scheme" type="text/css">
   .ColorScheme-Text { color:#e2d5bc; } .ColorScheme-Highlight { color:#4285f4; } .ColorScheme-NeutralText { color:#ff9800; } .ColorScheme-PositiveText { color:#4caf50; } .ColorScheme-NegativeText { color:#f44336; }
  </style>
 </defs>
 <g transform="translate(0 -1028.4)">
  <path fill-rule="evenodd" style="fill:currentColor" class="ColorScheme-Text" d="m12 1032.4c-2 0-5 9-5 16 2-3 5-6 6-6s2.1116 2 4.1116 5c-0.11161-6-3.1116-15-5.1116-15z"/>
  <path style="fill:currentColor" class="ColorScheme-Text" d="m12 6a6 6 0 0 0 -0.781 0.0586c-0.497 0.8503-1.037 2.125-1.5159 3.6211-0.6682 2.0883-1.1173 4.5773-1.3945 7.0413a6 6 0 0 0 0.0527 0.041c0.4469-0.536 0.867-1.154 1.3067-1.594 0.589-0.589 1.149-1.085 1.668-1.461s0.914-0.707 1.664-0.707c0.583 0 1.054 0.279 1.43 0.598 0.375 0.319 0.703 0.711 1.052 1.179 0.046 0.062 0.116 0.177 0.163 0.241-0.326-1.88-0.764-3.778-1.329-5.4477-0.483-1.4315-1.025-2.6744-1.523-3.5117a6 6 0 0 0 -0.793 -0.0586zm-3.5059 1.1406a6 6 0 0 0 -2.4941 4.8594 6 6 0 0 0 0.5078 2.398c0.3206-1.881 0.7715-3.71 1.2891-5.3277 0.2205-0.6892 0.4552-1.3292 0.6972-1.9297zm7.0429 0.0215c0.232 0.5609 0.46 1.1379 0.674 1.7695 0.549 1.6244 1.026 3.4424 1.367 5.2614a6 6 0 0 0 0.422 -2.193 6 6 0 0 0 -2.463 -4.8379zm-2.537 7.8379c-0.055 0-0.033 0.006 0.023 0.041 0.064-0.029 0.081-0.041-0.023-0.041zm0.023 0.041c-0.089 0.041-0.289 0.121-0.515 0.285-0.388 0.281-0.89 0.72-1.426 1.256-0.329 0.329-0.671 0.702-1.016 1.092a6 6 0 0 0 1.934 0.326 6 6 0 0 0 2.793 -0.693c-0.336-0.507-0.649-0.977-0.914-1.332-0.304-0.407-0.566-0.702-0.742-0.852-0.061-0.051-0.084-0.064-0.114-0.082z" transform="translate(0 1028.4)"/>
 </g>
</svg>
