<svg xmlns="http://www.w3.org/2000/svg" width="24" height="24" version="1.1">
 <defs>
  <style id="current-color-scheme" type="text/css">
   .ColorScheme-Text { color:#e2d5bc; } .ColorScheme-Highlight { color:#4285f4; } .ColorScheme-NeutralText { color:#ff9800; } .ColorScheme-PositiveText { color:#4caf50; } .ColorScheme-NegativeText { color:#f44336; }
  </style>
 </defs>
 <path style="opacity:0.3;fill:currentColor" class="ColorScheme-Text" d="m 14,4 v 2 h -3 v 5 h 3 v 2 l 1,-0.818359 V 9 h 3.888672 L 19.5,8.5 Z M 10,10 4.5,14.5 10,19 v -2 h 3 v -5 h -3 z"/>
 <path style="fill:currentColor" class="ColorScheme-NegativeText" d="m 16,10 v 4 l 0.25,2 h 1.5 L 18,14 v -4 z m 0,7 v 2 h 2 v -2 z"/>
</svg>
