<svg xmlns="http://www.w3.org/2000/svg" width="24" height="24" version="1.1">
 <defs>
  <style id="current-color-scheme" type="text/css">
   .ColorScheme-Text { color:#e2d5bc; } .ColorScheme-Highlight { color:#4285f4; } .ColorScheme-NeutralText { color:#ff9800; } .ColorScheme-PositiveText { color:#4caf50; } .ColorScheme-NegativeText { color:#f44336; }
  </style>
 </defs>
 <g transform="translate(1 2)">
  <path opacity=".3" style="fill:currentColor" class="ColorScheme-Text" d="m8 4v0.017578c-1.6567 0-2.9998 1.3413-3 2.9961v0.2715c-0.3037-0.1767-0.6486-0.2704-1-0.2715-1.1047 0-2.0002 0.89461-2 1.998h-0.5c-0.27637-3e-7 -0.50032 0.22395-0.5 0.5 0.0007596 0.27529 0.22439 0.49805 0.5 0.49805h0.77148 2.2891c0.6963-1.1864 1.9727-1.9983 3.4394-1.9983h0.00195c0.5331 0.0008 1.0499 0.1182 1.5332 0.3203 0.3286-0.745 0.8078-1.4042 1.3988-1.9355-0.285-1.3928-1.5108-2.3938-2.934-2.3965zm6.5 2.0117v0.00391c-2.2208 0-4.1069 1.6234-4.4414 3.8164-0.5565-0.5263-1.293-0.8191-2.059-0.8203-1.6569 0-3 1.3411-3 2.9961 0.00109 0.3432 0.06121 0.68293 0.17773 1.0059-0.0591-0.01-0.1184-0.0098-0.17773-0.0098-1.1046 0-2 0.89472-2 1.998 0 1.103 0.8954 1.998 2 1.998h1.0449c0.37118-0.10248 0.64896-0.20383 0.9668-0.47852 0.33976-0.29376 3.4977-5.498 6.377-5.498 0 0 0.42528-0.01631 0.61133-0.02344 1.6569 0 3 1.3431 3 3s-1.3431 3-3 3h4.5c1.381 0 2.5-1.119 2.5-2.498 0-1.289-0.983-2.365-2.268-2.484 0.176-0.485 0.266-0.995 0.268-1.51 0-2.4826-2.015-4.4963-4.5-4.4963z"/>
  <path style="fill:currentColor" class="ColorScheme-Text" d="m12 12v4h1v-4h-1zm2 0v4h1v-4h-1z"/>
 </g>
</svg>
