<svg xmlns="http://www.w3.org/2000/svg" width="24" height="24" version="1.1">
 <defs>
  <style id="current-color-scheme" type="text/css">
   .ColorScheme-Text { color:#e2d5bc; } .ColorScheme-Highlight { color:#4285f4; } .ColorScheme-NeutralText { color:#ff9800; } .ColorScheme-PositiveText { color:#4caf50; } .ColorScheme-NegativeText { color:#f44336; }
  </style>
 </defs>
 <path style="fill:currentColor" class="ColorScheme-NegativeText" d="M 12 5 C 11.446 5 11 5.446 11 6 L 11 11.003906 C 11 11.557906 11.446 12.003906 12 12.003906 C 12.554 12.003906 13 11.557906 13 11.003906 L 13 6 C 13 5.446 12.554 5 12 5 z M 15.037109 6.9882812 A 1.0001 1.0001 0 0 0 14.84375 7 A 1.0001 1.0001 0 0 0 14.40625 8.8125 C 16.18475 10.1429 16.54905 12.62775 15.21875 14.40625 C 13.88835 16.18475 11.37225 16.51785 9.59375 15.1875 C 7.81525 13.85715 7.48215 11.37225 8.8125 9.59375 C 9.02906 9.30424 9.2764 9.06479 9.5625 8.84375 A 1.0032039 1.0032039 0 1 0 8.34375 7.25 C 7.9146 7.58156 7.51229 7.97204 7.1875 8.40625 C 5.2097 11.05025 5.76225 14.8348 8.40625 16.8125 C 11.05025 18.7903 14.8348 18.23775 16.8125 15.59375 C 18.7903 12.94975 18.23775 9.1652 15.59375 7.1875 A 1.0001 1.0001 0 0 0 15.037109 6.9882812 z"/>
</svg>
