<svg xmlns="http://www.w3.org/2000/svg" width="16" height="16" version="1.1">
 <path style="fill:#c0c0c0" d="M 2,2 C 1.48,2 1,2.47 1,3 V 13 C 1,13.52 1.48,14 2,14 H 6 V 12 H 3 V 4 H 14 V 12 H 12 V 14 H 15 C 15.52,14 16,13.56 16,13 V 3 C 16,2.53 15.56,2 15,2 Z"/>
 <path style="fill:#c0c0c0" d="M 7,11 V 16 16 L 9,14 11,16 V 16 11"/>
 <path style="fill:#c0c0c0" d="M 9 6 A 3 3 0 0 0 6 9 A 3 3 0 0 0 9 12 A 3 3 0 0 0 12 9 A 3 3 0 0 0 9 6 z M 9 7 A 2 2 0 0 1 11 9 A 2 2 0 0 1 9 11 A 2 2 0 0 1 7 9 A 2 2 0 0 1 9 7 z"/>
</svg>
