<svg xmlns="http://www.w3.org/2000/svg" width="22" height="22" version="1.1">
 <defs>
  <style id="current-color-scheme" type="text/css">
   .ColorScheme-Text { color:#c0c3cf; } .ColorScheme-Highlight { color:#4285f4; }
  </style>
 </defs>
 <path style="fill:currentColor" class="ColorScheme-Text" d="m7 3-5 3 4 2.9844-4.0098 3.0076 5.0098 3.008 4-3-5-3 5-3 5 3.0156-5 2.9844l4 3 5.0098-3.0234-4.01-2.98 4-3-5-3-4 2.9844-4-2.9844zm4 10-4 3-1-0.6v0.6l5 3 5-3v-0.604l-1 0.604-4-3z"/>
</svg>
