<svg xmlns="http://www.w3.org/2000/svg" width="22" height="22" version="1.1">
 <defs>
  <style id="current-color-scheme" type="text/css">
   .ColorScheme-Text { color:#c0c3cf; } .ColorScheme-Highlight { color:#4285f4; }
  </style>
 </defs>
 <g transform="translate(-225 -503.36)">
  <path style="fill:currentColor" class="ColorScheme-Text" d="m238 515.37 5.5-4.5-5.5-4.5c0.004 0.003 0 1.3333 0 2h-3v5h3v2z"/>
  <path opacity=".3" style="fill:currentColor" class="ColorScheme-Text" d="m234 512.37-5.5 4.5 5.5 4.5c-0.004-0.003 0-1.3333 0-2h3v-5h-3v-2z"/>
 </g>
</svg>
