<svg xmlns="http://www.w3.org/2000/svg" width="22" height="22" version="1.1">
 <defs>
  <style id="current-color-scheme" type="text/css">
   .ColorScheme-Text { color:#c0c3cf; } .ColorScheme-Highlight { color:#4285f4; }
  </style>
 </defs>
 <circle style="fill:currentColor" class="ColorScheme-Highlight" cx="19" cy="4" r="2"/>
 <path style="fill:currentColor" class="ColorScheme-Text" d="m9.3967 2.795c-1.2048 0.0322-1.8596 1.1268-2.3672 2.1231-0.1852 0.0934-0.3734 0.1757-0.5567 0.2773-0.9947 0.6687-1.8102 1.5961-2.4394 2.6094-0.5535 0.9769-0.889 2.0622-1.0137 3.1762-0.0741 1.129 0.0553 2.28 0.4805 3.336 0.3295 0.928 0.9097 1.948 1.6523 2.583 0.9859 0.658 1.7699 1.134 2.8457 1.088-2.2398-1.792-3.4216-3.94-3.7949-6.468-0.0118-0.189-0.035-0.394 0.0332-0.344 0.2553 0.405 0.3147 0.39 0.7578 0.619-0.382-1.429 0.1281-3.0204 0.752-4.1816 0.078-0.0894 0.1628-0.1751 0.2461-0.2618l0.039 0.0059c0.014 0.2233 0.0405 0.448 0.0664 0.6641-0.0048 0.1041 0.0616 0.2818 0.0821 0.3965-0.0154 0.0402-0.0988 0.2808-0.1309 0.582-0.0193 0.1193-0.02 0.2365-0.0019 0.3515 0.0032 0.0227 5e-3 0.0442 0.0097 0.0665 0.0097 0.0404 0.0207 0.0813 0.0371 0.121 0.0348 0.0939 0.0811 0.1826 0.1563 0.2559 0.0278-0.1254 0.0846-0.2266 0.1621-0.3105 0.0193-0.021 0.0486-0.0338 0.0703-0.0528 0.0702-0.0595 0.1436-0.1169 0.2227-0.1601 0.0155-0.0085 0.0158-0.0058 0.0312-0.0137 0.1964-0.1002 0.3896-0.1621 0.3906-0.1621l0.0157-0.0156c0.0812-0.0331 0.1631-0.0688 0.2382-0.1055 1.1272-1.0987 2.1932-1.291 3.613-1.1797 0.782 0 1.227-0.203 2-0.5508 1.187 0.4961 1.696 1.2707 2 2.5508 0.115 0.962-1.431 3.27-2 3.998l-4e-3 2e-3h4e-3c0.012 2e-3 1.718-0.76 2.399-1.406-0.486 3.755-3.186 6.082-4.399 6.606 0.937 0.063 2.221-0.521 3.104-1.06-0.403 0.432-0.835 0.9-1.104 1.06 1.055-0.295 2.054-0.403 2.719-0.888 0 0 0.539-0.494 1.104-1.138 0.075-0.085 0.204-0.203 0.281-0.301 0.048-0.06 0.094-0.122 0.14-0.183 9e-3 -0.01 0.018-0.021 0.026-0.031 1.187-1.453 1.765-3.258 1.723-4.895 8e-3 -1.9842-0.798-3.7055-2.151-5.1292-0.978-1.0296-2.089-1.6611-3.09-2.002-1.035-0.2973-2.253-0.4481-3.289-0.3906-0.103 0.0013-0.391 0.0097-0.783 0.043-0.0458-0.0864 0.0112-0.4068 0.123-0.4864-0.2451 0.023-0.471 0.3419-0.6796 0.5625-0.0352 0.0069-0.0712 0.0138-0.1036 0.0215 0.188-0.3251 0.3796-0.6909 0.6036-0.9824-0.6939 0.1295-0.9967 0.6751-1.336 1.1777-0.0979 0.0323-0.1929 0.0714-0.289 0.1075 0.2516-0.7262 0.7249-1.1237 1.4043-1.6856zm-1.7989 4.2002c0.1941-0.0037 0.3694 0.0293 0.3711 0.0293 0.0033 0 0.0876 0.3401-0.0722 0.6309-0.1599 0.2919-0.532 0.4087-0.7383 0.2988-0.2108-0.1099-0.2101-0.4776-0.0469-0.7695 0.0788-0.146 0.2922-0.1857 0.4863-0.1895z"/>
 <path style="fill:currentColor;opacity:.3" class="ColorScheme-Text" d="m12.818 8.311c-0.567 0.2318-1.101 0.4844-1.824 0.4844-0.026 4e-4 -0.052-3e-4 -0.078-0.0019-1.2918-0.1013-1.8946-0.021-2.8379 0.8984-0.0758 0.0737-0.1628 0.1352-0.2578 0.1816-0.0597 0.0293-0.1162 0.0512-0.1738 0.0762-0.0656 0.0407-0.1359 0.0733-0.209 0.0983l1.5566 1.748 4.9139-1.545c0.04-0.148 0.078-0.3166 0.084-0.3013-0.227-0.9223-0.497-1.3026-1.174-1.6387zm-5.6735 1.907c-0.2087 0.439-0.6997 0.675-1.1738 0.537 0 0.262-0.0725 0.548-0.0098 0.783 0.1027 0.39-0.039 0.804-0.3593 1.049 0.1915 0.669 0.4381 1.31 0.7617 1.922l6.2047 1.902c0.038-0.046 0.078-0.081 0.116-0.129 0.389-0.49 0.754-1.068 1.054-1.724-9e-3 4e-3 -0.024 0.011-0.033 0.015-0.092 0.044-0.168 0.078-0.225 0.104-0.028 0.013-0.051 0.021-0.074 0.031-0.011 5e-3 -0.02 0.01-0.039 0.018-9e-3 3e-3 -0.019 6e-3 -0.045 0.015-0.013 5e-3 -0.066 0.02-0.066 0.02l-0.09 0.021s-0.258 6e-3 -0.289 6e-3c-0.774-0.092-1.15-0.995-0.67-1.609 3e-3 -4e-3 0.011-0.016 0.014-0.02 0.243-0.313 0.751-1.042 1.158-1.765 0.112-0.201 0.181-0.373 0.271-0.561l-4.6559 1.463z"/>
</svg>
