<svg xmlns="http://www.w3.org/2000/svg" width="22" height="22" version="1.1">
 <defs>
  <style id="current-color-scheme" type="text/css">
   .ColorScheme-Text { color:#c0c3cf; } .ColorScheme-Highlight { color:#4285f4; }
  </style>
 </defs>
 <path style="fill:currentColor;fill-rule:evenodd" class="ColorScheme-Text" d="m 10.863629,16.945475 h 1.314996 c 0,0 0.397109,-0.04535 0.600149,-0.271632 0.186619,-0.20799 0.180659,-0.598298 0.180659,-0.598298 0,0 -0.02573,-1.827683 0.793059,-2.096795 0.807477,-0.265291 1.744438,1.76628 2.843135,2.547616 0.830837,0.591006 1.462196,0.46164 1.462196,0.46164 l 2.937992,-0.04252 c 0,0 1.536797,-0.09822 0.808079,-1.349961 -0.05965,-0.10223 -0.42453,-0.925867 -2.184495,-2.618114 -1.842995,-1.77008 -1.595996,-1.484067 0.622999,-4.5476036 1.351996,-1.8657846 1.891994,-2.6044075 1.722995,-3.0922298 -0.161,-0.4648212 -1.154997,-0.3420156 -1.154997,-0.3420156 l -3.307992,0.02119 c 0,0 -0.245419,-0.03459 -0.427159,0.078084 -0.177789,0.1101702 -0.291899,0.367602 -0.291899,0.367602 0,0 -0.523759,1.0433366 -1.221797,2.2713924 -1.472996,2.5908156 -1.962437,2.7279216 -2.203237,2.5668136 -0.560178,-0.3749776 -0.420189,-1.5060667 -0.420189,-2.3099031 0,-2.5109139 0.36766,-3.5577612 -0.715968,-3.8287736 -0.359529,-0.089874 -0.624398,-0.1493371 -1.543996,-0.1590475 -1.1803959,-0.01245 -1.97941,0.0037 -2.5451086,0.2908032 -0.376339,0.1908985 -0.6666982,0.6162079 -0.4897587,0.6406794 0.2186994,0.03016 0.7137181,0.1384261 0.9761875,0.5083527 0.3390791,0.4778518 0.3272291,1.5505705 0.3272291,1.5505705 0,0 0.1948395,2.9556328 -0.4548988,3.3227484 C 8.0459807,10.567886 7.1348715,10.053832 5.821575,7.7032577 5.1488368,6.4993034 4.6406782,5.5685387 4.6406782,5.5685387 c 0,0 -0.097849,-0.2486813 -0.2726192,-0.3818075 C 4.1568595,5.0254242 3.8606602,4.9742218 3.8606602,4.9742218 l -3.14359169,0.02126 c 0,0 -0.4717787,0.01365 -0.6451683,0.2262104 -0.1542395,0.1892186 -0.01233,0.5800861 -0.01233,0.5800861 0,0 2.46089349,5.5636727 5.24758609,8.5693087 2.5554933,2.755924 5.5564427,2.575017 5.5564427,2.575017"/>
</svg>
