<svg xmlns="http://www.w3.org/2000/svg" width="16" height="16" version="1.1">
 <defs>
  <style id="current-color-scheme" type="text/css">
   .ColorScheme-Text { color:#cbe3e7; } .ColorScheme-Highlight { color:#4285f4; } .ColorScheme-NeutralText { color:#ff9800; } .ColorScheme-PositiveText { color:#4caf50; } .ColorScheme-NegativeText { color:#f44336; }
  </style>
 </defs>
 <path style="fill:currentColor" class="ColorScheme-Text" d="M 2,1 C 2,1 1,1 1,2 V 13 C 1,13 1,14 2,14 H 10.5 V 12.5 L 10,13 8,11 12,7 15,10 V 4 C 15,3 14,3 14,3 H 9 L 7,1 Z"/>
 <path style="fill:currentColor" class="ColorScheme-Text" d="M 12,8 9,11 10,12 11,11 V 14 H 13 V 11 L 14,12 15,11 Z"/>
</svg>
