<svg xmlns="http://www.w3.org/2000/svg" width="16" height="16" version="1.1">
 <defs>
  <style id="current-color-scheme" type="text/css">
   .ColorScheme-Text { color:#cbe3e7; } .ColorScheme-Highlight { color:#4285f4; } .ColorScheme-NeutralText { color:#ff9800; } .ColorScheme-PositiveText { color:#4caf50; } .ColorScheme-NegativeText { color:#f44336; }
  </style>
 </defs>
 <path style="fill:currentColor" class="ColorScheme-Text" d="M 14.679,12.246 C 14.558,12.23 14.445,12.284 14.375,12.378 L 13.902,12.316 14.583,11.616 C 14.694,11.646 14.816,11.616 14.902,11.526 15.032,11.39 15.031,11.17 14.902,11.035 14.772,10.9 14.561,10.901 14.431,11.036 14.346,11.126 14.317,11.252 14.345,11.366 L 13.736,11.992 13.939,11.187 C 14.046,11.154 14.137,11.07 14.168,10.949 14.215,10.763 14.109,10.574 13.931,10.525 13.753,10.476 13.572,10.587 13.525,10.772 13.494,10.894 13.534,11.013 13.612,11.098 L 13.391,11.972 13.142,11.032 C 13.219,10.947 13.257,10.827 13.225,10.706 13.176,10.521 12.993,10.413 12.816,10.464 12.501,10.554 12.482,11.027 12.816,11.126 L 13.012,11.864 11.732,12.441 12.047,11.002 C 12.047,11.002 12.062,10.897 12.063,10.841 12.082,10.196 11.508,9.6004 10.733,9.877 L 9.9403,10.304 C 10.126,9.5421 10.255,8.7286 10.314,7.96 11.174,8.5053 11.52,7.9006 11.614,7.6391 L 12.664,4.3722 13.376,3.6285 C 13.485,3.6562 13.604,3.6317 13.689,3.5425 13.818,3.4067 13.818,3.1871 13.688,3.0521 13.558,2.9171 13.347,2.9177 13.218,3.053 13.133,3.1421 13.109,3.266 13.136,3.3798 L 12.518,4.0263 12.725,3.2041 C 12.833,3.1706 12.924,3.0868 12.954,2.9654 13.001,2.7802 12.895,2.5909 12.717,2.5422 12.54,2.4933 12.358,2.6041 12.311,2.7892 12.28,2.9105 12.32,3.03 12.398,3.1143 L 12.178,3.9881 11.929,3.0483 C 12.006,2.9631 12.044,2.8431 12.012,2.722 11.963,2.5376 11.78,2.4293 11.603,2.48 11.426,2.531 11.322,2.722 11.371,2.9068 11.403,3.0276 11.495,3.11 11.603,3.1419 L 11.832,4.0069 10.719,6.2767 10.257,5.7933 C 10.167,5.2382 10.019,4.7702 9.8224,4.3911 9.8997,4.278 9.9462,4.1405 9.9462,3.9913 9.9462,3.6092 9.6489,3.2996 9.2825,3.2996 9.2825,3.2996 9.2132,3.3048 9.1793,3.3104 L 8.8031,2.9183 C 8.8031,2.9183 8.8098,2.8723 8.8098,2.8484 8.8098,2.3814 8.4473,2 7.9999,2 7.5525,2 7.19,2.3814 7.19,2.8484 7.19,2.8723 7.1967,2.9183 7.1967,2.9183 L 6.8206,3.3104 C 6.8206,3.3104 6.7528,3.2996 6.7174,3.2996 6.351,3.2996 6.0538,3.6092 6.0538,3.9913 6.0538,4.1405 6.1003,4.278 6.1775,4.3911 5.9813,4.7702 5.833,5.2381 5.7434,5.7933 L 5.2808,6.2767 4.1677,4.0069 4.3971,3.1419 C 4.5049,3.1099 4.5967,3.0276 4.6289,2.9068 4.6776,2.7219 4.5738,2.531 4.3968,2.48 4.2198,2.4293 4.0368,2.5376 3.9877,2.7219 3.9558,2.8431 3.9938,2.9631 4.0709,3.0483 L 3.8217,3.9881 3.6011,3.1139 C 3.6791,3.0297 3.7188,2.9101 3.6881,2.7888 3.6414,2.6037 3.4596,2.4929 3.282,2.5418 3.1044,2.5905 2.9983,2.7798 3.045,2.965 3.0757,3.0864 3.1665,3.1702 3.274,3.2037 L 3.4816,4.0259 2.8633,3.3794 C 2.8901,3.2656 2.8668,3.1417 2.7818,3.0526 2.6519,2.9173 2.4414,2.9167 2.3116,3.0517 2.1816,3.1867 2.1809,3.4063 2.3107,3.5422 2.3957,3.631 2.5145,3.6558 2.6237,3.6282 L 3.335,4.3719 4.3856,7.6388 C 4.4797,7.9002 4.8255,8.5049 5.6854,7.9596 5.7447,8.7282 5.8734,9.5417 6.0588,10.304 L 5.2666,9.8762 C 4.4919,9.5996 3.9177,10.195 3.9364,10.841 3.937,10.897 3.9528,11.001 3.9528,11.001 L 4.2676,12.441 2.9877,11.863 3.1832,11.125 C 3.5178,11.026 3.4983,10.554 3.1832,10.463 3.0062,10.412 2.8233,10.521 2.7742,10.705 2.7423,10.826 2.7803,10.946 2.8574,11.032 L 2.6081,11.972 2.3875,11.098 C 2.4654,11.013 2.5051,10.894 2.4744,10.772 2.4278,10.587 2.2459,10.476 2.0682,10.525 1.8908,10.574 1.7847,10.763 1.8313,10.948 1.862,11.07 1.9529,11.154 2.0603,11.187 L 2.2633,11.992 1.6544,11.366 C 1.6822,11.252 1.6536,11.126 1.5681,11.036 1.4381,10.901 1.2277,10.9 1.0977,11.035 0.96792,11.17 0.96721,11.39 1.0969,11.526 1.1833,11.616 1.3055,11.646 1.4159,11.616 L 2.0973,12.316 1.6243,12.378 C 1.5547,12.284 1.4412,12.23 1.3203,12.246 1.138,12.27 1.0088,12.443 1.0315,12.633 1.0542,12.822 1.2205,12.957 1.403,12.934 1.5238,12.918 1.6209,12.836 1.6662,12.728 L 2.4056,12.631 4.6103,13.908 C 4.8407,14.041 5.1235,14.028 5.3416,13.874 5.5598,13.72 5.6763,13.451 5.6423,13.178 L 5.4734,11.824 7.2654,13.104 C 7.4963,13.365 7.7434,13.522 8,13.522 8.2566,13.522 8.5036,13.365 8.7346,13.104 L 10.527,11.824 10.358,13.178 C 10.324,13.451 10.441,13.72 10.659,13.874 10.877,14.028 11.16,14.041 11.39,13.908 L 13.595,12.631 14.334,12.727 C 14.379,12.836 14.476,12.918 14.597,12.934 14.78,12.957 14.946,12.822 14.969,12.632 14.992,12.443 14.862,12.269 14.68,12.245 Z"/>
</svg>
