<svg xmlns="http://www.w3.org/2000/svg" width="16" height="16" version="1.1">
 <defs>
  <style id="current-color-scheme" type="text/css">
   .ColorScheme-Text { color:#cbe3e7; } .ColorScheme-Highlight { color:#4285f4; } .ColorScheme-NeutralText { color:#ff9800; } .ColorScheme-PositiveText { color:#4caf50; } .ColorScheme-NegativeText { color:#f44336; }
  </style>
 </defs>
 <path style="fill:currentColor" class="ColorScheme-Text" d="M 3,0 V 2 H 5 V 0 Z M 0,3 V 5 H 11 V 16 H 13 V 4 C 13,4 13,3 12,3 Z M 3,6 V 12 C 3,13 4,13 4,13 H 10 V 11 H 5 V 6 Z M 14,11 V 13 H 16 V 11 Z"/>
</svg>
