<svg xmlns="http://www.w3.org/2000/svg" width="16" height="16" version="1.1">
 <defs>
  <style id="current-color-scheme" type="text/css">
   .ColorScheme-Text { color:#cbe3e7; } .ColorScheme-Highlight { color:#4285f4; } .ColorScheme-NeutralText { color:#ff9800; } .ColorScheme-PositiveText { color:#4caf50; } .ColorScheme-NegativeText { color:#f44336; }
  </style>
 </defs>
 <path style="fill:currentColor" class="ColorScheme-Text" d="M 4,10 1,8 4,6 Z M 12,10 15,8 12,6 Z M 8,15 10,12 H 6 Z M 8,1 10,4 H 6 Z M 15,7 H 16 V 9 H 15 Z M 0,7 H 1 V 9 H 0 Z M 7,15 H 9 V 16 H 7 Z M 7,0 H 9 V 1 H 7 Z M 0,16 V 11 H 1 V 15 H 5 V 16 Z M 16,16 V 12 H 15 V 15 H 11 V 16 Z M 16,0 V 5 H 15 V 1 H 11 V 0 Z M 0,0 V 5 H 1 V 1 H 5 V 0 Z"/>
</svg>
