<svg xmlns="http://www.w3.org/2000/svg" width="22" height="22" version="1.1">
 <defs>
  <style id="current-color-scheme" type="text/css">
   .ColorScheme-Text { color:#c0c0c0; } .ColorScheme-Highlight { color:#4285f4; }
  </style>
 </defs>
 <path style="fill:currentColor" class="ColorScheme-Text" d="m 16.435636,2.9999085 c -0.05382,0.00219 -0.107384,0.00872 -0.160156,0.019531 L 5.9766514,5.1893616 c -0.00982,0.0031 -0.019582,0.00636 -0.029297,0.00977 C 4.5108135,5.5455974 3.4984113,6.6302286 2.8164951,7.8768616 2.1345793,9.1233945 1.724274,10.586217 1.455167,12.013581 c -0.269107,1.427265 -0.3890597,2.819058 -0.4335937,3.90625 -0.0222699,0.543597 -0.0256679,1.00903 -0.017578,1.371094 0.005,0.223016 0.033788,0.377515 0.048828,0.535156 1.63e-4,0 -1.7e-4,-2.68e-4 0,0.0098 -0.00222,0.02468 -0.00352,0.04944 -0.00391,0.07422 h 0.00977 c 0.01128,0.07997 -0.0069,0.13785 0.023437,0.253906 0.1143398,0.435884 0.5062662,0.741427 0.9570313,0.746094 l 9.0390624,0.08981 c 0.07414,0.001 0.148159,-0.0062 0.220703,-0.02148 l 9.892578,-2.128907 c 0.443498,-0.09516 0.767389,-0.476775 0.789063,-0.929687 0,0 0.147573,-2.973066 -0.369141,-6.0410165 C 21.35306,8.3448781 20.938579,6.7744309 20.177823,5.4745179 19.417068,4.1746049 18.181668,3.0985869 16.537198,3.007721 c -0.03383,-0.00172 -0.06773,-0.00172 -0.101562,0 z m 0.05078,2.0195312 c 0.842493,0.069974 1.423078,0.529425 1.964844,1.4550782 0.556625,0.9511437 0.9521,2.3308395 1.1875,3.7285161 0.407935,2.421992 0.315148,4.256762 0.296875,4.865234 l -8.660156,1.861329 C 11.26878,14.427082 10.967851,8.4103735 8.0625889,6.7928773 Z M 5.9727451,7.9960023 c 2.9473531,0 3.0273438,8.9960947 3.0273438,8.9960947 h -6 c 0,0 0.0253,-8.9960949 2.9726562,-8.9960947 z m 7.5664059,-0.9960938 -2.458984,0.2109375 -0.08008,0.089844 1.181641,4.6171883 0.113281,0.08203 1.388672,-0.06641 0.03906,-0.140625 -0.90039,-3.3945315 1.162109,-0.076172 0.01563,-0.097657 -0.396484,-1.1503902 z"/>
 <path style="opacity:0.3;fill:currentColor" class="ColorScheme-Text" d="m 5.9728388,7.9960735 c 2.947353,0 3.0273441,8.9966305 3.0273441,8.9966305 H 3.0001828 c 0,0 0.0253,-8.9966305 2.972656,-8.9966305 z"/>
</svg>
