<svg xmlns="http://www.w3.org/2000/svg" width="22" height="22" version="1.1">
 <defs>
  <style id="current-color-scheme" type="text/css">
   .ColorScheme-Text { color:#c0c0c0; } .ColorScheme-Highlight { color:#4285f4; }
  </style>
 </defs>
 <g transform="translate(-525 437)">
  <path style="fill:currentColor" class="ColorScheme-Text" d="m534-427-6 4.5 6 4.5c-0.004-0.003 0-1.3333 0-2h3v-2.1875-0.8125-2h-3z"/>
  <path opacity=".3" style="fill:currentColor" class="ColorScheme-Text" d="m538-424 6-4.5-6-4.5c0.004 0.003 0 1.3333 0 2h-3v2.1875 0.8125 2h3z"/>
 </g>
</svg>
