<svg xmlns="http://www.w3.org/2000/svg" width="22" height="22" version="1.1">
 <defs>
  <style id="current-color-scheme" type="text/css">
   .ColorScheme-Text { color:#c0c0c0; } .ColorScheme-Highlight { color:#4285f4; }
  </style>
 </defs>
 <g transform="translate(-33 -909.36)">
  <path opacity=".5" style="fill:currentColor" class="ColorScheme-Text" d="m38 914.36s-1 0-1 1v11s0 1 1 1h12s1 0 1-1v-9c0-1-1-1-1-1h-5l-2-2zm6 3 4 5h-2v3h-4v-3h-2z"/>
 </g>
</svg>
