<svg xmlns="http://www.w3.org/2000/svg" width="22" height="22" version="1.1">
 <defs>
  <style id="current-color-scheme" type="text/css">
   .ColorScheme-Text { color:#FCE8C3; } .ColorScheme-Highlight { color:#4285f4; } .ColorScheme-NeutralText { color:#ff9800; } .ColorScheme-PositiveText { color:#4caf50; } .ColorScheme-NegativeText { color:#f44336; }
  </style>
 </defs>
 <g transform="translate(3,3)">
  <path style="fill:currentColor" class="ColorScheme-Text" d="M 8,2 C 5.93,2 4.1702,3.2705 3.4102,5.0605 1.4802,5.3505 0,7 0,9 0,11.21 1.79,13 4,13 H 12.5 C 14.43,13 16,11.43 16,9.5 16,7.7 14.65,6.2293 12.91,6.0293 12.45,3.7393 10.43,2 8,2 Z M 8,4.5 11,8 H 9 V 11 H 7 V 8 H 5 Z"/>
 </g>
</svg>
