<svg xmlns="http://www.w3.org/2000/svg" width="22" height="22" version="1.1">
 <defs>
  <style id="current-color-scheme" type="text/css">
   .ColorScheme-Text { color:#FCE8C3; } .ColorScheme-Highlight { color:#4285f4; } .ColorScheme-NeutralText { color:#ff9800; } .ColorScheme-PositiveText { color:#4caf50; } .ColorScheme-NegativeText { color:#f44336; }
  </style>
 </defs>
 <g transform="translate(3,3)">
  <path style="fill:currentColor" class="ColorScheme-Text" d="M 8 1 A 7 7 0 0 0 1 8 A 7 7 0 0 0 8 15 A 7 7 0 0 0 15 8 A 7 7 0 0 0 8 1 z M 7 4 L 9 4 L 9 9 L 7 9 L 7 4 z M 8 9.75 A 1.25 1.25 0 0 1 9.25 11 A 1.25 1.25 0 0 1 8 12.25 A 1.25 1.25 0 0 1 6.75 11 A 1.25 1.25 0 0 1 8 9.75 z"/>
 </g>
</svg>
