<svg xmlns="http://www.w3.org/2000/svg" width="22" height="22" version="1.1">
 <defs>
  <style id="current-color-scheme" type="text/css">
   .ColorScheme-Text { color:#FCE8C3; } .ColorScheme-Highlight { color:#4285f4; } .ColorScheme-NeutralText { color:#ff9800; } .ColorScheme-PositiveText { color:#4caf50; } .ColorScheme-NegativeText { color:#f44336; }
  </style>
 </defs>
 <g transform="matrix(1,0,0,1,3,3)">
  <path class="ColorScheme-Text" d="M 4.5,2 C 3.12,2 2,3.12 2,4.5 2,5.88 3.12,7 4.5,7 4.95,7 5.36,6.86 5.72,6.66 L 7.69,8.5 5.72,10.34 C 5.36,10.14 4.95,10 4.5,10 3.12,10 2,11.12 2,12.5 2,13.88 3.12,15 4.5,15 5.88,15 7,13.88 7,12.5 7,12.27 6.96,12.06 6.91,11.84 L 9.03,9.78 13.5,14 H 15 V 13 L 6.91,5.16 C 6.96,4.95 7,4.73 7,4.5 7,3.12 5.88,2 4.5,2 Z M 4.5,3.5 C 5.05,3.5 5.5,3.95 5.5,4.5 5.5,5.05 5.05,5.5 4.5,5.5 3.95,5.5 3.5,5.05 3.5,4.5 3.5,3.95 3.95,3.5 4.5,3.5 Z M 13.5,3 9.56,6.72 10.88,8 15,4 V 3 Z M 4.5,11.5 C 5.05,11.5 5.5,11.95 5.5,12.5 5.5,13.05 5.05,13.5 4.5,13.5 3.95,13.5 3.5,13.05 3.5,12.5 3.5,11.95 3.95,11.5 4.5,11.5 Z" style="fill:currentColor"/>
 </g>
</svg>
