<svg xmlns="http://www.w3.org/2000/svg" width="22" height="22" version="1.1">
 <defs>
  <style id="current-color-scheme" type="text/css">
   .ColorScheme-Text { color:#FCE8C3; } .ColorScheme-Highlight { color:#4285f4; } .ColorScheme-NeutralText { color:#ff9800; } .ColorScheme-PositiveText { color:#4caf50; } .ColorScheme-NegativeText { color:#f44336; }
  </style>
 </defs>
 <path style="fill:currentColor" class="ColorScheme-Text" transform="translate(3,3)" d="M 1,2 V 15 H 14 V 13 H 13 V 8 H 9 v 5 H 8 V 2 H 4 V 13 H 3 V 2 Z M 5,3 H 7 V 13 H 5 Z m 5,6 h 2 v 4 h -2 z"/>
</svg>
