<svg xmlns="http://www.w3.org/2000/svg" width="22" height="22" version="1">
 <path style="fill:#FCE8C3" d="M 10,3.7207031 A 7.1428571,7.1428571 0 0 0 3,10.857422 7.1428571,7.1428571 0 0 0 10.142578,18 7.1428571,7.1428571 0 0 0 15.042969,16.042969 L 10,11 Z"/>
 <path style="fill:#FCE8C3;opacity:0.3" d="M 16.363962,17.363962 10,11 16.363962,4.63604 c 3.514718,3.5147176 3.514717,9.213204 0,12.727922 z"/>
 <path style="fill:#FCE8C3;opacity:0.6" d="m 10,3 v 8 L 15.65625,5.34375 C 14.208536,3.896035 12.20914,3 10,3 Z"/>
</svg>
