<svg xmlns="http://www.w3.org/2000/svg" width="22" height="22" viewBox="0 0 22 22">
 <defs>
  <style id="current-color-scheme" type="text/css">
   .ColorScheme-Text { color:#FCE8C3; } .ColorScheme-Highlight { color:#4285f4; } .ColorScheme-NeutralText { color:#ff9800; } .ColorScheme-PositiveText { color:#4caf50; } .ColorScheme-NegativeText { color:#f44336; }
  </style>
 </defs>
 <path style="fill:currentColor" class="ColorScheme-Text" d="M 4 1 L 1 5 L 3 5 L 3 8 L 6 4 L 4 4 L 4 1 z M 10 1 L 10 3 L 8 3 L 8 13 L 10 13 L 10 15 L 15 15 L 15 10 L 10 10 L 10 12 L 9 12 L 9 4 L 10 4 L 10 6 L 15 6 L 15 1 L 10 1 z" transform="translate(3 3)"/>
</svg>
