<svg xmlns="http://www.w3.org/2000/svg" width="32" height="32" version="1">
 <rect style="opacity:0.2" width="28" height="18" x="2" y="11" rx="1.4" ry="1.4"/>
 <path style="fill:#A7C080" d="M 2,22.6 C 2,23.376 2.6244,24 3.4,24 H 28.6 C 29.376,24 30,23.376 30,22.6 V 7.4 C 30,6.6244 29.376,6 28.6,6 H 16 C 13.9,6 13.2,3 11.1,3 H 3.4 C 2.6244,3 2,3.6244 2,4.4"/>
 <rect style="opacity:0.2" width="28" height="18" x="2" y="9" rx="1.4" ry="1.4"/>
 <rect style="fill:#e4e4e4" width="24" height="11" x="4" y="8" rx="1.4" ry="1.4"/>
 <rect style="fill:#A7C080" width="28" height="18" x="2" y="10" rx="1.4" ry="1.4"/>
 <path style="opacity:0.1;fill:#ffffff" d="M 3.4004,3 C 2.6248,3 2,3.6248 2,4.4004 V 5.4004 C 2,4.6248 2.6248,4 3.4004,4 H 11.1 C 13.2,4 13.9,7 16,7 H 28.6 C 29.375,7 30,7.6248 30,8.4004 V 7.4004 C 30,6.6248 29.375,6 28.6,6 H 16 C 13.9,6 13.2,3 11.1,3 Z"/>
 <path style="fill:#2B3339" d="m 12.242243,13.000109 c -0.09165,0 -0.183406,0.05232 -0.217631,0.157173 L 10.693717,18 H 13.79077 L 12.459874,13.157282 C 12.425634,13.05243 12.333891,13.000109 12.242243,13.000109 Z M 13.79077,18 l 2.209232,6 2.209232,-6 z m 4.418464,0 h 3.097054 l -1.330896,-4.842718 c -0.06844,-0.209709 -0.366781,-0.209709 -0.435262,0 z m 3.097054,0 -5.306286,6 5.811301,-4.201851 c 0.160351,-0.115895 0.227528,-0.321269 0.166292,-0.508834 z m -5.306286,6 -5.306285,-6 -0.671309,1.289315 c -0.061231,0.187565 0.0059,0.392939 0.166293,0.508834 z"/>
</svg>
