<svg xmlns="http://www.w3.org/2000/svg" width="10" height="19">
 <defs>
  <clipPath>
   <rect width="10" height="19" x="20" y="1033.36" opacity="0.12" fill="#A7C080" color="#D3C6AA"/>
  </clipPath>
 </defs>
 <g transform="translate(0,-1033.3622)">
  <path d="M 2.5 6 C 2.223 6 2 6.223 2 6.5 L 2 13.5 C 2 13.777 2.223 14 2.5 14 L 5.5 14 C 5.777 14 6 13.777 6 13.5 L 6 6.5 C 6 6.223 5.777 6 5.5 6 L 2.5 6 z M 3 7 L 5 7 L 5 13 L 3 13 L 3 7 z " transform="translate(0,1033.3622)" fill="#2B3339"/>
 </g>
</svg>
