<svg xmlns="http://www.w3.org/2000/svg" width="10" height="18">
 <defs>
  <clipPath>
   <rect width="10" height="19" x="20" y="1033.36" opacity="0.12" fill="#A7C080" color="#D3C6AA"/>
  </clipPath>
 </defs>
 <g transform="translate(0,-1034.3622)">
  <rect rx="0.5" y="1042.36" x="2" height="3" width="3" fill="#2B3339"/>
 </g>
</svg>
