<svg xmlns="http://www.w3.org/2000/svg" width="24" height="24" version="1.1">
 <defs>
  <style id="current-color-scheme" type="text/css">
   .ColorScheme-Text { color:#d0d0d0; } .ColorScheme-Highlight { color:#4285f4; } .ColorScheme-NeutralText { color:#ff9800; } .ColorScheme-PositiveText { color:#4caf50; } .ColorScheme-NegativeText { color:#f44336; }
  </style>
 </defs>
 <path style="fill:currentColor" class="ColorScheme-Text" d="M 6.2304688 5 A 3 3 0 0 1 7 7 A 3 3 0 0 1 4.484375 9.9589844 L 4.5039062 9.9882812 L 5.0019531 10.75 L 5.0019531 15.705078 C 5.0019531 17.530019 6.4463295 19 8.2402344 19 L 18.763672 19 C 20.557577 19 22.001953 17.530019 22.001953 15.705078 L 22.001953 8.2949219 C 22.001953 6.4699807 20.557577 5 18.763672 5 L 12.490234 5 L 8.2402344 5 L 7.7675781 5 L 6.2304688 5 z M 8.5019531 8 L 18.501953 8 C 18.778953 8 19.001953 8.223 19.001953 8.5 C 19.001953 8.777 18.778953 9 18.501953 9 L 8.5019531 9 C 8.2249531 9 8.0019531 8.777 8.0019531 8.5 C 8.0019531 8.223 8.2249531 8 8.5019531 8 z M 8.5019531 11 L 18.501953 11 C 18.778953 11 19.001953 11.223 19.001953 11.5 C 19.001953 11.777 18.778953 12 18.501953 12 L 8.5019531 12 C 8.2249531 12 8.0019531 11.777 8.0019531 11.5 C 8.0019531 11.223 8.2249531 11 8.5019531 11 z M 8.5019531 14 L 14.501953 14 C 14.778953 14 15.001953 14.223 15.001953 14.5 C 15.001953 14.777 14.778953 15 14.501953 15 L 8.5019531 15 C 8.2249531 15 8.0019531 14.777 8.0019531 14.5 C 8.0019531 14.223 8.2249531 14 8.5019531 14 z"/>
 <circle style="fill:currentColor" class="ColorScheme-Highlight" cx="4" cy="7" r="2"/>
</svg>
