<svg xmlns="http://www.w3.org/2000/svg" width="24" height="24" version="1.1">
 <defs>
  <style id="current-color-scheme" type="text/css">
   .ColorScheme-Text { color:#d0d0d0; } .ColorScheme-Highlight { color:#4285f4; } .ColorScheme-NeutralText { color:#ff9800; } .ColorScheme-PositiveText { color:#4caf50; } .ColorScheme-NegativeText { color:#f44336; }
  </style>
 </defs>
 <path style="fill:currentColor" class="ColorScheme-Text" d="m 4.0193186,4.986657 c -1.3498276,-0.025941 -1.3637277,2.0074845 -0.013672,2 v 11 c -0.019052,1.34715 2.0014782,1.350514 1.998047,0.01367 h -0.00391 V 5.9573601 C 5.9833803,5.4194197 5.5475538,4.9867112 5.0056468,4.986657 Z m 2.9804688,1 v 11 h 1.0058594 v 1.273438 c 0,0.726801 0.7265625,0.726562 0.7265625,0.726562 h 0.2734375 1.0000002 v -2 h 1.999999 v 1.996094 h 2 v -1.996094 h 2 v 1.998047 h 1 0.273438 c 0,0 0.726562,2.39e-4 0.726562,-0.726563 v -1.271484 h 0.300782 c 0.3878,0 0.699218,-0.306348 0.699218,-0.6875 v -9.625 c 0,-0.381152 -0.311418,-0.6875 -0.699218,-0.6875 z m 2.0058594,2 h 3.9999992 c 0.838869,-3.499e-4 1.305407,0.970049 0.78125,1.6249999 l -2.699218,3.3750001 h 1.917968 c 1.352323,-0.01913 1.352323,2.019125 0,2 H 9.0056468 c -0.838869,3.5e-4 -1.3054069,-0.970049 -0.78125,-1.625 L 10.923616,9.9866569 H 9.0056468 c -1.3523227,0.01912 -1.3523227,-2.0191251 0,-1.9999999 z m 6.5078122,0 h 1.992187 c 0.399294,8.52e-5 0.637437,0.4450668 0.416016,0.7773438 l -1.476563,2.2226562 h 1.060547 c 0.676138,-0.0095 0.676138,1.009538 0,1 h -1.992187 c -0.400178,0.0015 -0.639885,-0.44433 -0.417969,-0.777344 l 1.476563,-2.222656 h -1.058594 c -0.676161,0.00956 -0.676161,-1.0095626 0,-1 z"/>
</svg>
