<svg xmlns="http://www.w3.org/2000/svg" width="24" height="24" version="1.1">
 <defs>
  <style id="current-color-scheme" type="text/css">
   .ColorScheme-Text { color:#d0d0d0; } .ColorScheme-Highlight { color:#4285f4; } .ColorScheme-NeutralText { color:#ff9800; } .ColorScheme-PositiveText { color:#4caf50; } .ColorScheme-NegativeText { color:#f44336; }
  </style>
 </defs>
 <rect style="fill:currentColor" class="ColorScheme-Text" width="3" height="4" x="15" y="16"/>
 <circle style="fill:currentColor" class="ColorScheme-Highlight" cx="16.5" cy="13.5" r="1.5"/>
 <path style="stroke:currentColor;stroke-width:2;fill:none" class="ColorScheme-Text" d="m8 15a10 10 0 0 1 10 -10"/>
 <path style="stroke:currentColor;stroke-width:2;fill:none" class="ColorScheme-Text" d="m12 15a6 6 0 0 1 6 -6"/>
</svg>
