<svg xmlns="http://www.w3.org/2000/svg" width="24" height="24" version="1.1">
 <defs>
  <style id="current-color-scheme" type="text/css">
   .ColorScheme-Text { color:#d0d0d0; } .ColorScheme-Highlight { color:#4285f4; } .ColorScheme-NeutralText { color:#ff9800; } .ColorScheme-PositiveText { color:#4caf50; } .ColorScheme-NegativeText { color:#f44336; }
  </style>
 </defs>
 <path style="fill:currentColor" class="ColorScheme-Text" d="M 4.46875,4 C 4.2086109,4 4,4.2086109 4,4.46875 v 7.060547 C 4,11.789437 4.2086109,12 4.46875,12 H 6 V 6 H 9 V 4 Z M 10,4 v 8 h 1.529297 C 11.789436,12 12,11.789437 12,11.529297 V 4.46875 C 12,4.2086109 11.789436,4 11.529297,4 Z M 7,7 v 5 H 9 V 7 Z m 6,0 v 4.529297 C 13,12.326138 12.326139,13 11.529297,13 H 10 9 7 6 v 4.263672 C 6,17.713797 6.3464796,17.995368 6.7773438,18 h 7.1992182 l 1.556641,2 1.554688,-2 h 2.134765 C 19.653545,18 20,17.713797 20,17.263672 V 7.8125 C 20,7.362375 19.653545,7 19.222656,7 Z"/>
</svg>
