<svg xmlns="http://www.w3.org/2000/svg" width="24" height="24" version="1.1">
 <defs>
  <style id="current-color-scheme" type="text/css">
   .ColorScheme-Text { color:#d0d0d0; } .ColorScheme-Highlight { color:#4285f4; } .ColorScheme-NeutralText { color:#ff9800; } .ColorScheme-PositiveText { color:#4caf50; } .ColorScheme-NegativeText { color:#f44336; }
  </style>
 </defs>
 <path style="fill:currentColor" class="ColorScheme-Text" d="M 20,4 C 11.636362,4 4,11.636363 4,20 c 0,0 1.090909,-2.909125 3.636362,-4.727275 2.545451,-1.818175 7.603313,0.06993 9.057888,-3.2028 -2.545487,0 -3.966975,-1.05785 -3.966975,-1.05785 C 15.636362,11.012075 20,8.242425 20,4 Z"/>
</svg>
