<svg xmlns="http://www.w3.org/2000/svg" width="24" height="24" version="1.1">
 <defs>
  <style id="current-color-scheme" type="text/css">
   .ColorScheme-Text { color:#d0d0d0; } .ColorScheme-Highlight { color:#4285f4; } .ColorScheme-NeutralText { color:#ff9800; } .ColorScheme-PositiveText { color:#4caf50; } .ColorScheme-NegativeText { color:#f44336; }
  </style>
 </defs>
 <path style="fill:currentColor" class="ColorScheme-Text" d="m 11.863629,18.945583 h 1.314996 c 0,0 0.397109,-0.04526 0.600149,-0.271094 0.186619,-0.207578 0.180659,-0.597113 0.180659,-0.597113 0,0 -0.02573,-1.824064 0.793059,-2.092644 0.807477,-0.264765 1.744438,1.762783 2.843135,2.542572 0.830837,0.589836 1.462196,0.460726 1.462196,0.460726 l 2.937992,-0.04244 c 0,0 1.536797,-0.09803 0.808079,-1.347288 -0.05965,-0.102028 -0.42453,-0.924034 -2.184495,-2.61293 -1.842995,-1.766575 -1.595996,-2.479163 0.622999,-5.5366328 1.351996,-1.8620901 1.891994,-2.5992505 1.722995,-3.0861069 -0.161,-0.4639008 -1.154997,-0.3413383 -1.154997,-0.3413383 l -3.307992,0.021148 c 0,0 -0.245419,-0.034521 -0.427159,0.077929 -0.177789,0.109952 -0.291899,0.3668741 -0.291899,0.3668741 0,0 -0.523759,1.0412707 -1.221797,2.2668948 C 15.088553,11.339825 14.599112,12.474694 14.358312,12.313905 13.798134,11.93967 14,10.810821 14,10.008576 14,7.5026341 14.305783,6.4578597 13.222155,6.1873839 12.862626,6.0976923 12.597757,6.0383469 11.678159,6.0286558 10.497763,6.0162304 9.6987488,6.0323484 9.1330502,6.3188831 8.7567112,6.5094036 8.466352,6.9338709 8.6432915,6.9582939 c 0.2186994,0.0301 0.7137181,0.138152 0.9761875,0.5073461 0.3390791,0.4769056 0.3805208,1.5475003 0.3805208,1.5475003 0,0 0.1415482,2.9497797 -0.5081905,3.3161687 C 9.0459805,12.580622 8.1348713,11.069551 6.8215748,8.7236321 6.1488366,7.5220618 5.640678,6.5931401 5.640678,6.5931401 c 0,0 -0.097849,-0.2481889 -0.2726192,-0.3810515 C 5.1568593,6.051101 4.86066,6 4.86066,6 L 1.7170683,6.021218 c 0,0 -0.4717787,0.013623 -0.6451683,0.2257625 C 0.91766047,6.4358244 1.05957,6.825918 1.05957,6.825918 c 0,0 2.4608935,6.55069 5.2475861,9.550375 2.5554933,2.750467 5.5564429,2.569918 5.5564429,2.569918"/>
</svg>
