<svg xmlns="http://www.w3.org/2000/svg" width="24" height="24" version="1.1">
 <defs>
  <style id="current-color-scheme" type="text/css">
   .ColorScheme-Text { color:#FCE8C3; } .ColorScheme-Highlight { color:#4285f4; } .ColorScheme-NeutralText { color:#ff9800; } .ColorScheme-PositiveText { color:#4caf50; } .ColorScheme-NegativeText { color:#f44336; }
  </style>
 </defs>
 <path style="fill:currentColor" class="ColorScheme-Text" d="m 5.3335057,16.292432 2.460346,-1.884786 c 1.3071571,1.706019 2.6959443,2.492379 4.2417983,2.492379 1.537588,0 2.887111,-0.777059 4.135367,-2.469646 l 2.495477,1.839318 C 16.865409,18.710411 14.627229,20 12.03565,20 9.4523378,20 7.1924577,18.71868 5.3335057,16.292432 Z M 12.027385,8.1002328 7.6481517,11.873935 5.6238707,9.526221 12.036684,4 l 6.362179,5.530354 -2.033582,2.339447 z"/>
</svg>
