<svg xmlns="http://www.w3.org/2000/svg" width="24" height="24" version="1.1">
 <defs>
  <style id="current-color-scheme" type="text/css">
   .ColorScheme-Text { color:#FCE8C3; } .ColorScheme-Highlight { color:#4285f4; } .ColorScheme-NeutralText { color:#ff9800; } .ColorScheme-PositiveText { color:#4caf50; } .ColorScheme-NegativeText { color:#f44336; }
  </style>
 </defs>
 <path style="fill:currentColor" class="ColorScheme-Text" d="m 12,4 c -4.432,0 -8,3.5679999 -8,8 0,4.432 3.568,8 8,8 4.432,0 8,-3.568 8,-8 0,-4.4320001 -3.568,-8 -8,-8 z m 0,1 c 1.867597,0.00196 3.657549,0.7501383 4.970703,2.078125 L 16.380859,7.6523438 C 15.222235,6.4836346 13.645688,5.8255188 12,5.8242188 8.58883,5.8242186 5.8242187,8.5888295 5.8242188,12 c 0,3.41117 2.7646112,6.175781 6.1757812,6.175781 1.645525,-0.0017 3.222564,-0.659319 4.380859,-1.828125 l 0.591797,0.576172 C 15.658844,18.251621 13.867922,18.9989 12,19 8.134007,19 5,15.865993 5,12 5,8.1340065 8.134007,5 12,5 Z m 0,2 c 1.328125,0.00127 2.600028,0.5314876 3.537109,1.4726562 L 14.943359,9.052734 C 14.162986,8.2726252 13.103427,7.8350266 12,7.8339844 9.69892,7.8339844 7.8339844,9.698921 7.8339844,12 c 0,2.30108 1.8649356,4.166016 4.1660156,4.166016 1.103427,-10e-4 2.162986,-0.43864 2.943359,-1.21875 l 0.59375,0.580078 C 14.599895,16.468214 13.328007,16.998988 12,17 9.2387049,17 7,14.761296 7,12 7,9.238705 9.2387049,7 12,7 Z m 0,2 c 0.788226,3.15e-4 1.544431,0.311578 2.105469,0.865234 l -0.615235,0.597657 C 13.091107,10.074628 12.556822,9.858322 12,9.857422 c -1.183279,0 -2.1425781,0.959299 -2.1425781,2.142578 0,1.183279 0.9592991,2.142578 2.1425781,2.142578 0.557166,4e-6 1.092377,-0.217414 1.492188,-0.605469 l 0.613281,0.597657 C 13.544907,14.688832 12.788174,14.999015 12,15 c -1.656591,10e-7 -3,-1.34341 -3,-3 0,-1.65659 1.343409,-3 3,-3 z"/>
</svg>
