<svg xmlns="http://www.w3.org/2000/svg" width="24" height="24" version="1.1">
 <defs>
  <style id="current-color-scheme" type="text/css">
   .ColorScheme-Text { color:#FCE8C3; } .ColorScheme-Highlight { color:#4285f4; } .ColorScheme-NeutralText { color:#ff9800; } .ColorScheme-PositiveText { color:#4caf50; } .ColorScheme-NegativeText { color:#f44336; }
  </style>
 </defs>
 <path style="fill:currentColor" class="ColorScheme-Text" d="m 10.720052,4 c -0.530187,0 -0.959635,0.429442 -0.959635,0.959635 0,0.530193 0.429448,0.960938 0.959635,0.960938 2.474266,0 4.480469,2.004933 4.480469,4.479166 0,0.5302 0.429435,0.959636 0.959635,0.959636 0.5302,0 0.959636,-0.429436 0.959636,-0.959636 C 17.119792,6.865119 14.254652,4 10.720052,4 Z M 10.39974,6.880208 C 6.865119,6.880214 3.999999,9.745314 4,13.279948 c 0,0.5302 0.429442,0.959635 0.959635,0.959635 0.530194,0 0.960938,-0.429435 0.960938,-0.959635 0,-2.474266 2.004933,-4.480469 4.479167,-4.480469 0.5302,0 0.959635,-0.429442 0.959635,-0.959636 0,-0.530193 -0.429435,-0.959635 -0.959635,-0.959635 z m 8.640625,2.880208 c -0.5302,0 -0.960938,0.42945 -0.960938,0.959636 0,2.474267 -2.004899,4.480469 -4.479166,4.480469 -0.5302,0 -0.959636,0.429435 -0.959636,0.959635 0,0.5302 0.429436,0.959636 0.959636,0.959636 3.5346,0 6.399739,-2.86514 6.399739,-6.39974 0,-0.530186 -0.429435,-0.959636 -0.959635,-0.959636 z m -11.200522,2.88021 c -0.530193,0 -0.959635,0.429434 -0.959635,0.959634 0,3.534601 2.865106,6.39974 6.39974,6.39974 0.5302,0 0.959636,-0.429435 0.959636,-0.959635 0,-0.5302 -0.429436,-0.960938 -0.959636,-0.960938 -2.474267,0 -4.480469,-2.0049 -4.480469,-4.479167 0,-0.5302 -0.429442,-0.959634 -0.959636,-0.959634 z"/>
</svg>
