<svg xmlns="http://www.w3.org/2000/svg" width="24" height="24" version="1.1">
 <defs>
  <style id="current-color-scheme" type="text/css">
   .ColorScheme-Text { color:#FCE8C3; } .ColorScheme-Highlight { color:#4285f4; } .ColorScheme-NeutralText { color:#ff9800; } .ColorScheme-PositiveText { color:#4caf50; } .ColorScheme-NegativeText { color:#f44336; }
  </style>
 </defs>
 <path style="fill:currentColor" class="ColorScheme-Text" d="M 12,4 C 9.244762,4 7,6.3005656 7,9.134766 c 0,1.44528 0.5191375,2.284935 1.0234375,2.859375 0.2521504,0.28724 0.4986815,0.513156 0.6699219,0.716797 C 8.864599,12.914657 9,14.078871 9,14.275391 c 0,1.724328 1,2.724328 3,2.722656 2,0.0017 3,-0.998328 3,-2.722656 0,-0.22148 0.249776,-1.375774 0.408203,-1.564453 0.158424,-0.188641 0.388569,-0.393063 0.626953,-0.664063 C 16.511925,11.504795 17,10.679566 17,9.134766 17,6.3005656 14.755238,4 12,4 Z m 0,2 c 1.641933,0 3,1.3566012 3,3.134766 0,1.123537 -0.207767,1.297283 -0.466797,1.591797 -0.146187,0.166189 -0.34198,0.323055 -0.65625,0.697265 v 0.002 c -0.519113,0.618242 -0.425694,0.732294 -0.498047,0.951172 -0.07235,0.218878 -0.127549,0.425407 -0.177734,0.632813 -0.05018,0.207406 -0.09283,0.408139 -0.126953,0.595703 C 13.040099,13.792986 13,13.844101 13,14.275391 c 0,0.47554 -0.08235,0.516134 -0.113281,0.544921 -0.03093,0.02879 -0.218378,0.178292 -0.884766,0.177735 H 12 11.998 C 11.331706,14.998604 11.144214,14.849101 11.113281,14.820312 11.082348,14.791526 11,14.750931 11,14.275391 c 0,-0.557589 -0.04703,-0.678534 -0.115234,-1.09961 -0.0341,-0.210538 -0.07398,-0.427608 -0.136719,-0.667969 -0.01465,-0.05611 -0.02794,-0.121726 -0.03516,-0.177734 l 0.466797,1.533203 c 0.03485,0.109161 0.139586,0.180892 0.24414,0.144531 0.104552,-0.0364 0.173522,-0.144786 0.138672,-0.253906 L 10.384762,9.880859 c 0.256918,0.153734 0.609424,0.330733 1.037109,0.431641 0.656459,0.154852 1.459818,0.104549 2.15625,-0.345703 l -1.138672,3.744141 c -0.03485,0.109158 0.03412,0.217506 0.138672,0.253906 0.104553,0.0364 0.209291,-0.03541 0.244141,-0.144532 l 1.289062,-4.240234 c 0.01256,-0.03934 -3.79e-4,-0.0754 -0.01172,-0.111328 0.0029,-0.02296 0.0087,-0.04495 0.0039,-0.06836 -0.01566,-0.07636 -0.07205,-0.13701 -0.144532,-0.15625 -0.07248,-0.0192 -0.148605,0.005 -0.197265,0.06445 -0.65209,0.66412 -1.518646,0.785248 -2.25586,0.611328 -0.737205,-0.17392 -1.306632,-0.642578 -1.306632,-0.642578 -0.03993,-0.0276 -0.08719,-0.04 -0.134766,-0.0332 -0.082211,0.0148 -0.1480173,0.08213 -0.1621092,0.167968 -0.00302,0.01841 0.00612,0.03476 0.00781,0.05273 -0.028278,0.04639 -0.03756,0.103683 -0.019529,0.160157 L 10.61523,12.003901 C 10.549048,11.859812 10.445675,11.686825 10.224609,11.423828 9.9137575,11.054161 9.6961093,10.86608 9.5273438,10.673828 9.2115667,10.314132 9,10.101119 9,9.134766 9,7.3566012 10.358067,6 12,6 Z m 1.695312,11.734375 C 13.181562,17.911185 12.61175,17.998558 12,17.998047 c -0.598749,5e-4 -1.158724,-0.08088 -1.664062,-0.25 -0.209234,0.204633 -0.3479965,0.415934 -0.333985,0.611328 0.01495,0.208529 0.185539,0.356306 0.44336,0.449219 1.661615,0.183658 2.696162,-0.584113 3.249999,-1.074219 z M 13.75,17.878906 c -0.04997,0.07265 -0.10974,0.145734 -0.201172,0.214844 -0.909077,0.687625 -2.028855,0.888222 -3.097656,0.71875 0.133448,0.04723 0.282581,0.08282 0.460937,0.0957 0.02366,0.0061 0.06258,0.0081 0.08789,0.01367 v 0.17188 C 11,19.573745 11.470589,20 12,20 c 0.529412,0 1,-0.426255 1,-0.90625 v -0.181641 c 0.584664,-0.10116 0.95629,-0.287082 0.996094,-0.550781 0.02604,-0.172565 -0.06963,-0.337611 -0.246094,-0.482422 z"/>
</svg>
