<svg xmlns="http://www.w3.org/2000/svg" width="24" height="24" version="1.1">
 <defs>
  <style id="current-color-scheme" type="text/css">
   .ColorScheme-Text { color:#FCE8C3; } .ColorScheme-Highlight { color:#4285f4; } .ColorScheme-NeutralText { color:#ff9800; } .ColorScheme-PositiveText { color:#4caf50; } .ColorScheme-NegativeText { color:#f44336; }
  </style>
 </defs>
 <path style="fill:currentColor" class="ColorScheme-NegativeText" d="m 14.320312,5 c -0.09429,-0.00112 -0.188675,0.00111 -0.285156,0.00586 -0.868859,0.043215 -1.603596,0.3937137 -2.326172,0.8945306 -0.307321,0.2129658 -0.770274,0.7473183 -0.974609,1.015625 -0.102664,0.135058 -0.101986,0.135457 -0.259766,0.09375 -0.08907,-0.023149 -0.418043,-0.039927 -0.755859,-0.039063 -0.5294889,0.00119 -0.6382801,0.0123 -0.9394531,0.095703 -1.701208,0.4705716 -2.8810094,1.8526981 -2.9746094,3.6347654 l -0.021484,0.40625 -0.1367187,0.04102 C 5.1623696,11.29875 4.5600286,11.590583 4.1347656,12.03125 3.6275626,12.556791 3.2847199,13.181108 3.0917969,13.927734 3.0101469,14.243575 3,14.346331 3,14.917969 c 0,0.571652 0.010187,0.6763 0.091797,0.992187 0.41968,1.62416 1.690229,2.817034 3.25,3.052735 0.088323,0.01339 1.7022338,0.02319 3.658203,0.0293 v -2 c -0.6829558,-0.002 -1.4675206,-0.0024 -1.9882811,-0.0059 -0.481883,-0.0032 -0.8790004,-0.0079 -1.15625,-0.01172 -0.1069685,-0.0015 -0.1774075,-0.0025 -0.2441407,-0.0039 -0.7180798,-0.12213 -1.3530979,-0.66897 -1.5839843,-1.5625 C 4.9627825,15.15828 5,15.467369 5,14.917969 5,14.36849 4.9628075,14.677375 5.0273438,14.427734 5.1441121,13.975832 5.3007499,13.703207 5.5722656,13.421875 v -0.002 c 0.1802908,-0.186821 0.6753853,-0.463241 0.6679688,-0.460938 l 0.1308594,-0.04101 C 7.1729896,12.670848 7.735333,12.04892 7.7792969,11.210938 l 0.021484,-0.40625 C 7.8512248,9.844285 8.4218815,9.240495 9.3125,8.9941406 v -0.00195 c 0.2265247,-0.062731 -0.091921,-0.020354 0.4101562,-0.021484 0.12001,-3.07e-4 0.2385407,0.00371 0.3281248,0.00781 0.162165,0.066528 0.539454,0.1882124 1.25,-0.066406 0.868611,-0.3112596 0.973813,-0.813089 1.025391,-0.8828125 -0.04573,0.060042 0.490498,-0.562512 0.521484,-0.5839844 h 0.002 c 0.457943,-0.3173997 0.743525,-0.4143396 1.283203,-0.4414063 0.456785,-0.022487 0.746366,0.03852 1.160157,0.2480469 0.598225,0.3030333 0.8879,0.5969482 1.191406,1.2402344 0.206707,0.4381173 0.278776,0.7948103 0.257813,1.2871093 l -0.01758,0.410156 c -0.02905,0.690388 0.300302,1.346873 0.871094,1.736328 l 0.261719,0.179688 c -0.01008,0.002 0.281858,0.240142 0.376953,0.33789 0.690256,0.709536 0.934322,1.602632 0.667969,2.644532 -0.05384,0.210593 -0.478117,0.975517 -0.658203,1.162109 -0.14928,0.154685 -0.955701,0.626829 -1.03125,0.648438 -0.341761,0.09777 -0.04731,0.06421 -0.722657,0.08398 -0.430179,0.0126 -1.318347,0.01511 -2.490234,0.01563 v 2 c 3.017176,-0.0019 3.233337,-0.02654 3.761719,-0.177735 0.609734,-0.174378 1.4444,-0.686878 1.921875,-1.18164 0.499741,-0.517795 0.982485,-1.375024 1.15625,-2.054688 0.425983,-1.666324 -0.006,-3.336762 -1.171875,-4.535156 -0.206045,-0.211758 -0.503146,-0.472929 -0.660203,-0.58008 l -0.285156,-0.193359 0.01758,-0.41211 C 18.773863,9.073677 18.628182,8.3491605 18.292969,7.6386719 17.826779,6.6505727 17.150843,5.9498349 16.197266,5.4667969 15.59078,5.1596981 14.980383,5.0078072 14.320312,5 Z M 11,11 v 4 l 0.25,2 h 1.5 L 13,15 v -4 z m 0,7 v 2 h 2 v -2 z"/>
</svg>
