<svg xmlns="http://www.w3.org/2000/svg" width="24" height="24" version="1.1">
 <defs>
  <style id="current-color-scheme" type="text/css">
   .ColorScheme-Text { color:#FCE8C3; } .ColorScheme-Highlight { color:#4285f4; } .ColorScheme-NeutralText { color:#ff9800; } .ColorScheme-PositiveText { color:#4caf50; } .ColorScheme-NegativeText { color:#f44336; }
  </style>
 </defs>
 <path style="opacity:0.3;fill:currentColor" class="ColorScheme-Text" d="m 7.024577,5.0001494 v 0.00195 c -2.4887083,0 -4.3594234,2.0010688 -4.4902344,4.480469 L 2.0362958,17.943508 c -0.3150265,1.85 1.482515,3.017141 2.9941406,0.994141 0.9425788,-1.279 2.96875,-3.9375 2.96875,-3.9375 l 7.9999996,0.04102 2.988281,4.021484 c 1.499025,2.012 3.18661,0.357874 2.996094,-1.003906 L 21.487467,9.5841334 c 7.84e-4,-0.03462 0.0098,-0.06674 0.0098,-0.101562 -6.4e-5,-2.4824001 -2.00196,-4.482422 -4.490269,-4.482422 H 11.98942 c 0.81671,0 1.613014,0.2394575 2.181641,0.7910156 0.556249,0.5395508 0.828125,1.3207013 0.828125,2.1054688 0,0.4246923 -0.06617,0.8389264 -0.232422,1.2246096 -0.143127,0.33922 -0.349002,0.650835 -0.601562,0.9218746 -0.199508,0.214105 -0.428049,0.433498 -0.685547,0.664062 -0.0019,0.0017 -0.002,0.0022 -0.0039,0.0039 l -0.002,0.002 c -0.186652,0.170532 -0.317303,0.308705 -0.388671,0.396485 -0.04242,0.05911 -0.05739,0.09696 -0.05859,0.101563 a 1.0001,1.0001 0 0 1 -0.0039,0.01172 c -0.0066,0.02379 -0.02341,0.116368 -0.02341,0.261676 v 0.185547 a 1.0001,1.0001 0 0 1 -0.130859,0.492187 c 0.273024,0.349943 0.433593,0.749782 0.433593,1.101563 0,0.415465 -0.09994,0.912928 -0.492187,1.287109 -0.28852,0.275229 -0.725753,0.449219 -1.123045,0.449219 -0.393802,0 -0.842625,-0.161219 -1.144531,-0.449219 a 1.0001,1.0001 0 0 1 -0.02148,-0.02148 c -0.378302,-0.382105 -0.460938,-0.858792 -0.460938,-1.265629 0,-0.333818 0.154381,-0.707993 0.394532,-1.050781 a 1.0001,1.0001 0 0 1 -0.16211,-0.542969 v -0.292969 c 0,-0.331835 0.02732,-0.640237 0.09961,-0.939453 a 1.0001,1.0001 0 0 1 0.0039,-0.02344 c 0.0828,-0.311022 0.219182,-0.6058616 0.398434,-0.8730436 a 1.0001,1.0001 0 0 1 0.01563,-0.02148 c 0.182845,-0.258194 0.40383,-0.494468 0.660156,-0.7265672 0.246174,-0.2236031 0.427365,-0.4049314 0.529297,-0.5195313 a 1.0001,1.0001 0 0 1 0.01563,-0.017578 c 0.08633,-0.092644 0.116089,-0.1514669 0.117187,-0.1542969 -2.19e-4,5.535e-4 0.01953,-0.059974 0.01953,-0.1835937 0,-0.049302 0.0014,-0.050196 0.002,-0.060547 0.01706,0.013378 -5.66e-4,-0.023437 -0.224609,-0.023437 -0.235062,0 -0.409806,0.034057 -0.535157,0.080078 a 1.0001,1.0001 0 0 1 -0.02344,0.00781 c -0.208379,0.070604 -0.40608,0.155042 -0.59575,0.2539083 A 1.0001,1.0001 0 0 1 9.3878583,7.6720244 l -0.3125,-0.7597656 A 1.0001,1.0001 0 0 1 9.508952,5.6603056 C 9.8445509,5.4712243 10.20534,5.3175164 10.58903,5.197415 a 1.0001,1.0001 0 0 1 0.0059,-0.00195 c 0.439296,-0.1347127 0.906981,-0.1953156 1.39449,-0.1953156 z"/>
 <path style="fill:currentColor" class="ColorScheme-Text" d="m 11.292115,11.669526 v -0.292683 q 0,-0.411924 0.07071,-0.704607 0.08081,-0.303523 0.262625,-0.574526 0.191919,-0.2710016 0.515152,-0.5636846 0.393939,-0.357724 0.60606,-0.5962064 0.222223,-0.2384824 0.313132,-0.4661247 0.09091,-0.2276422 0.09091,-0.5528455 0,-0.5203252 -0.313132,-0.8021681 -0.313131,-0.2818428 -0.90909,-0.2818428 -0.49495,0 -0.878788,0.1409214 -0.383841,0.1300813 -0.737376,0.3143632 L 9.9991864,6.5313149 Q 10.403227,6.3036726 10.888075,6.151911 q 0.494949,-0.1517615 1.10101,-0.1517615 0.959596,0 1.484848,0.5094851 0.525253,0.5094852 0.525253,1.387534 0,0.4878049 -0.151516,0.8346884 -0.141413,0.3360434 -0.414141,0.6287264 -0.262626,0.281843 -0.626263,0.607046 -0.333333,0.3035226 -0.515151,0.5311646 -0.171717,0.227643 -0.232323,0.455285 -0.06061,0.216802 -0.06061,0.531165 v 0.184282 z m -0.232323,1.593496 q 0,-0.401084 0.171717,-0.563686 0.181818,-0.162601 0.454545,-0.162601 0.252526,0 0.434344,0.162601 0.181818,0.162602 0.181818,0.563686 0,0.390244 -0.181818,0.563686 -0.181818,0.173441 -0.434344,0.173441 -0.272727,0 -0.454545,-0.173441 -0.171717,-0.173442 -0.171717,-0.563686 z"/>
</svg>
