<svg xmlns="http://www.w3.org/2000/svg" width="24" height="24" version="1.1">
 <defs>
  <style id="current-color-scheme" type="text/css">
   .ColorScheme-Text { color:#FCE8C3; } .ColorScheme-Highlight { color:#4285f4; } .ColorScheme-NeutralText { color:#ff9800; } .ColorScheme-PositiveText { color:#4caf50; } .ColorScheme-NegativeText { color:#f44336; }
  </style>
 </defs>
 <path style="fill:currentColor" class="ColorScheme-Text" d="m 10.748932,8.9994405 a 0.73085587,0.79027464 0 0 0 -0.748047,0.792969 v 4.4160155 a 0.73085587,0.79027464 0 0 0 1.095703,0.685547 l 3.539063,-2.208984 a 0.73085587,0.79027464 0 0 0 0,-1.369141 L 11.096588,9.1049095 a 0.73085587,0.79027464 0 0 0 -0.347656,-0.105469 z"/>
 <path style="opacity:0.3;fill:currentColor" class="ColorScheme-Text" d="m 12.000885,3.9994405 c -4.4064335,0 -8.0000001,3.5935666 -8.0000001,8.0000005 0,4.406433 3.5935666,8 8.0000001,8 4.406433,0 8,-3.593567 8,-8 0,-4.4064339 -3.593567,-8.0000005 -8,-8.0000005 z m 0,2 c 3.325553,0 6,2.6744469 6,6.0000005 0,3.325553 -2.674447,6 -6,6 -3.3255532,0 -6.0000001,-2.674447 -6.0000001,-6 0,-3.3255536 2.6744469,-6.0000005 6.0000001,-6.0000005 z"/>
 <path style="fill:currentColor" class="ColorScheme-Text" d="m 12.000885,3.9994405 v 2 a 6,6 0 0 1 6,6.0000005 6,6 0 0 1 -6,6 6,6 0 0 1 -6.0000001,-6 6,6 0 0 1 1.546875,-4.0097661 L 6.0555724,6.6459249 A 8,8 0 0 0 5.5282287,16.702566 8,8 0 0 0 15.254791,19.308035 8,8 0 0 0 19.825104,10.335379 8,8 0 0 0 12.000885,3.9994405 Z"/>
</svg>
