<svg xmlns="http://www.w3.org/2000/svg" width="24" height="24" version="1.1">
 <defs>
  <style id="current-color-scheme" type="text/css">
   .ColorScheme-Text { color:#FCE8C3; } .ColorScheme-Highlight { color:#4285f4; } .ColorScheme-NeutralText { color:#ff9800; } .ColorScheme-PositiveText { color:#4caf50; } .ColorScheme-NegativeText { color:#f44336; }
  </style>
 </defs>
 <circle style="fill:currentColor" class="ColorScheme-NegativeText" cx="21" cy="19" r="2"/>
 <path style="fill:currentColor" class="ColorScheme-Text" d="m 12,4 c -4.4183,0 -8,3.5817 -8,8 0,4.418 3.5817,8 8,8 4.418,0 8,-3.582 8,-8 0,-4.4183 -3.582,-8 -8,-8 z m 0,2 c 1.495771,0 2.989091,0.560161 4.148438,1.671875 -0.370703,0.143824 -0.713602,0.377967 -0.976563,0.75 L 14.710938,9.076172 C 13.142097,7.621879 10.697474,7.646276 9.171875,9.171872 8.3909653,9.952782 8.0040093,10.976415 8.0039062,11.999997 h 0.296875 A 0.69923716,0.5746971 1.1588047e-6 0 1 8.90625,12.861325 l -0.6503906,0.925781 -0.6523438,0.925782 a 0.69923716,0.5746971 1.1588047e-6 0 1 -1.2089844,0 L 5.7441406,13.787109 5.09375,12.861328 a 0.69923716,0.5746971 1.1588047e-6 0 1 0.3984375,-0.835937 0.69923716,0.5746971 1.1588047e-6 0 1 0.2050781,-0.02539 H 6.0019531 C 6.0020237,10.464516 6.5863637,8.929263 7.7578125,7.757814 8.9293912,6.586235 10.464469,6.000001 12,6 Z m 4.962891,3.001953 a 0.69923716,0.5746971 1.1588047e-6 0 1 0.642578,0.285156 l 0.65039,0.925782 0.650391,0.925781 a 0.69923716,0.5746971 1.1588047e-6 0 1 -0.398438,0.835937 0.69923716,0.5746971 1.1588047e-6 0 1 -0.205078,0.02539 h -0.304687 c -7.1e-5,1.535485 -0.584412,3.070735 -1.755859,4.242188 -1.171579,1.171576 -2.706657,1.757812 -4.242188,1.757812 -1.494909,0 -2.9874229,-0.559491 -4.1464844,-1.669922 0.363732,-0.140945 0.7082551,-0.373476 0.9746094,-0.75 v -0.002 L 9.2890625,14.92378 c 1.5688395,1.454293 4.0134635,1.429896 5.5390625,-0.0957 0.78091,-0.780866 1.167866,-1.804498 1.167969,-2.828081 H 15.699219 A 0.69923716,0.5746971 1.1588047e-6 0 1 15.09375,11.138672 l 0.650391,-0.925781 0.652343,-0.925782 a 0.69923716,0.5746971 1.1588047e-6 0 1 0.566407,-0.285156 z"/>
</svg>
