<svg xmlns="http://www.w3.org/2000/svg" width="22" height="22" version="1.1">
 <defs>
  <style id="current-color-scheme" type="text/css">
   .ColorScheme-Text { color:#FCE8C3; } .ColorScheme-Highlight { color:#4285f4; } .ColorScheme-NeutralText { color:#ff9800; } .ColorScheme-PositiveText { color:#4caf50; } .ColorScheme-NegativeText { color:#f44336; }
  </style>
 </defs>
 <path style="fill:currentColor" class="ColorScheme-Text" d="m 5,5.0000001 c -1.108,0 -2,0.892 -2,2 L 3,15 c 0,1.108 0.892,2 2,2 l 12,0 c 1.108,0 2,-0.892 2,-2 l 0,-7.9999998 c 0,-1.108 -0.892,-2 -2,-2 l -12,0 z m 0,2 6,2.9999997 6,-2.9999997 0,2 L 11,12 5,9.0000001 l 0,-2 z"/>
</svg>
