<svg xmlns="http://www.w3.org/2000/svg" width="22" height="22" version="1.1">
 <defs>
  <style id="current-color-scheme" type="text/css">
   .ColorScheme-Text { color:#FCE8C3; } .ColorScheme-Highlight { color:#4285f4; } .ColorScheme-NeutralText { color:#ff9800; } .ColorScheme-PositiveText { color:#4caf50; } .ColorScheme-NegativeText { color:#f44336; }
  </style>
 </defs>
 <path style="fill:currentColor" class="ColorScheme-Text" d="M 11 3 C 6.568 3 3 6.5679999 3 11 C 3 15.432 6.568 19 11 19 C 15.432 19 19 15.432 19 11 C 19 6.5679999 15.432 3 11 3 z M 11 4 C 12.867597 4.00196 14.657549 4.7501383 15.970703 6.078125 L 15.380859 6.6523438 C 14.222235 5.4836346 12.645688 4.8255188 11 4.8242188 C 7.58883 4.8242186 4.8242187 7.5888295 4.8242188 11 C 4.8242188 14.41117 7.58883 17.175781 11 17.175781 C 12.645525 17.174081 14.222564 16.516462 15.380859 15.347656 L 15.972656 15.923828 C 14.658844 17.251621 12.867922 17.9989 11 18 C 7.134007 18 4 14.865993 4 11 C 4 7.1340065 7.134007 4 11 4 z M 11 6 C 12.328125 6.00127 13.600028 6.5314876 14.537109 7.4726562 L 13.943359 8.0527344 C 13.162986 7.2726252 12.103427 6.8350266 11 6.8339844 C 8.69892 6.8339844 6.8339844 8.6989207 6.8339844 11 C 6.8339844 13.30108 8.69892 15.166016 11 15.166016 C 12.103427 15.165016 13.162986 14.727376 13.943359 13.947266 L 14.537109 14.527344 C 13.599895 15.468214 12.328007 15.998988 11 16 C 8.2387049 16 6 13.761296 6 11 C 6 8.2387047 8.2387049 6 11 6 z M 11 8 C 11.788226 8.0003145 12.544431 8.3115777 13.105469 8.8652344 L 12.490234 9.4628906 C 12.091107 9.0746278 11.556822 8.8583218 11 8.8574219 C 9.8167208 8.857422 8.8574219 9.8167214 8.8574219 11 C 8.8574219 12.183279 9.8167208 13.142578 11 13.142578 C 11.557166 13.142582 12.092377 12.925164 12.492188 12.537109 L 13.105469 13.134766 C 12.544907 13.688832 11.788174 13.999015 11 14 C 9.343409 14.000001 8 12.65659 8 11 C 8 9.34341 9.343409 8 11 8 z"/>
</svg>
