<svg xmlns="http://www.w3.org/2000/svg" width="22" height="22" version="1">
 <defs>
  <style id="current-color-scheme" type="text/css">
   .ColorScheme-Text { color:#FCE8C3; } .ColorScheme-Highlight { color:#4285f4; } .ColorScheme-NeutralText { color:#ff9800; } .ColorScheme-PositiveText { color:#4caf50; } .ColorScheme-NegativeText { color:#f44336; }
  </style>
 </defs>
 <path style="fill:currentColor" class="ColorScheme-Text" d="M 13,3 9,7 H 6 V 17 H 9 V 20 L 13,16 H 16 V 6 H 13 Z M 7,8 H 9 L 13,12 V 9 H 15 V 15 H 13 L 9,11 V 14 H 7 Z"/>
</svg>
