<svg xmlns="http://www.w3.org/2000/svg" width="22" height="22" version="1.1">
 <defs>
  <style id="current-color-scheme" type="text/css">
   .ColorScheme-Text { color:#FCE8C3; } .ColorScheme-Highlight { color:#4285f4; } .ColorScheme-NeutralText { color:#ff9800; } .ColorScheme-PositiveText { color:#4caf50; } .ColorScheme-NegativeText { color:#f44336; }
  </style>
 </defs>
 <path style="fill:currentColor" class="ColorScheme-Text" d="M 10.974609 3 L 10.210938 3.0390625 L 10.160156 3.0449219 L 9.4179688 3.1582031 L 9.3691406 3.1699219 L 8.6503906 3.3554688 L 8.6035156 3.3691406 L 8.28125 3.4882812 L 8.6269531 4.4257812 L 8.9335938 4.3144531 L 9.5976562 4.1425781 L 10.28125 4.0390625 L 11 4.0019531 L 11.71875 4.0390625 L 12.402344 4.1425781 L 13.064453 4.3144531 L 13.246094 4.3808594 L 13.591797 3.4414062 L 13.396484 3.3691406 L 13.349609 3.3554688 L 12.630859 3.1699219 L 12.582031 3.1582031 L 11.839844 3.0449219 L 11.789062 3.0390625 L 11.025391 3 L 11 3.5 L 10.974609 3 z M 14.558594 3.8496094 L 14.123047 4.75 L 14.328125 4.8496094 L 14.912109 5.2050781 L 15.457031 5.6152344 L 15.462891 5.6191406 L 15.943359 6.0566406 L 16.318359 6.46875 L 17.056641 5.796875 L 16.666016 5.3671875 L 16.632812 5.3339844 L 16.099609 4.8476562 L 16.0625 4.8183594 L 15.484375 4.3847656 L 15.445312 4.359375 L 14.828125 3.9824219 L 14.785156 3.9589844 L 14.558594 3.8496094 z M 7.3222656 3.9082031 L 7.2148438 3.9589844 L 7.171875 3.9824219 L 6.5546875 4.359375 L 6.515625 4.3847656 L 5.9375 4.8183594 L 5.9003906 4.8476562 L 5.3671875 5.3339844 L 5.3339844 5.3671875 L 4.8515625 5.8964844 L 5.5917969 6.5683594 L 6.0566406 6.0566406 L 6.5371094 5.6191406 L 6.5429688 5.6152344 L 7.0878906 5.2050781 L 7.6738281 4.8476562 L 7.7578125 4.8066406 L 7.3222656 3.9082031 z M 11 5 A 6 6 0 0 0 5 11 A 6 6 0 0 0 5.8066406 13.990234 L 5.7753906 14.105469 A 3 3 0 0 1 7.8964844 16.222656 L 8.0058594 16.193359 A 6 6 0 0 0 11 17 A 6 6 0 0 0 17 11 A 6 6 0 0 0 11 5 z M 17.712891 6.671875 L 16.859375 7.1933594 L 17.150391 7.671875 L 17.453125 8.296875 L 17.457031 8.3066406 L 17.685547 8.9355469 L 17.857422 9.5957031 L 17.884766 9.7792969 L 18.873047 9.6269531 L 18.841797 9.4179688 L 18.830078 9.3691406 L 18.644531 8.6503906 L 18.630859 8.6035156 L 18.376953 7.9160156 L 18.357422 7.8710938 L 18.041016 7.2148438 L 18.017578 7.171875 L 17.712891 6.671875 z M 4.2167969 6.7871094 L 3.9824219 7.171875 L 3.9589844 7.2148438 L 3.6425781 7.8710938 L 3.6230469 7.9160156 L 3.3691406 8.6035156 L 3.3554688 8.6503906 L 3.1699219 9.3691406 L 3.1582031 9.4179688 L 3.1054688 9.7597656 L 4.09375 9.9121094 L 4.1425781 9.5976562 L 4.3144531 8.9355469 L 4.5429688 8.3066406 L 4.546875 8.296875 L 4.8496094 7.671875 L 5.0703125 7.3066406 L 4.2167969 6.7871094 z M 18.984375 10.669922 L 17.984375 10.720703 L 17.998047 11 L 17.960938 11.71875 L 17.857422 12.402344 L 17.685547 13.064453 L 17.541016 13.462891 L 18.478516 13.808594 L 18.630859 13.396484 L 18.644531 13.349609 L 18.830078 12.630859 L 18.841797 12.582031 L 18.955078 11.839844 L 18.960938 11.789062 L 19 11.025391 L 19 10.974609 L 18.984375 10.669922 z M 3.0097656 10.804688 L 3 10.974609 L 3.0019531 11.033203 L 3.0546875 11.832031 L 3.0625 11.892578 L 3.2089844 12.669922 L 3.2226562 12.722656 L 3.4511719 13.480469 L 3.4667969 13.525391 L 3.6347656 13.935547 L 4.5605469 13.558594 L 4.3964844 13.15625 L 4.3945312 13.148438 L 4.1835938 12.447266 L 4.0507812 11.736328 L 4 11.007812 L 4.0078125 10.855469 L 3.0097656 10.804688 z M 17.164062 14.306641 L 17.150391 14.330078 L 16.794922 14.912109 L 16.384766 15.457031 L 16.380859 15.462891 L 15.943359 15.943359 L 15.462891 16.380859 L 15.457031 16.384766 L 15.392578 16.435547 L 15.992188 17.236328 L 16.0625 17.181641 L 16.099609 17.152344 L 16.632812 16.666016 L 16.666016 16.632812 L 17.152344 16.099609 L 17.181641 16.0625 L 17.615234 15.484375 L 17.640625 15.445312 L 18.017578 14.828125 L 18.041016 14.785156 L 18.050781 14.763672 L 17.402344 14.451172 L 17.164062 14.306641 z M 14.611328 16.978516 L 14.328125 17.150391 L 13.703125 17.453125 L 13.693359 17.457031 L 13.064453 17.685547 L 12.402344 17.857422 L 11.994141 17.919922 L 12.146484 18.908203 L 12.582031 18.841797 L 12.630859 18.830078 L 13.349609 18.644531 L 13.396484 18.630859 L 14.083984 18.376953 L 14.128906 18.357422 L 14.785156 18.041016 L 14.828125 18.017578 L 15.130859 17.832031 L 14.611328 16.978516 z M 8.3515625 17.404297 L 7.9746094 18.330078 L 8.4726562 18.533203 L 8.515625 18.548828 L 9.2773438 18.779297 L 9.328125 18.791016 L 10.109375 18.939453 L 10.167969 18.945312 L 10.964844 18.998047 L 11.023438 19 L 11.099609 18.996094 L 11.048828 17.996094 L 10.988281 18 L 10.279297 17.953125 L 9.546875 17.814453 L 8.8300781 17.599609 L 8.3515625 17.404297 z"/>
 <circle style="fill:currentColor" class="ColorScheme-Highlight" cx="5" cy="17" r="2"/>
</svg>
