<svg xmlns="http://www.w3.org/2000/svg" width="22" height="22" version="1.1">
 <defs>
  <style id="current-color-scheme" type="text/css">
   .ColorScheme-Text { color:#FCE8C3; } .ColorScheme-Highlight { color:#4285f4; } .ColorScheme-NeutralText { color:#ff9800; } .ColorScheme-PositiveText { color:#4caf50; } .ColorScheme-NegativeText { color:#f44336; }
  </style>
 </defs>
 <g transform="translate(0 -1030.4)">
  <path opacity=".3" style="fill:currentColor" class="ColorScheme-Text" d="m10.998 1034.4s-3.7785 0.0006-6.2969 0.1895c-0.35178 0.044-1.1182 0.048-1.8027 0.791-0.53956 0.5664-0.71484 1.8515-0.71484 1.8515s-0.17709 1.511-0.17969 3.0215l-0.0039 2.2871c-0.0026 1.5106 0.17969 3.0215 0.17969 3.0215s0.17528 1.2851 0.71484 1.8516c0.68457 0.7435 1.5839 0.7209 1.9844 0.7988 1.4397 0.1432 6.1191 0.1875 6.1191 0.1875s3.7805-0.01 6.2988-0.1953c0.35176-0.044 1.1204-0.048 1.8047-0.791 0.53961-0.5665 0.71484-1.8516 0.71484-1.8516s0.17709-1.5109 0.17969-3.0215l0.0039-2.2871c0.0026-1.5105-0.17969-3.0215-0.17969-3.0215s-0.17524-1.2851-0.71484-1.8515c-0.68432-0.7435-1.4529-0.7475-1.8047-0.791-2.5183-0.1889-6.2949-0.1895-6.2949-0.1895h-0.0078zm-2.998 3 6 4.0137-6 3.9863v-8z"/>
 </g>
</svg>
