<svg xmlns="http://www.w3.org/2000/svg" width="16" height="16" version="1">
 <path style="opacity:0.3;fill:#b2b9c6" d="M 7.1934,0 C 6.5636,0 5.2344,2.7051 5.2344,2.7051 5.2344,2.7051 2.5085,0.82812 2.0996,1.0605 1.7381,1.266 1.9004,4.2871 1.9004,4.2871 L 5.5469,7 0,9 C 0,12.866 3.134,16 7,16 8.4382,16 9.7727,15.562 10.885,14.818 12.841,15.459 15.398,16.215 15.611,15.941 15.667,15.87 15.612,15.706 15.516,15.465 15.677,15.214 16.113,14.473 15.973,14.23 15.856,14.031 15.167,14.023 14.752,14.029 14.682,13.914 14.624,13.808 14.551,13.689 14.761,13.3 15.122,12.586 14.975,12.334 14.821,12.072 13.888,12.027 13.469,12.014 13.431,11.958 13.388,11.889 13.352,11.836 13.678,11.596 14.98,10.632 15.037,10.303 15.105,9.9137 13.443,8.5078 13.443,8.5078 13.443,8.5078 15.146,5.6461 15,5.3008 14.817,4.8674 12.201,5 12.201,5 12.201,5 13.178,2.2923 12.775,2.0371 12.437,1.8228 8.9434,2.7012 8.9434,2.7012 8.9434,2.7012 7.8192,0 7.1934,0 Z"/>
 <path style="fill:#b2b9c6" d="M 0.084,10.01 C 0.102,10.093 0.129,10.163 0.152,10.24 0.484,11.322 1.348,11.758 1.348,11.758 1.557,11.927 1.818,12.099 2.119,12.27 H 2.094 C 2.094,12.27 2.726,16.028 3.883,16 4.758,15.978 5.442,13.965 6.555,14 7.666,14.035 8.117,15.988 9.223,16 9.861,16.007 10.417,14.891 10.768,14 H 11.098 C 12.149,14.979 14.541,15.629 15.576,15.967 15.59,15.959 15.609,16 15.609,16 15.841,15.703 14.394,13.353 13.383,11.844 13.771,10.973 14,10.015 14,9 14,5.134 10.866,2 7,2 3.3939,2 0.506,4.7549 0.068,8.0801 0.027,8.3086 0,8.5936 0,9 0.00438,9.3636 0.033,9.6905 0.084,10.01 Z M 3,6 H 4 V 7 H 3 Z"/>
</svg>
