<svg xmlns="http://www.w3.org/2000/svg" width="16" height="16" version="1.1">
 <path style="opacity:0.3;fill:#b2b9c6" d="M -12,10 H -4 V 12 H -12 Z" transform="scale(-1,1)"/>
 <path style="opacity:0.3;fill:#b2b9c6" d="M -12,4 H -4 V 6 H -12 Z" transform="scale(-1,1)"/>
 <path style="fill:#b2b9c6" d="M -14,7 H -2 V 9 H -14 Z" transform="scale(-1,1)"/>
 <path style="opacity:0.3;fill:#b2b9c6" d="M -10,13 H -6 V 14 H -10 Z" transform="scale(-1,1)"/>
 <path style="opacity:0.3;fill:#b2b9c6" d="M -10,2 H -6 V 3 H -10 Z" transform="scale(-1,1)"/>
</svg>
