/* XPM */
static char * title_3_active_xpm[] = {
"2 26 3 1",
" 	c None",
".	c #7AA2F7",
"+	c #1a1b26",
"..",
"++",
"++",
"++",
"++",
"++",
"++",
"++",
"++",
"++",
"++",
"++",
"++",
"++",
"++",
"++",
"++",
"++",
"++",
"++",
"++",
"++",
"++",
"++",
"++",
"++"};
