<svg xmlns="http://www.w3.org/2000/svg" width="16" height="16" version="1.1">
 <path style="fill:#d9d9d9" d="M 1,1 H 15 V 3 H 1 Z"/>
 <path style="fill:#d9d9d9" d="M 1,5 H 15 V 7 H 1 Z"/>
 <path style="fill:#d9d9d9" d="M 1,9 H 15 V 11 H 1 Z"/>
 <path style="fill:#d9d9d9" d="M 1,13 H 15 V 15 H 1 Z"/>
</svg>
