<svg xmlns="http://www.w3.org/2000/svg" width="16" height="16" version="1.1">
 <path style="fill:#d9d9d9" d="M 1.8613,0 C 1.0809,0 0,0.69182 0,1.5762 V 14.387 C 0,15.271 1.0809,16 1.8613,16 L 5.752,13.053 C 6.3603,12.597 7,12.324 7,11.439 V 4.5254 C 7,3.6409 6.188,3.303 5.752,2.9121 Z M 2,1.3535 5.8516,4.2598 C 5.8516,4.2598 6,4.328 6,4.5254 V 11.439 C 6,11.699 5.8984,11.699 5.8984,11.699 L 2,14.641 Z"/>
 <path style="opacity:0.3;fill:#d9d9d9" d="M 13.139,0 C 13.919,0 15,0.69182 15,1.5762 V 14.387 C 15,15.271 13.919,16 13.139,16 L 9.248,13.053 C 8.6397,12.597 8,12.324 8,11.439 V 4.5254 C 8,3.6409 8.812,3.303 9.248,2.9121 Z M 13,1.3535 9.1484,4.2598 C 9.1484,4.2598 9,4.328 9,4.5254 V 11.439 C 9,11.699 9.1016,11.699 9.1016,11.699 L 13,14.641 Z"/>
</svg>
