<svg xmlns="http://www.w3.org/2000/svg" width="16" height="16" version="1.1">
 <path style="fill:#d9d9d9" d="M 8,1 C 4.13,1 1,4.13 1,8 1,11.87 4.13,15 8,15 11.87,15 15,11.87 15,8 15,4.13 11.87,1 8,1 Z M 7.5,2.94 C 7.57,2.93 7.65,2.94 7.72,2.94 7.73,2.97 7.67,3.08 7.59,3.25 7.11,4.31 7.08,5.55 7.53,6.22 7.61,6.34 7.69,6.45 7.69,6.47 7.69,6.48 7.6,6.5 7.5,6.5 7.27,6.5 7.05,6.36 6.59,6 6.39,5.84 6.13,5.71 6.03,5.69 5.87,5.66 5.83,5.67 5.62,5.87 5.43,6.07 5.37,6.17 5.37,6.34 5.37,7.01 6.16,7.53 7.62,7.84 9.61,8.26 10.1,8.64 10.16,9.69 10.23,11 9.53,11.99 8,12.75 7.82,12.84 7.7,12.88 7.62,12.91 7.59,12.9 7.57,12.91 7.53,12.91 7.52,12.87 7.5,12.77 7.5,12.59 7.5,11.9 7.23,11.18 6.81,10.78 6.7,10.67 6.39,10.45 6.13,10.28 5.86,10.12 5.59,9.93 5.53,9.84 5.43,9.71 5.42,9.63 5.5,9.37 5.64,8.92 5.8,8.66 6.13,8.37 6.29,8.22 6.46,8.1 6.5,8.09 6.54,8.09 6.28,8.01 5.91,7.94 5.53,7.86 4.97,7.7 4.69,7.59 4.16,7.4 3.46,7.01 3.19,6.72 3.18,6.71 3.17,6.7 3.16,6.69 3.54,5.15 4.63,3.89 6.06,3.28 6.36,3.15 6.67,3.07 7,3 7.16,2.97 7.33,2.95 7.5,2.94 Z M 12.19,5.28 C 12.3,5.35 12.75,6.31 12.87,6.78 13.04,7.39 13.03,8.43 12.87,9.03 12.82,9.26 12.74,9.47 12.72,9.5 12.69,9.53 12.6,9.37 12.5,9.19 12.4,9 12.06,8.61 11.78,8.31 10.98,7.46 10.85,7.02 11.19,6.34 11.36,6 12.1,5.23 12.19,5.28 Z"/>
</svg>
