<svg xmlns="http://www.w3.org/2000/svg" width="16" height="16" version="1.1">
 <path style="fill:#c0c3cf" d="M 8,0 C 3.58,0 0,3.58 0,8 0,12.42 3.58,16 8,16 12.42,16 16,12.42 16,8 16,3.58 12.42,0 8,0 Z M 8,3.43 V 7 H 11.43 L 8,12.57 V 9 H 4.57 Z"/>
</svg>
