<svg xmlns="http://www.w3.org/2000/svg" width="16" height="16" version="1.1">
 <defs>
  <style id="current-color-scheme" type="text/css">
   .ColorScheme-Text { color:#b6bdca; } .ColorScheme-Highlight { color:#4285f4; } .ColorScheme-NeutralText { color:#ff9800; } .ColorScheme-PositiveText { color:#4caf50; } .ColorScheme-NegativeText { color:#f44336; }
  </style>
 </defs>
 <path style="opacity:0.3;fill:currentColor" class="ColorScheme-Text" d="M 2.40625,1 1,2.40625 2.7324219,4.1464844 C 2.2692068,4.9951009 2,5.9646164 2,7 2,9.087 3.0708,10.925 4.6875,12 H 4 c -2,0 -2,2 -2,2 v 1 H 13.585938 L 14.59375,16 16,14.59375 12.439453,11.025391 9.6054688,8.1914062 6.8125,5.3984375 3.9746094,2.5605469 Z M 8,1 C 7.1848953,1 6.4077568,1.1625986 5.6992188,1.4570312 L 13.537109,9.2949219 C 13.831828,8.5869736 14,7.8142921 14,7 14,3.6863 11.314,1 8,1 Z M 6.0566406,7.4707031 7.5332031,8.9472656 C 6.8027455,8.7714861 6.2324201,8.2011607 6.0566406,7.4707031 Z"/>
</svg>
