<svg xmlns="http://www.w3.org/2000/svg" width="16" height="16" version="1.1">
 <defs>
  <style id="current-color-scheme" type="text/css">
   .ColorScheme-Text { color:#b6bdca; } .ColorScheme-Highlight { color:#4285f4; } .ColorScheme-NeutralText { color:#ff9800; } .ColorScheme-PositiveText { color:#4caf50; } .ColorScheme-NegativeText { color:#f44336; }
  </style>
 </defs>
 <path style="opacity:0.3;fill:currentColor" class="ColorScheme-Text" d="M 8,1 A 7,7 0 0 0 1,8 7,7 0 0 0 8,15 7,7 0 0 0 15,8 7,7 0 0 0 8,1 Z M 8,3 A 5,5 0 0 1 13,8 5,5 0 0 1 8,13 5,5 0 0 1 3,8 5,5 0 0 1 8,3 Z"/>
 <path style="fill:currentColor" class="ColorScheme-Text" d="M 10.004,1 C 10.004,1 9.9754,1.1449 9.9547,1.2444 9.9186,1.4075 9.851,1.6529 9.851,1.6529 9.9921,2.432 9.9953,3.2342 9.9178,4.0184 L 9.8423,4.5534 10.178,4.5859 10.232,4.0338 C 10.279,3.0179 10.274,1.9953 10.004,1 Z M 9.8247,4.5944 C 9.4814,4.8907 9.1346,5.2047 8.8772,5.5618 8.2566,6.4247 7.8613,7.5152 7.0597,8.2607 6.7338,8.5624 6.3542,8.8255 5.9645,9.0571 6.1697,9.0865 6.3975,9.1064 6.6026,9.0657 6.6026,9.0657 5.7259,9.5622 5.388,9.9015 5.2208,10.068 5.0473,10.238 4.8853,10.411 5.0163,10.333 5.1696,10.243 5.3282,10.242 5.5903,10.238 6.0929,9.9562 6.0929,9.9562 6.0929,9.9562 5.1466,10.548 4.7587,10.915 4.538,11.124 4.2892,11.323 4.0995,11.561 3.9288,11.776 4.1254,11.771 4.1254,11.771 4.4444,11.657 4.5684,11.539 4.9028,11.469 4.7684,11.516 4.131,11.783 3.8776,11.927 3.4207,12.186 2.9679,12.852 2.6506,13.291 2.4817,13.522 2.2032,13.719 2.0653,13.957 1.986,14.094 1.9936,14.238 2.0126,14.274 2.1522,14.523 2.8497,14.734 3.2325,14.826 3.6928,14.933 4.1769,14.982 4.651,15 4.932,14.943 5.2228,14.83 5.4297,14.638 5.7107,14.377 6.1167,14.124 6.2787,13.786 6.3718,13.596 6.5144,13.484 6.5196,13.481 6.3075,13.821 6.0752,14.152 5.8235,14.465 5.7028,14.613 5.5369,14.802 5.5369,14.802 5.818,14.704 6.1119,14.543 6.3877,14.499 6.5584,14.471 6.7471,14.394 6.8781,14.277 7.0178,14.151 7.2286,14.102 7.3528,13.973 7.6958,13.616 7.9269,13.071 8.2545,12.696 L 8.4707,12.424 8.5797,12.274 C 8.5797,12.274 8.2314,13.047 8.0383,13.419 L 8.0348,13.429 C 7.9762,13.532 7.8889,13.632 7.7992,13.725 L 7.7641,13.763 7.7817,13.766 C 8.1316,13.587 8.4404,13.313 8.7748,13.098 L 8.8029,13.081 C 9.0529,12.94 9.2741,12.692 9.4586,12.493 9.6327,12.305 9.7214,12.191 9.768,11.923 L 10.039,10.404 10.065,10.322 V 10.363 C 10.051,11.04 9.9388,11.769 10.046,12.435 10.125,12.927 10.17,12.826 10.17,12.826 10.217,12.245 10.155,11.539 10.352,11.011 10.484,10.654 10.697,10.266 10.766,9.881 10.837,9.4863 10.835,9.0651 10.824,8.6606 10.811,8.1371 10.777,7.6101 10.7,7.0882 10.772,7.3361 10.877,7.596 10.891,7.8505 10.905,8.0919 10.919,8.5871 10.919,8.5871 10.978,8.2838 11.022,7.9605 10.988,7.6522 10.955,7.3684 11.012,7.0782 10.979,6.7993 10.936,6.434 10.924,6.0392 10.796,5.6917 10.674,5.3525 10.315,5.014 10.222,4.6731 L 10.166,4.5944 C 10.03,5.5259 9.7019,6.474 9.401,7.3428 9.0208,8.4428 8.4113,9.3728 7.8384,10.37 7.3119,11.284 6.6776,12.058 5.8569,12.708 5.1411,13.274 4.3496,13.707 3.4979,14.019 3.2329,14.115 2.9364,14.149 2.6559,14.157 2.4495,14.163 2.2956,14.151 2.2956,14.151 2.9047,14.024 3.5219,13.841 4.0622,13.53 5.5608,12.667 6.7728,11.485 7.652,9.9784 8.2112,9.0226 8.7393,8.0837 9.1075,7.0335 9.3828,6.2445 9.6689,5.4243 9.8247,4.5944 Z"/>
</svg>
