<svg xmlns="http://www.w3.org/2000/svg" width="16" height="16" version="1.1">
 <defs>
  <style id="current-color-scheme" type="text/css">
   .ColorScheme-Text { color:#b6bdca; } .ColorScheme-Highlight { color:#4285f4; } .ColorScheme-NeutralText { color:#ff9800; } .ColorScheme-PositiveText { color:#4caf50; } .ColorScheme-NegativeText { color:#f44336; }
  </style>
 </defs>
 <path style="fill:currentColor;opacity:0.3" class="ColorScheme-Text" d="M 10.666667,1 16,10 10.222222,10 5.3334222,1 Z"/>
 <path style="fill:currentColor" class="ColorScheme-Text" d="m 6,11.007925 10,-0.0088 -2.666667,4 -9.7777774,0 z"/>
 <path style="fill:currentColor" class="ColorScheme-Text" d="M 4.8476562 1.9492188 L 0 10.625 L 2.6660156 15 L 7.4863281 6.8046875 L 4.8476562 1.9492188 z"/>
</svg>
