<svg xmlns="http://www.w3.org/2000/svg" width="16" height="16" version="1.1">
 <defs>
  <style id="current-color-scheme" type="text/css">
   .ColorScheme-Text { color:#b6bdca; } .ColorScheme-Highlight { color:#4285f4; } .ColorScheme-NeutralText { color:#ff9800; } .ColorScheme-PositiveText { color:#4caf50; } .ColorScheme-NegativeText { color:#f44336; }
  </style>
 </defs>
 <path style="opacity:0.3;fill:currentColor" class="ColorScheme-Text" d="m 7.4175562,1.0002742 c -0.6039995,-0.00237 -1.1906955,0.077868 -1.7383485,0.2402344 -0.832589,0.3291024 -1.516407,0.6323071 -0.73831,1.0429687 1.475439,0.770853 2.8654485,1.8222774 4.0685155,3.1542969 1.9141568,2.1193269 3.1018398,4.6591298 3.6466228,7.1640618 0.154209,0.866273 0.903713,0.09868 1.210985,-0.21875 1.680965,-1.74698 1.597303,-6.0334414 -0.972695,-8.8789056 C 11.386185,1.8343875 9.3195062,1.0077367 7.4175562,1.0002742 Z m 7.4065318,0.00586 c -0.204194,-0.018859 -0.427423,0.013669 -0.658228,0.070312 -0.497911,0.1413938 -0.978424,0.5073829 -1.445368,0.8964843 0.31868,0.2641451 0.629039,0.5435534 0.916051,0.8613282 0.110902,0.1227902 0.209881,0.2519012 0.312512,0.3789062 0.119496,-0.057018 0.24919,-0.1092291 0.404312,-0.1445312 0.358329,-0.081548 0.967504,0.1500187 1.250048,0.2519531 0.375949,0.00644 0.449361,-0.5595558 0.365248,-0.9589844 C 15.870263,1.894364 15.563345,1.5623339 15.370984,1.2483211 15.213851,1.0959407 15.028282,1.0249921 14.824088,1.0061342 Z M 4.2494657,3.0237117 c -0.04378,0.032066 -0.08704,0.05855 -0.130865,0.091797 -3.310516,2.51173 -5.164007,8.0631813 -3.494274,10.0292963 1.944062,2.289139 7.1665965,2.475433 10.3539123,0.470703 0.27483,-0.172859 0.525971,-0.361976 0.765653,-0.560546 -0.03224,-0.09568 -0.0566,-0.191285 -0.07227,-0.279297 l 0.0078,0.03711 C 11.168986,10.465714 10.052944,8.0848461 8.2671982,6.1076961 7.1457692,4.8660666 5.8516217,3.887859 4.4779897,3.1701961 h -0.002 l -0.0019,-0.00195 c -0.07399,-0.03905 -0.148729,-0.09814 -0.224618,-0.1445313 z"/>
</svg>
