<svg xmlns="http://www.w3.org/2000/svg" width="22" height="22" version="1.1">
 <defs>
  <style id="current-color-scheme" type="text/css">
   .ColorScheme-Text { color:#efefef; } .ColorScheme-Highlight { color:#4285f4; }
  </style>
 </defs>
 <g transform="translate(3,3)">
  <path style="opacity:0.3;fill:currentColor" class="ColorScheme-Text" d="M 8,9 C 3.568,9 0,12.122 0,16 H 16 C 16,12.122 12.432,9 8,9 Z M 12,4 A 4,4 0 0 1 8,8 4,4 0 0 1 4,4 4,4 0 0 1 8,0 4,4 0 0 1 12,4 Z"/>
 </g>
</svg>
