<svg xmlns="http://www.w3.org/2000/svg" width="22" height="22" version="1.1">
 <defs>
  <style id="current-color-scheme" type="text/css">
   .ColorScheme-Text { color:#efefef; } .ColorScheme-Highlight { color:#4285f4; }
  </style>
 </defs>
 <g transform="translate(3,3)">
  <path style="fill:currentColor" class="ColorScheme-Text" d="M 1,1 V 14 H 3 V 1 Z M 4,1 V 7 H 5 V 1 Z M 6,1 V 14 H 7 V 1 Z M 8,1 V 9 H 9 V 1 Z M 10,1 V 7 H 11 V 1 Z M 12,1 V 7 H 15 V 1 Z M 11,8 C 11,8 10,8 10,9 V 10 H 9 C 8,10 8,11 8,11 V 12 C 8,12 8,13 9,13 H 10 V 14 C 10,15 11,15 11,15 H 12 C 12,15 13,15 13,14 V 13 H 14 C 15,13 15,12 15,12 V 11 C 15,11 15,10 14,10 H 13 V 9 C 13,8 12,8 12,8 Z"/>
 </g>
</svg>
