<svg xmlns="http://www.w3.org/2000/svg" width="22" height="22" version="1.1" viewBox="0 0 22 22">
 <defs>
  <style id="current-color-scheme" type="text/css">
   .ColorScheme-Text { color:#cbe3e7; } .ColorScheme-Highlight { color:#4285f4; } .ColorScheme-NeutralText { color:#ff9800; } .ColorScheme-PositiveText { color:#4caf50; } .ColorScheme-NegativeText { color:#f44336; }
  </style>
 </defs>
 <circle style="fill:currentColor" class="ColorScheme-Text" cx="7.5" cy="15.5" r="2.5"/>
 <circle style="fill:currentColor" class="ColorScheme-Text" cx="7.5" cy="6.5" r="2.5"/>
 <circle style="fill:currentColor" class="ColorScheme-Text" cx="14.5" cy="13.5" r="2.5"/>
 <path style="fill:none;stroke:currentColor;stroke-width:1px" class="ColorScheme-Text" d="M 7.5,15.5 V 6.5 L 14.5,13.5"/>
</svg>
