<svg xmlns="http://www.w3.org/2000/svg" width="22" height="22" version="1.1">
 <defs>
  <style id="current-color-scheme" type="text/css">
   .ColorScheme-Text { color:#cbe3e7; } .ColorScheme-Highlight { color:#4285f4; } .ColorScheme-NeutralText { color:#ff9800; } .ColorScheme-PositiveText { color:#4caf50; } .ColorScheme-NegativeText { color:#f44336; }
  </style>
 </defs>
 <path style="fill:currentColor" class="ColorScheme-Text" d="m 4,5 v 2.996094 0.0098 2.640625 V 18 H 17 V 16 H 6 V 15 H 6.00586 8.6074225 9.00586 V 14.9922 L 9.01367,15 l 2,-2 h 1.591797 l 2,2 h 2.40039 v -1 h -1.986328 l -2,-2 h -1.41406 -1.00586 L 8.5996094,14 H 6.0058594 6 v -2 h 0.00781 v 0.0059 h 1.875 l 4.123047,-4.123047 2.123047,2.123047 0.0059,-0.0039 0.0039,0.0039 2.828125,-2.828125 c 0.003,0.005 -0.707031,-0.7070313 -0.707031,-0.7070313 l -2.125,2.1250003 -2.126954,-2.1250003 -0.002,0.00195 -0.0019,-0.00195 c 0.0039,0 -4.5351562,4.5351563 -4.5351562,4.5351563 H 6 V 10 8.005859 7.996094 5 Z"/>
</svg>
