<svg xmlns="http://www.w3.org/2000/svg" width="22" height="22" version="1.1">
 <defs>
  <style id="current-color-scheme" type="text/css">
   .ColorScheme-Text { color:#cbe3e7; } .ColorScheme-Highlight { color:#4285f4; } .ColorScheme-NeutralText { color:#ff9800; } .ColorScheme-PositiveText { color:#4caf50; } .ColorScheme-NegativeText { color:#f44336; }
  </style>
 </defs>
 <g transform="translate(3,3)">
  <path style="fill:currentColor" class="ColorScheme-Text" d="M 8.5,13.5 A 0.5,0.5 0 0 1 8,14 0.5,0.5 0 0 1 7.5,13.5 0.5,0.5 0 0 1 8,13 0.5,0.5 0 0 1 8.5,13.5 Z M 1,1 V 6 H 3.5 C 5,6 5,4.5 5,4.5 5,3.5 4.312,3.2187 4.312,3.2187 4.312,3.2187 4.5,3 4.5,2.5 4.5,2.5 4.5,1 3,1 Z M 11,1 V 6 H 13.5 C 15,6 15,4.5 15,4.5 V 2.5 C 15,2.5 15,1 13.5,1 Z M 2,2 H 3 C 3.5,2 3.5,2.5 3.5,2.5 3.5,2.5 3.5,3 3,3 H 2 Z M 12,2 H 13.5 C 14,2 14,2.5 14,2.5 V 4.5 C 14,4.5 14,5 13.5,5 H 12 Z M 6,3 V 4 H 9 V 3 Z M 2,4 H 3.5 C 4,4 4,4.5 4,4.5 4,4.5 4,5 3.5,5 H 2 Z M 1,8 V 10 H 5 V 8 Z M 7,8 V 10 H 9 V 8 Z M 11,8 V 10 H 15 V 8 Z M 6,12 2,13.5 6,15 Z M 10,12 V 15 L 14,13.5 Z"/>
 </g>
</svg>
