<svg xmlns="http://www.w3.org/2000/svg" width="16" height="16" version="1.1">
 <path style="fill:#c0c3cf" d="M 9,1.5 V 4 H 11 C 14,4 16,6.13 16,9.25 16,12.5 12,14 12,14 12,14 13.87,11.35 13.44,10 13.07,8.87 11.86,8 10.5,8 H 9 V 10.5 L 2.5,6 Z"/>
 <path style="fill:#c0c3cf" d="M 6.5,1.5 0,6 6.5,10.5 V 9.4609 L 1.5,6 6.5,2.5391 Z"/>
</svg>
