<svg xmlns="http://www.w3.org/2000/svg" width="16" height="16" version="1.1">
 <path style="fill:#c0c3cf" d="M 6,5 10,8 6,11 V 9 H 2 V 7 H 6 Z"/>
 <path style="fill:#c0c3cf" d="M 13,15 H 3 V 13 H 11 V 3 3 H 3 V 1 H 13 Z"/>
</svg>
