<svg xmlns="http://www.w3.org/2000/svg" width="16" height="16">
 <defs>
  <style id="current-color-scheme" type="text/css">
   .ColorScheme-Text { color:#FCE8C3; } .ColorScheme-Highlight { color:#4285f4; } .ColorScheme-NeutralText { color:#ff9800; } .ColorScheme-PositiveText { color:#4caf50; } .ColorScheme-NegativeText { color:#f44336; }
  </style>
 </defs>
 <path style="fill:currentColor" class="ColorScheme-Text" d="M 8 3 A 5 5 0 0 0 3.2675781 6.3984375 A 4 4 0 0 0 1 10 A 4 4 0 0 0 5 14 A 4 4 0 0 0 7.6582031 12.982422 A 5 5 0 0 0 8 13 A 5 5 0 0 0 10.113281 12.525391 A 4 4 0 0 0 12 13 A 4 4 0 0 0 16 9 A 4 4 0 0 0 12 5 A 4 4 0 0 0 11.992188 5 A 5 5 0 0 0 8 3 z"/>
</svg>
