<svg xmlns="http://www.w3.org/2000/svg" width="16" height="16" version="1.1">
 <path style="fill:#f8f8f2" d="M 4,1 C 4,1 2,1 2,3 V 7.5 L 9.75,14.75 15.75,8.75 8.5,1 Z M 5,3 C 5.55,3 6,3.45 6,4 6,4.55 5.55,5 5,5 4.45,5 4,4.55 4,4 4,3.45 4.45,3 5,3 Z"/>
</svg>
