<svg xmlns="http://www.w3.org/2000/svg" width="16" height="16" version="1.1">
 <path style="fill:#f8f8f2" d="M 2,3 V 5 H 4 V 3 Z m 4,0 v 2 h 8 V 3 Z M 2,7 V 9 H 4 V 7 Z m 4,0 v 2 h 8 V 7 Z m -4,4 v 2 h 2 v -2 z m 4,0 v 2 h 8 v -2 z"/>
</svg>
