<svg xmlns="http://www.w3.org/2000/svg" width="16" height="16" version="1.1">
 <path style="fill:#f8f8f2" d="M 5,2 V 4 H 3 C 1,4 1,6 1,6 V 12 C 1,12 1,14 3,14 H 13 C 15,14 15,12 15,12 V 6 C 15,6 15,4 13,4 H 11 V 6 H 13 V 12 H 3 V 6 H 5 V 8 L 9,5 Z"/>
</svg>
