<svg xmlns="http://www.w3.org/2000/svg" width="16" height="16" version="1.1">
 <path style="fill:#CFD5D6" d="M 12,5 16,8 12,11 V 9 H 8 V 7 H 12 Z"/>
 <path style="fill:#CFD5D6" d="M 8,2 A 6,6 0 0 0 2,8 6,6 0 0 0 8,14 6,6 0 0 0 12.24,12.24 L 10.826,10.826 A 4,4 0 0 1 8,12 4,4 0 0 1 4,8 4,4 0 0 1 8,4 4,4 0 0 1 10.826,5.1738 L 12.24,3.7598 A 6,6 0 0 0 8,2 Z"/>
</svg>
