<svg xmlns="http://www.w3.org/2000/svg" width="24" height="24" version="1.1">
 <defs>
  <style id="current-color-scheme" type="text/css">
   .ColorScheme-Text { color:#d0d0d0; } .ColorScheme-Highlight { color:#4285f4; } .ColorScheme-NeutralText { color:#ff9800; } .ColorScheme-PositiveText { color:#4caf50; } .ColorScheme-NegativeText { color:#f44336; }
  </style>
 </defs>
 <path style="fill:currentColor" class="ColorScheme-Text" d="M 4 4 L 4 20 L 6 20 L 6 4 L 4 4 z M 18 4 L 18 20 L 20 20 L 20 4 L 18 4 z M 7 6 L 7 12 L 8 12 L 8 9 L 15 9 L 15 12 L 17 12 L 17 6 L 7 6 z M 9 10 L 9 12 L 9 14 L 9 15 L 14 15 L 14 14 L 14 12 L 14 10 L 9 10 z M 15 14 L 15 16 L 8 16 L 8 18 L 17 18 L 17 14 L 15 14 z"/>
</svg>
