<svg xmlns="http://www.w3.org/2000/svg" width="24" height="24" version="1.1">
 <defs>
  <style id="current-color-scheme" type="text/css">
   .ColorScheme-Text { color:#d0d0d0; } .ColorScheme-Highlight { color:#4285f4; } .ColorScheme-NeutralText { color:#ff9800; } .ColorScheme-PositiveText { color:#4caf50; } .ColorScheme-NegativeText { color:#f44336; }
  </style>
 </defs>
 <g transform="matrix(1,0,0,1,4,4)">
  <path style="fill:currentColor" class="ColorScheme-Text" d="M 6,0 V 2 C 4,2 2,3.5 2,5.5 2,7.5 4,9 6,9 V 12 H 4 C 4,12 3,12 3,13 3,14 4,14 4,14 H 6 V 16 H 7 V 14 H 8 V 16 H 9 V 14 C 11,14 13,12.5 13,10.5 13,8.5 12,7 9,7 V 4 H 11 C 11,4 12,4 12,3 12,2 11,2 11,2 H 9 V 0 H 8 V 2 H 7 V 0 Z M 8,4 V 7 H 7 V 4 Z M 6,4 V 7 C 4.5,7 4,6.5 4,5.5 4,4.5 4.5,4 6,4 Z M 7,9 H 8 V 12 H 7 Z M 9,9 C 10.5,9 11,9.5 11,10.5 11,11.5 10.5,12 9,12 Z"/>
 </g>
</svg>
