<svg xmlns="http://www.w3.org/2000/svg" width="24" height="24" version="1.1">
 <defs>
  <style id="current-color-scheme" type="text/css">
   .ColorScheme-Text { color:#d0d0d0; } .ColorScheme-Highlight { color:#4285f4; } .ColorScheme-NeutralText { color:#ff9800; } .ColorScheme-PositiveText { color:#4caf50; } .ColorScheme-NegativeText { color:#f44336; }
  </style>
 </defs>
 <g transform="translate(4,4)">
  <path style="fill:currentColor" class="ColorScheme-Text" d="M 2,0 C 0,0 0,2 0,2 V 14 C 0,16 2,16 2,16 H 14 C 16,16 16,14 16,14 V 2 C 16,0 14,0 14,0 Z M 3.5,2 H 12.5 C 12.5,2 14,2 14,3.5 V 12.5 C 14,12.5 14,14 12.5,14 H 3.5 C 3.5,14 2,14 2,12.5 V 3.5 C 2,3.5 2,2 3.5,2 Z"/>
 </g>
</svg>
