<svg xmlns="http://www.w3.org/2000/svg" width="24" height="24" version="1.1">
 <defs>
  <style id="current-color-scheme" type="text/css">
   .ColorScheme-Text { color:#d0d0d0; } .ColorScheme-Highlight { color:#4285f4; } .ColorScheme-NeutralText { color:#ff9800; } .ColorScheme-PositiveText { color:#4caf50; } .ColorScheme-NegativeText { color:#f44336; }
  </style>
 </defs>
 <g transform="translate(4,4)">
  <path style="fill:currentColor" class="ColorScheme-Text" d="M 12,5 C 12,5 11,5 11,6 11,7 12,7 12,7 13.105,7 14,7.8954 14,9 14,10.105 13.105,11 12,11 10.895,11 10,10.105 10,9 H 8 C 8,11.209 9.7909,13 12,13 14.209,13 16,11.209 16,9 16,6.7909 14.209,5 12,5 Z M 5,3 C 2.2386,3 0,5.2386 0,8 0,10.761 2.2386,13 5,13 5,13 6,13 6,12 6,11 5,11 5,11 3.3431,11 2,9.6569 2,8 2,6.3431 3.3431,5 5,5 6.6569,5 8,6.3431 8,8 V 9 H 10 V 8 C 10,5.2386 7.7614,3 5,3 Z"/>
 </g>
</svg>
