<svg xmlns="http://www.w3.org/2000/svg" width="24" height="24" version="1.1">
 <defs>
  <style id="current-color-scheme" type="text/css">
   .ColorScheme-Text { color:#d0d0d0; } .ColorScheme-Highlight { color:#4285f4; } .ColorScheme-NeutralText { color:#ff9800; } .ColorScheme-PositiveText { color:#4caf50; } .ColorScheme-NegativeText { color:#f44336; }
  </style>
 </defs>
 <path style="fill:currentColor" class="ColorScheme-Text" d="m 12,5 a 7,7 0 0 0 -7,7 7,7 0 0 0 0.066406,0.949219 l 2.3339844,-1.75 A 1.0001,1.0001 0 0 1 8.4472656,11.105469 1.0001,1.0001 0 0 1 9,12 v 1 h 1.267578 A 2,2 0 0 1 10,12 2,2 0 0 1 12,10 2,2 0 0 1 14,12 2,2 0 0 1 13.585938,13.191406 1.0001,1.0001 0 0 1 14,14 v 2 a 1.0001,1.0001 0 0 1 -1,1 H 9 v 1 A 1.0001,1.0001 0 0 1 8.9550781,18.292969 7,7 0 0 0 12,19 7,7 0 0 0 19,12 7,7 0 0 0 12,5 Z m -4,7 -4,3 4,3 v -2 h 5 V 14 H 8 Z"/>
</svg>
