<svg xmlns="http://www.w3.org/2000/svg" width="24" height="24" version="1.1">
 <defs>
  <style id="current-color-scheme" type="text/css">
   .ColorScheme-Text { color:#d0d0d0; } .ColorScheme-Highlight { color:#4285f4; } .ColorScheme-NeutralText { color:#ff9800; } .ColorScheme-PositiveText { color:#4caf50; } .ColorScheme-NegativeText { color:#f44336; }
  </style>
 </defs>
 <path style="fill:currentColor" class="ColorScheme-Text" d="M 18.343089,5.0000261 H 5.6570149 c -0.582916,0 -0.877056,0.7072711 -0.464021,1.1202974 l 4.807006,5.0577705 v 5.634421 c 0,0.21413 0.05452,0.414812 0.2299611,0.537636 l 2.487456,1.530707 C 13.148984,19.182951 14,18.876458 14,18.343223 V 11.178094 L 18.807135,6.1203235 C 19.219322,5.7081197 18.927203,5.0000261 18.343089,5.0000261 Z"/>
</svg>
