<svg xmlns="http://www.w3.org/2000/svg" width="22" height="22" version="1.1">
 <defs>
  <style id="current-color-scheme" type="text/css">
   .ColorScheme-Text { color:#cac9bf; } .ColorScheme-Highlight { color:#4285f4; }
  </style>
 </defs>
 <path style="fill:currentColor;opacity:0.3" class="ColorScheme-Text" d="M 9 3 L 9 6 L 11 8 L 11 3 L 9 3 z M 17 5 L 17 9 L 15 9 L 15 6 L 13 6 L 13 9 L 12 9 L 16 13 L 19 13 L 19 5 L 17 5 z M 5 8 L 5 9 L 3 9 L 3 13 L 10 13 L 5 8 z M 3 14 L 3 19 L 4 19 L 4 16.5 L 4 14 L 3 14 z M 4 16.5 L 7 19 L 7 14 L 4 16.5 z M 18 14 L 18 15 L 19 16 L 19 14 L 18 14 z M 15 18 L 15 19 L 15.545 18.545 L 15 18 z M 18.5 18.5 L 19 19 L 19 18.5 L 18.5 18.5 z"/>
 <path style="fill:currentColor" class="ColorScheme-Text" d="M 2,2 V 3.5 L 18.5,20 H 20 V 18.5 L 3.5,2 Z"/>
</svg>
