<svg xmlns="http://www.w3.org/2000/svg" width="22" height="22" version="1.1">
 <defs>
  <style id="current-color-scheme" type="text/css">
   .ColorScheme-Text { color:#CFD5D6; } .ColorScheme-Highlight { color:#4285f4; }
  </style>
 </defs>
 <g transform="translate(-81 -599.36)">
  <path opacity=".3" style="fill:currentColor" class="ColorScheme-Text" d="m85 617.37 14-14v14z"/>
  <path style="fill:currentColor" class="ColorScheme-Text" d="m93 609.37-8 8h8v-8z"/>
 </g>
</svg>
