<svg xmlns="http://www.w3.org/2000/svg" width="22" height="22" version="1.1">
 <defs>
  <style id="current-color-scheme" type="text/css">
   .ColorScheme-Text { color:#CFD5D6; } .ColorScheme-Highlight { color:#4285f4; }
  </style>
 </defs>
 <path style="stroke-linejoin:round;stroke:currentColor;fill:none" class="ColorScheme-Text" d="m19.5 17v1.5c0 1-0 1-1 1-1 0-1-0-1-1l-0-2c-0-1 0-1 1-1h1.5"/>
 <path style="stroke-linejoin:round;stroke:currentColor;fill:none" class="ColorScheme-Text" d="m15.5 20v-2.5h-2v-2.5m2 2.5v-2.5"/>
</svg>
