<svg xmlns="http://www.w3.org/2000/svg" width="24" height="24" version="1.1">
 <defs>
  <style id="current-color-scheme" type="text/css">
   .ColorScheme-Text { color:#efefef; } .ColorScheme-Highlight { color:#4285f4; }
  </style>
 </defs>
 <g transform="translate(-269.78 -485.05)">
  <g transform="translate(1,-1)">
   <path style="fill:currentColor" class="ColorScheme-Text" d="m270.78 490.05v16h16v-7.5l-2 2v3.5h-12v-12h12v3l2-2v-3h-16z"/>
   <path style="fill:currentColor" class="ColorScheme-Text" d="m289.13 492.12-7.0254 7.1348-4.9414-5-1.3848 1.4043 4.9434 5.002 1.3711 1.3906 1.3828-1.4062 7.0273-7.1348-1.373-1.3906z"/>
  </g>
 </g>
</svg>
