<svg xmlns="http://www.w3.org/2000/svg" width="24" height="24" version="1.1">
 <defs>
  <style id="current-color-scheme" type="text/css">
   .ColorScheme-Text { color:#efefef; } .ColorScheme-Highlight { color:#4285f4; }
  </style>
 </defs>
 <g>
  <path style="fill:currentColor;fill-rule:evenodd" class="ColorScheme-Text" d="m 10,10 3,0 0,5 1,0 0,2 -4,0 0,-2 1,0 0,-3 -1,0 0,-2 z m 1,-3 2,0 0,2 -2,0 0,-2 z M 12,4 C 9.8519,5.9698 6.2346,7.7049 5,8 5,13.333 7.625,19.111 12,20 16.375,19.111 19,13.333 19,8 17.765,7.7049 14.148,5.9698 12,4 Z"/>
  <circle style="fill:currentColor" class="ColorScheme-Highlight" cx="19" cy="19" r="2"/>
 </g>
</svg>
