<svg xmlns="http://www.w3.org/2000/svg" width="24" height="24" version="1.1">
 <defs>
  <style id="current-color-scheme" type="text/css">
   .ColorScheme-Text { color:#efefef; } .ColorScheme-Highlight { color:#4285f4; }
  </style>
 </defs>
 <g transform="translate(0 -1028.4)">
  <path style="fill:currentColor" class="ColorScheme-Text" d="m5 5c-0.554 0-1 0.446-1 1v2.2832c0.2965-0.1755 0.636-0.2832 1-0.2832h3.5859l1.7071-1.707a1.0001 1.0001 0 0 1 0.707 -0.293h1c0-0.554-0.446-1-1-1h-6zm6 2l-2 2h-4c-0.554 0-1 0.446-1 1v8c0 1.108 0.892 2 2 2h12c1.108 0 2-0.892 2-2v-10c0-0.554-0.446-1-1-1h-8zm2 3l4 4h-2v2h-2v-6zm-3 2h2v6l-4-4h2v-2z" transform="translate(0 1028.4)"/>
 </g>
</svg>
