<svg xmlns="http://www.w3.org/2000/svg" width="24" height="24" version="1.1">
 <defs>
  <style id="current-color-scheme" type="text/css">
   .ColorScheme-Text { color:#efefef; } .ColorScheme-Highlight { color:#4285f4; }
  </style>
 </defs>
 <path style="fill:currentColor" class="ColorScheme-Text" d="m 12,4 a 8,8 0 0 0 -8,8 8,8 0 0 0 8,8 8,8 0 0 0 8,-8 8,8 0 0 0 -8,-8 z M 8.476562,7.0195312 C 8.80854,7.0037232 9.1177,7.0996372 9.410156,7.265625 9.979261,7.581795 10.540087,7.9206172 11.125,8.1972656 11.599254,8.4264884 11.584481,8.6391838 11.20508,8.9316406 10.612262,9.3900861 9.980456,9.4786461 9.308596,9.1308591 8.668353,8.7988818 8.050401,8.4197767 7.410158,8.0957031 7.030755,7.9060014 7.078914,7.7312674 7.347658,7.4941406 7.671731,7.2016838 8.041832,7.0274354 8.476564,7.0195312 Z m 7.15625,0.3183594 c 0.342847,0.025688 0.666665,0.1613118 0.947266,0.3984375 0.28455,0.2450308 0.385722,0.4270272 -0.0332,0.65625 -1.1145,0.624434 -2.21177,1.287583 -3.318363,1.9199219 -0.537488,0.316172 -1.106676,0.333564 -1.675781,0.0332 -0.205509,-0.158084 -0.529384,-0.277672 -0.521484,-0.5859369 0.0079,-0.252936 0.331783,-0.291685 0.521484,-0.402344 0.995933,-0.5928171 1.999978,-1.1867545 3.011719,-1.7558597 0.363595,-0.2055104 0.725515,-0.2893599 1.068359,-0.2636718 z m 2.560547,2.3339845 c 0.125519,0.01235 0.18685,0.144881 0.22461,0.3671879 0.07552,0.426828 0.03789,0.831442 -0.166016,1.218749 -0.151042,0.284553 -0.376823,0.498074 -0.65625,0.664063 -0.54375,0.324074 -1.088281,0.630546 -1.609375,0.99414 -0.422916,0.292457 -0.587765,0.167614 -0.640625,-0.30664 -0.08307,-0.742998 0.150001,-1.337302 0.761719,-1.724609 0.589063,-0.379404 1.201693,-0.710349 1.783203,-1.0976569 0.130274,-0.08596 0.227414,-0.122644 0.302734,-0.115234 z M 6.259765,9.8125001 c 0.08276,-0.01565 0.19642,0.01553 0.353516,0.107422 1.106593,0.6402429 2.235113,1.2328949 3.349609,1.8652339 0.545392,0.308265 0.845338,0.783494 0.876954,1.431641 -0.03162,0.26084 0.03232,0.599819 -0.228516,0.75 C 10.39001,14.093264 10.191746,13.833315 9.99414,13.722656 8.974494,13.16936 7.94915,12.616072 6.945312,12.039062 6.218123,11.620138 5.900876,10.955705 6.027344,10.228516 6.066864,9.9963291 6.121824,9.8385881 6.259765,9.8125001 Z M 14.597656,12 c 0.07608,-0.0013 0.15287,0.01292 0.228516,0.05078 0.247582,0.127536 0.100175,0.438921 0.109375,0.662109 0.03668,1.171738 0.06445,2.343889 0.06445,3.515626 -0.0092,0.836956 -0.495203,1.434222 -1.292969,1.697265 -0.403467,0.127536 -0.650391,0.13467 -0.650391,-0.351562 0.0092,-1.291303 -0.04747,-2.581904 -0.05664,-3.865235 -0.0092,-0.629711 0.304789,-1.131697 0.9375,-1.482422 0.206319,-0.07772 0.431916,-0.222802 0.660156,-0.226562 z m -5.234375,2.003906 c 0.09099,0.0087 0.198596,0.03498 0.324219,0.07813 0.780655,0.270126 1.228942,0.750368 1.255859,1.470703 0.02692,0.682818 0.0098,1.373823 0.05469,2.056641 0.02692,0.405191 -0.170798,0.450443 -0.55664,0.337891 C 9.974811,17.812203 9.598112,17.594543 9.337893,17.234375 9.131513,16.964249 9.048831,16.670306 9.048831,16.347656 c 0,-0.615288 0.01087,-1.238228 -0.04297,-1.853515 -0.03365,-0.377051 0.08444,-0.516263 0.357422,-0.490235 z"/>
</svg>
