<svg xmlns="http://www.w3.org/2000/svg" width="16" height="16" version="1.1">
 <path style="fill:#cac9bf" d="M 5 0 C 4.446 0 4 0.446 4 1 L 4 2 L 12 2 L 12 1 C 12 0.446 11.554 0 11 0 L 5 0 z M 3 3 C 2.446 3 2 3.446 2 4 L 2 5 L 14 5 L 14 4 C 14 3.446 13.554 3 13 3 L 3 3 z M 1 6 C 0.446 6 0 6.446 0 7 L 0 15 C 0 15.554 0.446 16 1 16 L 15 16 C 15.554 16 16 15.554 16 15 L 16 7 C 16 6.446 15.554 6 15 6 L 1 6 z M 6.25 10 L 9.75 10 C 9.889 10 10 10.111 10 10.25 L 10 10.75 C 10 10.889 9.888 11 9.75 11 L 6.25 11 C 6.111 11 6 10.889 6 10.75 L 6 10.25 C 6 10.111 6.112 10 6.25 10 z"/>
</svg>
