<svg xmlns="http://www.w3.org/2000/svg" width="24" height="24" version="1.1">
 <defs>
  <style id="current-color-scheme" type="text/css">
   .ColorScheme-Text { color:#c0c0c0; } .ColorScheme-Highlight { color:#4285f4; }
  </style>
 </defs>
 <g transform="matrix(1,0,0,1,1,1)">
  <path style="opacity:0.3;fill:currentColor" class="ColorScheme-Highlight" d="M 9 4 L 9 5 L 6 5 L 6 17 C 6 17.55 6.446 18 7 18 L 14 18 L 14 8 L 16 8 L 16 5 L 13 5 L 13 4 L 9 4 z"/>
  <path style="fill:currentColor" class="ColorScheme-Highlight" d="M 15,9 V 14 L 15.25,16 H 16.75 L 17,14 V 9 Z M 15,17 V 19 H 17 V 17 Z"/>
 </g>
</svg>
