<svg xmlns="http://www.w3.org/2000/svg" width="24" height="24" x="0" y="0" version="1.1" xml:space="preserve">
 <defs>
  <style id="current-color-scheme" type="text/css">
   .ColorScheme-Text { color:#c0c0c0; } .ColorScheme-Highlight { color:#4285f4; }
  </style>
 </defs>
 <g transform="matrix(.83643 0 0 .83643 1.9628 2.2765)">
  <path style="fill:currentColor" class="ColorScheme-Text" d="m22.76 1.286-4.782 9.143-2.371-1.3829 6.717-8.1497z"/>
  <path style="fill:currentColor" class="ColorScheme-Text" d="m11.273 19.037-4.0552 2.75-1.9428-11.507-5.2306 0.747 4.7823-4.1842 1.7923 0.5978z" transform="translate(0 -.59778)"/>
  <path style="fill:currentColor" class="ColorScheme-Text" d="m19.173 12.821-2.3911-1.6738-6.4232 5.4934 0.914 1.799 11.487 3.348"/>
  <path style="fill:currentColor" class="ColorScheme-Text" d="m10.804 14.016-1.1951-3.587 3.5871-1.1596 2.391 1.1596z"/>
 </g>
</svg>
