<svg xmlns="http://www.w3.org/2000/svg" width="24" height="24" version="1.1">
 <defs>
  <style id="current-color-scheme" type="text/css">
   .ColorScheme-Text { color:#c0c0c0; } .ColorScheme-Highlight { color:#4285f4; }
  </style>
 </defs>
 <path style="fill:currentColor" class="ColorScheme-Text" d="M 12,4.0000001 C 7.581722,4.0000002 4.0000001,7.581722 4,12 c 0,4.418278 3.5817219,8 8,8 4.418278,0 8,-3.581722 8,-8 C 20,7.581722 16.418278,4.0000001 12,4.0000001 Z M 12,6.5 13.544922,9.7910159 17,10.320313 14.5,12.882813 15.089844,16.5 12,14.791016 8.9101561,16.5 9.5,12.882813 7,10.320313 10.455078,9.7910159 Z"/>
</svg>
