<svg xmlns="http://www.w3.org/2000/svg" width="24" height="24" version="1">
 <defs>
  <style id="current-color-scheme" type="text/css">
   .ColorScheme-Text { color:#c0c0c0; } .ColorScheme-Highlight { color:#4285f4; }
  </style>
 </defs>
 <path style="fill:currentColor" class="ColorScheme-Text" d="M 19.687469,19.303647 C 19.988656,18.713495 21.719303,8.6225537 21.966707,6.0140234 22.234358,3.4291929 20.838794,3.9098641 19.554652,4.3465233 16.404153,5.4215289 6.4432767,9.278599 3.7167917,10.716715 c -0.671236,0.281269 -0.961371,0.758501 -0.472969,1.171556 0.420514,0.350114 1.95926,0.830984 3.200218,1.075015 1.057861,0.323857 1.87956,0.01365 2.638057,-0.418712 1.8228123,-1.092109 7.2543803,-4.0650435 7.5468763,-4.2586459 0.292496,-0.1936024 0.612628,0.1656936 0.448928,0.3396304 -0.163701,0.173936 -4.010423,3.6599335 -5.27339,5.2360675 -0.669101,0.866629 -0.649059,1.329311 0.0383,1.8758 1.54204,1.221933 5.662057,4.007627 6.275101,4.176004 0.781724,0.214705 1.239555,0.03683 1.569559,-0.609783 z"/>
</svg>
