<svg xmlns="http://www.w3.org/2000/svg" width="24" height="24" version="1.1">
 <defs>
  <style id="current-color-scheme" type="text/css">
   .ColorScheme-Text { color:#D3C6AA; } .ColorScheme-Highlight { color:#4285f4; } .ColorScheme-NeutralText { color:#ff9800; } .ColorScheme-PositiveText { color:#4caf50; } .ColorScheme-NegativeText { color:#f44336; }
  </style>
 </defs>
 <g transform="translate(4,4)">
  <path style="fill:currentColor" class="ColorScheme-Text" d="M 6,1 V 7 H 3.5 L 7,12.055 V 9 C 7,8 8,8 8,8 H 11.809 L 12.5,7 H 10 V 1 Z M 1,14 V 16 H 8 C 8,16 7,16 7,15 V 14 Z M 9,9 C 9,9 8,9 8,10 V 15 C 8,16 9,16 9,16 H 15 C 15,16 16,16 16,15 V 10 C 16,9 15,9 15,9 Z M 10,10 H 13 V 11 H 12 V 14 H 13 V 15 H 10 V 14 H 11 V 11 H 10 Z"/>
 </g>
</svg>
