<svg xmlns="http://www.w3.org/2000/svg" width="24" height="24" version="1.1">
 <defs>
  <style id="current-color-scheme" type="text/css">
   .ColorScheme-Text { color:#D3C6AA; } .ColorScheme-Highlight { color:#4285f4; } .ColorScheme-NeutralText { color:#ff9800; } .ColorScheme-PositiveText { color:#4caf50; } .ColorScheme-NegativeText { color:#f44336; }
  </style>
 </defs>
 <g transform="translate(4,4)">
  <path style="opacity:0.3;fill:currentColor" class="ColorScheme-Text" d="M 9,6.5 A 2.5,2.5 0 0 1 6.5,9 2.5,2.5 0 0 1 4,6.5 2.5,2.5 0 0 1 6.5,4 2.5,2.5 0 0 1 9,6.5 Z"/>
  <path style="fill:currentColor" class="ColorScheme-Text" d="M 12,9.5 A 2.5,2.5 0 0 1 9.5,12 2.5,2.5 0 0 1 7,9.5 2.5,2.5 0 0 1 9.5,7 2.5,2.5 0 0 1 12,9.5 Z M 15,6 A 2,2 0 0 0 13,8 2,2 0 0 0 15,10 Z M 15,13 A 2,2 0 0 0 13,15 H 15 Z M 8,13 A 2,2 0 0 0 6,15 H 10 A 2,2 0 0 0 8,13 Z M 1,13 V 15 H 3 A 2,2 0 0 0 1,13 Z M 1,6 V 10 A 2,2 0 0 0 3,8 2,2 0 0 0 1,6 Z M 1,1 V 3 A 2,2 0 0 0 3,1 Z M 6,1 A 2,2 0 0 0 8,3 2,2 0 0 0 10,1 Z M 13,1 A 2,2 0 0 0 15,3 V 1 Z"/>
 </g>
</svg>
