<svg xmlns="http://www.w3.org/2000/svg" width="22" height="22" version="1.1">
 <defs>
  <style id="current-color-scheme" type="text/css">
   .ColorScheme-Text { color:#e2d5bc; } .ColorScheme-Highlight { color:#4285f4; } .ColorScheme-NeutralText { color:#ff9800; } .ColorScheme-PositiveText { color:#4caf50; } .ColorScheme-NegativeText { color:#f44336; }
  </style>
 </defs>
 <path style="fill:currentColor" class="ColorScheme-Text" d="M 11 3 A 8 8 0 0 0 3 11 A 8 8 0 0 0 11 19 A 8 8 0 0 0 19 11 A 8 8 0 0 0 11 3 z M 11 5 A 6 6 0 0 1 17 11 A 6 6 0 0 1 11 17 A 6 6 0 0 1 5 11 A 6 6 0 0 1 11 5 z M 9.6679688 6 C 9.2986347 6 9 6.2469097 9 6.5546875 L 9 8.8066406 C 9 8.8066406 10 9.3361244 10 9.6933594 C 10 10.050591 9 10.580078 9 10.580078 L 9 15.445312 C 9 15.75309 9.2986344 16 9.6679688 16 L 12.332031 16 C 12.701365 16 13 15.753106 13 15.445312 L 13 13.201172 L 12.992188 13.191406 C 12.992184 13.191406 12.000124 12.642115 12 12.269531 C 11.99988 11.896597 12.992188 11.34375 12.992188 11.34375 L 13 11.335938 L 13 6.5546875 C 13 6.2469097 12.701365 6 12.332031 6 L 9.6679688 6 z"/>
</svg>
