<svg xmlns="http://www.w3.org/2000/svg" width="22" height="22" version="1.1">
 <defs>
  <style id="current-color-scheme" type="text/css">
   .ColorScheme-Text { color:#e2d5bc; } .ColorScheme-Highlight { color:#4285f4; } .ColorScheme-NeutralText { color:#ff9800; } .ColorScheme-PositiveText { color:#4caf50; } .ColorScheme-NegativeText { color:#f44336; }
  </style>
 </defs>
 <path style="fill:currentColor" class="ColorScheme-Text" d="m6.5 4a3.5 3.5 0 0 0 -3.5 3.5 3.5 3.5 0 0 0 3.5 3.5 3.5 3.5 0 0 0 1.4766 -0.33l1.5234 1.83-5.5 6.5 7-5 7 5-5.5-6.5 1.5234-1.832a3.5 3.5 0 0 0 1.477 0.332 3.5 3.5 0 0 0 3.5 -3.5 3.5 3.5 0 0 0 -0.002 -0.0254c0.000077-0.01965-0.0017-0.038945-0.002-0.058594a3.5 3.5 0 0 0 -0.045 -0.4707c-0.018-0.1195-0.046-0.2361-0.076-0.3535a3.5 3.5 0 0 0 -0.059 -0.2051c-0.063-0.1946-0.146-0.3814-0.244-0.5644-0.154-0.2881-0.335-0.5652-0.576-0.8086-0.536-0.5408-1.205-0.8547-1.9-0.9629a3.5 3.5 0 0 0 -0.02734 -0.00391 3.5 3.5 0 0 0 -0.46094 -0.042969c-0.012-0.0001-0.024-0.0039-0.036-0.0039-0.0059 0-0.01169 0.00192-0.01758 0.00195a3.5 3.5 0 0 0 -0.054 -0.002 3.5 3.5 0 0 0 -3.5 3.5 3.5 3.5 0 0 0 0.383 1.584l-1.383 1.916-1.3809-1.9121a3.5 3.5 0 0 0 0.3809 -1.5879 3.5 3.5 0 0 0 -3.5 -3.5zm0 2a1.5 1.5 0 0 1 1.5 1.5 1.5 1.5 0 0 1 -1.5 1.5 1.5 1.5 0 0 1 -1.5 -1.5 1.5 1.5 0 0 1 1.5 -1.5zm9 0a1.5 1.5 0 0 1 1.5 1.5 1.5 1.5 0 0 1 -1.5 1.5 1.5 1.5 0 0 1 -1.5 -1.5 1.5 1.5 0 0 1 1.5 -1.5z"/>
</svg>
