<svg xmlns="http://www.w3.org/2000/svg" width="22" height="22" version="1.1">
 <defs>
  <style id="current-color-scheme" type="text/css">
   .ColorScheme-Text { color:#e2d5bc; } .ColorScheme-Highlight { color:#4285f4; } .ColorScheme-NeutralText { color:#ff9800; } .ColorScheme-PositiveText { color:#4caf50; } .ColorScheme-NegativeText { color:#f44336; }
  </style>
 </defs>
 <path style="fill:currentColor" class="ColorScheme-Text" d="M 11.779,5.0011 C 11.728,4.9956 11.676,5.011 11.637,5.0461 11.597,5.0811 11.573,5.1317 11.568,5.1867 L 11.342,7.673 C 11.331,7.7874 11.411,7.8905 11.518,7.9015 12.136,7.9657 12.731,8.1445 13.289,8.4328 13.38,8.4853 13.488,8.4406 13.549,8.3351 L 14.561,6.0851 C 14.607,5.9816 14.567,5.8577 14.471,5.8078 13.623,5.37 12.717,5.0986 11.779,5.0011 Z M 9.916,5.0382 C 8.9825,5.174 8.0878,5.4831 7.2559,5.9562 7.1611,6.0101 7.1256,6.1359 7.1758,6.2375 L 8.2676,8.4445 C 8.3025,8.515 8.3699,8.5539 8.4395,8.5539 8.4702,8.5539 8.5003,8.5469 8.5293,8.5304 9.077,8.2188 9.667,8.0163 10.281,7.9269 10.388,7.9115 10.462,7.8065 10.447,7.6925 L 10.135,5.216 C 10.12,5.1021 10.022,5.0229 9.916,5.0382 Z M 15.902,6.8351 C 15.851,6.8408 15.804,6.8685 15.771,6.9113 L 14.301,8.8488 C 14.268,8.8916 14.254,8.9462 14.26,9.002 14.265,9.056 14.29,9.107 14.33,9.142 14.813,9.563 15.218,10.065 15.537,10.636 15.574,10.701 15.639,10.738 15.705,10.738 15.739,10.738 15.774,10.729 15.805,10.709 L 17.805,9.427 C 17.898,9.368 17.922,9.23 17.871,9.142 17.389,8.2775 16.775,7.5163 16.045,6.88 16.005,6.8452 15.954,6.8296 15.902,6.8351 Z M 5.8613,7.0421 C 5.8097,7.0386 5.7594,7.0565 5.7207,7.0929 5.0139,7.759 4.427,8.5438 3.9766,9.427 3.9519,9.476 3.9465,9.535 3.9609,9.587 3.9754,9.64 4.0075,9.684 4.0527,9.711 L 6.0977,10.91 C 6.1893,10.963 6.3022,10.928 6.3613,10.826 6.659,10.242 7.048,9.723 7.5156,9.283 7.5544,9.246 7.5768,9.195 7.5801,9.14 7.5834,9.085 7.5672,9.029 7.5332,8.9875 L 5.9941,7.1125 C 5.9602,7.071 5.9128,7.0457 5.8613,7.0421 Z M 18.393,10.834 16.168,11.58 C 16.066,11.614 16.009,11.732 16.041,11.841 16.201,12.388 16.294,12.958 16.281,13.537 L 16.275,13.802 C 16.272,13.888 16.346,14.021 16.461,14.021 L 18.797,14.136 C 18.9,14.136 18.985,14.049 18.99,13.937 18.996,13.798 19,13.537 19,13.537 19,12.662 18.877,11.799 18.635,10.97 18.603,10.861 18.495,10.799 18.393,10.834 Z M 10.893,13.097 7.7382,11.103 C 7.7382,11.103 7.6554,11.069 7.6132,11.074 7.6132,11.074 7.5304,11.099 7.4981,11.132 7.4333,11.199 7.4187,11.304 7.4609,11.388 L 9.182,14.845 C 9.182,14.845 9.172,14.981 9.172,15.048 9.172,15.57 9.361,16.059 9.705,16.427 10.049,16.796 10.506,17 10.992,17 11.479,17 11.937,16.796 12.281,16.427 12.625,16.059 12.814,15.57 12.814,15.048 12.814,14.527 12.625,14.036 12.281,13.668 11.938,13.299 11.48,13.096 10.994,13.095 Z M 3.5176,11.14 C 3.4679,11.126 3.4138,11.132 3.3691,11.16 3.3245,11.187 3.2928,11.233 3.2793,11.287 3.0945,12.017 3,12.774 3,13.537 3,13.667 3.0098,13.937 3.0098,13.937 3.0146,14.049 3.1,14.136 3.2032,14.136 L 5.5391,14.021 C 5.6374,14.017 5.7247,13.927 5.7247,13.802 5.7207,13.709 5.7188,13.537 5.7188,13.537 5.7188,13.032 5.7804,12.532 5.9024,12.05 5.9304,11.939 5.8691,11.825 5.7657,11.795 Z"/>
</svg>
