<svg xmlns="http://www.w3.org/2000/svg" width="22" height="22" version="1.1">
 <defs>
  <style id="current-color-scheme" type="text/css">
   .ColorScheme-Text { color:#e2d5bc; } .ColorScheme-Highlight { color:#4285f4; } .ColorScheme-NeutralText { color:#ff9800; } .ColorScheme-PositiveText { color:#4caf50; } .ColorScheme-NegativeText { color:#f44336; }
  </style>
 </defs>
 <path style="fill:currentColor" class="ColorScheme-Text" d="m11 3c-1.6621 0-3 1.3381-3 3v5.002c0 1.662 1.3379 2.998 3 2.998 1.662 0 3-1.336 3-2.998v-5.002c0-1.6619-1.338-3-3-3zm-6 7v0.998c0 2.967 2 6.002 5 6.002v2h2v-2c3 0 5-3.036 5-6.002v-0.998h-2v0.998c0 2.234-1.767 4.002-4 4.002-2.2334 0-4-1.768-4-4.002v-0.998h-2z"/>
</svg>
