<svg xmlns="http://www.w3.org/2000/svg" width="22" height="22" version="1.1">
 <defs>
  <style id="current-color-scheme" type="text/css">
   .ColorScheme-Text { color:#e2d5bc; } .ColorScheme-Highlight { color:#4285f4; } .ColorScheme-NeutralText { color:#ff9800; } .ColorScheme-PositiveText { color:#4caf50; } .ColorScheme-NegativeText { color:#f44336; }
  </style>
 </defs>
 <path style="fill:currentColor;opacity:0.3" class="ColorScheme-Text" d="m 10.417556,4.0002741 c -0.6039995,-0.00237 -1.1906955,0.077868 -1.7383485,0.2402344 -0.832589,0.3291024 -1.516407,0.6323071 -0.73831,1.0429687 1.475439,0.770853 2.8654485,1.8222774 4.0685155,3.1542969 1.914157,2.1193269 3.10184,4.6591299 3.646623,7.1640619 0.154209,0.866273 0.903713,0.09868 1.210985,-0.21875 1.680965,-1.74698 1.597303,-6.0334415 -0.972695,-8.8789057 -1.508141,-1.6697929 -3.57482,-2.4964437 -5.47677,-2.5039062 z m 7.406532,0.00586 c -0.204194,-0.018859 -0.427423,0.013669 -0.658228,0.070312 -0.497911,0.1413938 -0.978424,0.5073829 -1.445368,0.8964843 0.31868,0.2641451 0.629039,0.5435534 0.916051,0.8613282 0.110902,0.1227902 0.209881,0.2519012 0.312512,0.3789062 0.119496,-0.057018 0.24919,-0.1092291 0.404312,-0.1445312 0.358329,-0.081548 0.967504,0.1500187 1.250048,0.2519531 0.375949,0.00644 0.449361,-0.5595558 0.365248,-0.9589844 C 18.870263,4.8943639 18.563345,4.5623338 18.370984,4.248321 18.213851,4.0959406 18.028282,4.024992 17.824088,4.0061341 Z M 7.2494655,6.0237116 c -0.04378,0.032066 -0.08704,0.05855 -0.130865,0.091797 -3.310516,2.51173 -5.164007,8.0631814 -3.494274,10.0292964 1.944062,2.289139 7.1665965,2.475433 10.3539125,0.470703 0.27483,-0.172859 0.525971,-0.361976 0.765653,-0.560546 -0.03224,-0.09568 -0.0566,-0.191285 -0.07227,-0.279297 l 0.0078,0.03711 C 14.168986,13.465714 13.052944,11.084846 11.267198,9.107696 10.145769,7.8660665 8.8516215,6.8878589 7.4779895,6.170196 h -0.002 l -0.0019,-0.00195 c -0.07399,-0.03905 -0.148729,-0.09814 -0.224618,-0.1445313 z"/>
</svg>
