<svg xmlns="http://www.w3.org/2000/svg" width="22" height="22" version="1.1">
 <defs>
  <style id="current-color-scheme" type="text/css">
   .ColorScheme-Text { color:#e2d5bc; } .ColorScheme-Highlight { color:#4285f4; } .ColorScheme-NeutralText { color:#ff9800; } .ColorScheme-PositiveText { color:#4caf50; } .ColorScheme-NegativeText { color:#f44336; }
  </style>
 </defs>
 <path style="fill:currentColor" class="ColorScheme-Text" d="m19 11a8 8 0 0 0 -8 -8 8 8 0 0 0 -8 8 8 8 0 0 0 8 8 8 8 0 0 0 8 -8zm-2 0a6 6 0 0 1 -2.023 4.486 1.5 1.5 0 0 1 0.023 0.264 1.5 1.5 0 0 1 -1.5 1.5 1.5 1.5 0 0 1 -1.053 -0.434 6 6 0 0 1 -1.447 0.184 6 6 0 0 1 -3.5527 -1.174 1.5 1.5 0 0 1 -0.6973 0.174 1.5 1.5 0 0 1 -1.5 -1.5 1.5 1.5 0 0 1 0.332 -0.939 6 6 0 0 1 -0.582 -2.561 6 6 0 0 1 3.002 -5.1914 1.5 1.5 0 0 1 -0.002 -0.0586 1.5 1.5 0 0 1 1.5 -1.5 1.5 1.5 0 0 1 1.3008 0.75978 6 6 0 0 1 0.19921 -0.0098 6 6 0 0 1 6 6zm-1 0a5 5 0 0 0 -5 -5 5 5 0 0 0 -0.02148 0.0000029 1.5 1.5 0 0 1 -0.76172 1.0645l0.55273 3.4609a1.5 1.5 0 0 1 1.2305 1.4746 1.5 1.5 0 0 1 -0.22656 0.79102l1.2344 1.543a1.5 1.5 0 0 1 0.492 -0.084 1.5 1.5 0 0 1 0.965 0.352 5 5 0 0 0 1.535 -3.602zm-3.773 3.959-1.235-1.543a1.5 1.5 0 0 1 -0.492 0.084 1.5 1.5 0 0 1 -0.898 -0.301l-1.3989 0.934a1.5 1.5 0 0 1 0.0469 0.367 1.5 1.5 0 0 1 -0.1211 0.59 5 5 0 0 0 2.8711 0.91 5 5 0 0 0 1.008 -0.107 1.5 1.5 0 0 1 -0.008 -0.143 1.5 1.5 0 0 1 0.227 -0.791zm-2.444-4.273-0.554-3.4614a1.5 1.5 0 0 1 -0.8481 -0.4785 5 5 0 0 0 -2.3809 4.2539 5 5 0 0 0 0.4395 2.033 1.5 1.5 0 0 1 0.31055 -0.0332 1.5 1.5 0 0 1 0.89844 0.30078l1.3984-0.93359a1.5 1.5 0 0 1 -0.0469 -0.367 1.5 1.5 0 0 1 0.7832 -1.315z"/>
</svg>
