<svg xmlns="http://www.w3.org/2000/svg" width="22" height="22" version="1.1">
 <defs>
  <style id="current-color-scheme" type="text/css">
   .ColorScheme-Text { color:#d9d9d9; } .ColorScheme-Highlight { color:#4285f4; } .ColorScheme-NeutralText { color:#ff9800; } .ColorScheme-PositiveText { color:#4caf50; } .ColorScheme-NegativeText { color:#f44336; }
  </style>
 </defs>
 <g transform="translate(3,3)">
  <path style="fill:currentColor" class="ColorScheme-Text" d="M 12,10 V 12 H 10 V 14 H 12 V 16 H 14 V 14 H 16 V 12 H 14 V 10 Z M 8,2 C 6.1991,2 4.7401,3.5445 4.5391,5.5391 4.2219,5.6038 4,5.8053 4,6.5 4,6.9819 4.4668,7.9204 5.1719,7.9883 5.593,9.7907 6.7267,10.998 8,11 9.2732,10.998 10.407,9.7907 10.828,7.9883 11.533,7.9204 12,6.9819 12,6.5 12,5.8053 11.778,5.6038 11.461,5.5391 11.26,3.5445 9.8009,2 8,2 Z M 5.7598,11.01 C 3.1048,11.061 1,11.925 1,13 V 14 C 1,14.554 1.446,15 2,15 H 9 V 11.812 C 8.6883,11.925 8.3594,12 8,12 7.1026,12 6.3514,11.618 5.7598,11.01 Z"/>
 </g>
</svg>
