<svg xmlns="http://www.w3.org/2000/svg" width="22" height="22" version="1.1">
 <defs>
  <style id="current-color-scheme" type="text/css">
   .ColorScheme-Text { color:#d9d9d9; } .ColorScheme-Highlight { color:#4285f4; } .ColorScheme-NeutralText { color:#ff9800; } .ColorScheme-PositiveText { color:#4caf50; } .ColorScheme-NegativeText { color:#f44336; }
  </style>
 </defs>
 <g transform="translate(3,3)">
  <path style="fill:currentColor" class="ColorScheme-Text" d="M 16,14 A 2,2 0 0 1 14,16 2,2 0 0 1 12,14 2,2 0 0 1 14,12 2,2 0 0 1 16,14 Z M 4.5,1 C 3.5,1 2.5,1.8 0.5,1.8 H 0 V 16 H 11.77 A 3,3 0 0 1 11,14 3,3 0 0 1 12.324,11.516 C 11.549,11.353 10.775,11 10,11 9,11 8,11.6 8,11.6 V 2.65 C 8,2.65 9,2 10,2 11,2 12,2.65 13,2.65 V 11.174 A 3,3 0 0 1 14,11 3,3 0 0 1 15,11.176 V 1.8 H 14.5 C 12.5,1.8 11.5,1 10.5,1 9.5,1 9,1 7.5,1.8 6,1 5.5,1 4.5,1 Z M 5,2 C 6,2 7,2.65 7,2.65 V 11.6 C 7,11.6 6,11 5,11 4,11 3,11.6 2,11.6 V 2.65 C 2.5,2.65 4,2 5,2 Z"/>
 </g>
</svg>
