<svg xmlns="http://www.w3.org/2000/svg" width="16" height="16" version="1.1" viewBox="0 0 16 16">
 <defs>
  <linearGradient id="linearGradient4177" x1="8" x2="8" y1="15" y2="1" gradientUnits="userSpaceOnUse">
   <stop style="stop-color:#CFD5D6" offset="0"/>
   <stop style="stop-color:#CFD5D6;stop-opacity:0" offset="1" stop-opacity="0"/>
  </linearGradient>
 </defs>
 <path style="fill:url(#linearGradient4177)" d="M 1 1 L 1 15 L 15 15 L 15 1 L 1 1 z"/>
</svg>
