<svg xmlns="http://www.w3.org/2000/svg" width="16" height="16" version="1.1">
 <defs>
  <style id="current-color-scheme" type="text/css">
   .ColorScheme-Text { color:#CFD5D6; } .ColorScheme-Highlight { color:#4285f4; }
  </style>
 </defs>
 <path style="fill:currentColor;opacity:0.3" class="ColorScheme-Text" d="M 16,11 A 5,5 0 0 1 11,16 5,5 0 0 1 6,11 5,5 0 0 1 11,6 5,5 0 0 1 16,11 Z"/>
 <path style="opacity:0.7;fill:currentColor" class="ColorScheme-Text" d="M 11,6 A 5,5 0 0 0 6,11 5,5 0 0 0 11,16 5,5 0 0 0 16,11 5,5 0 0 0 11,6 Z M 11,7 A 4,4 0 0 1 15,11 4,4 0 0 1 11,15 4,4 0 0 1 7,11 4,4 0 0 1 11,7 Z"/>
 <path style="fill:currentColor" class="ColorScheme-Text" d="M 12,0 V 12 H 0 V 10 H 10 V 0 Z"/>
</svg>
