<svg xmlns="http://www.w3.org/2000/svg" width="16" height="16" viewBox="0 0 16 16">
 <defs>
  <style id="current-color-scheme" type="text/css">
   .ColorScheme-Text { color:#CFD5D6; } .ColorScheme-Highlight { color:#4285f4; }
  </style>
 </defs>
 <path style="fill:currentColor" class="ColorScheme-Text" d="M 5 2 L 5 4 L 1 4 L 1 5 L 5 5 L 5 8 L 11 8 L 11 5 L 15 5 L 15 4 L 11 4 L 11 2 L 5 2 z M 10.833984 9 L 10 9.8339844 L 11.666016 11.5 L 10 13.166016 L 10.833984 14 L 12.5 12.333984 L 14.166016 14 L 15 13.166016 L 13.333984 11.5 L 15 9.8339844 L 14.166016 9 L 12.5 10.666016 L 10.833984 9 z"/>
</svg>
