<svg xmlns="http://www.w3.org/2000/svg" width="16" height="16" version="1.1">
 <defs>
  <style id="current-color-scheme" type="text/css">
   .ColorScheme-Text { color:#CFD5D6; } .ColorScheme-Highlight { color:#4285f4; }
  </style>
 </defs>
 <path style="fill:currentColor" class="ColorScheme-Text" d="M 5,6 C 5,6 4,6 4,7 V 12 C 4,13 5,13 5,13 H 9 L 10.5,15 12,13 H 13 C 13,13 14,13 14,12 V 7 C 14,6 13,6 13,6 Z"/>
 <path style="fill:currentColor;opacity:0.3" class="ColorScheme-Text" d="M 3 2 C 3 2 2 2 2 3 L 2 8 C 2 9 3 9 3 9 L 3 6 C 3 5 4 5 4 5 L 12 5 L 12 3 C 12 2 11 2 11 2 L 3 2 z"/>
</svg>
