<svg xmlns="http://www.w3.org/2000/svg" width="16" height="16" version="1.1">
 <path style="fill:#c0c0c0" d="M 7.0410204,0.07422384 C 4.8116734,0.33952165 2.8621484,1.522032 1.5839892,3.2343801 c -0.00139,0.00186 -0.00252,0.00399 -0.00391,0.00586 C 1.4490282,3.4161319 1.3274608,3.5985443 1.2109423,3.7851613 1.191856,3.8156326 1.1729754,3.8462323 1.1543017,3.8769582 1.0515502,4.0465796 0.95543601,4.2208778 0.86523915,4.3984426 0.83928341,4.4502485 0.81389128,4.5023349 0.78906727,4.5546926 0.70919574,4.7208032 0.63490604,4.8902687 0.56641102,5.0625051 0.53936482,5.133096 0.51332054,5.2040666 0.48828602,5.2753957 0.43127271,5.4316119 0.3755107,5.5874577 0.32812977,5.748052 0.30006895,5.8497405 0.27402219,5.951974 0.25000477,6.0546926 0.21396808,6.1975145 0.17668296,6.3405729 0.14844227,6.4863332 0.13083687,6.5882342 0.11520893,6.690467 0.10156727,6.7929739 0.0784155,6.943517 0.05175106,7.0929136 0.03711414,7.2460989 0.02479497,7.4007867 0.01697916,7.5558002 0.01367665,7.7109426 0.00737686,7.8072065 0.00281883,7.9035764 4.77142e-6,8.0000051 v 0.00977 c -1.4294427e-6,0.00197 0,0.00389 0,0.00586 0,0.00532 0.00194279858,0.010311 0.00195311858,0.015625 5.7439e-4,0.2957228 0.02687847,0.5856262 0.05859375,0.8730469 0.01223077,0.1207679 0.02720861,0.2412418 0.04492188,0.3613281 0.0311442,0.1990137 0.075614,0.3920638 0.12109375,0.5859375 0.0628655,0.2641254 0.13913608,0.5248794 0.22851562,0.7812494 0.0377226,0.109071 0.0729947,0.219303 0.11523438,0.326172 0.0789178,0.196064 0.16557438,0.388924 0.25976562,0.578125 0.0303249,0.0618 0.0618924,0.122711 0.09375,0.183594 0.10584231,0.205391 0.22053321,0.4061 0.34375001,0.601563 0.4326016,0.673816 0.9639137,1.278867 1.5761719,1.794922 l 0.00391,0.0039 c 0.3873524,0.324521 0.8045815,0.611611 1.2460938,0.857422 l 0.3632812,-4.226563 1.15625,1.378906 L 7.6718798,8 H 3.4277392 Z M 10.714849,0.48438009 7.832036,6 h 4.220703 l -4.9589842,6.845708 1.9101562,0.199219 -3.1132812,2.662109 c 0.6869267,0.191225 1.3963358,0.289754 2.109375,0.292969 4.1086112,5.74e-4 7.5496762,-3.111243 7.9609382,-7.1992187 6.2e-5,-6.415e-4 -6.3e-5,-0.00131 0,-0.00195 0.02582,-0.2602753 0.03885,-0.5216569 0.03906,-0.7832062 -1.2e-5,-0.00194 1.4e-5,-0.00392 0,-0.00586 -0.0023,-0.325312 -0.02773,-0.6513847 -0.06836,-0.9765625 -0.0049,-0.042359 -0.01008,-0.084678 -0.01563,-0.1269531 -0.09446,-0.6717 -0.271508,-1.335608 -0.535151,-1.9746088 -0.01978,-0.044454 -0.03996,-0.088727 -0.06055,-0.1328125 C 15.207798,4.5396713 15.079015,4.2856881 14.937505,4.0371145 14.900698,3.9701708 14.862934,3.9037577 14.824224,3.8378957 14.458406,3.2370659 14.007879,2.6728625 13.462896,2.1679739 c -0.0046,-0.00456 -0.0091,-0.00912 -0.01367,-0.013672 -0.0037,-0.00337 -0.008,-0.0064 -0.01172,-0.00977 -0.57101,-0.5243802 -1.240785,-0.9860552 -2.013673,-1.36132369 v -0.003906 C 11.192362,0.66970286 10.955761,0.57128222 10.714849,0.48438009 Z"/>
</svg>
