<svg xmlns="http://www.w3.org/2000/svg" width="24" height="24" version="1.1">
 <defs>
  <style id="current-color-scheme" type="text/css">
   .ColorScheme-Text { color:#cbe3e7; } .ColorScheme-Highlight { color:#4285f4; } .ColorScheme-NeutralText { color:#ff9800; } .ColorScheme-PositiveText { color:#4caf50; } .ColorScheme-NegativeText { color:#f44336; }
  </style>
 </defs>
 <g transform="matrix(1,0,0,1,1,1)">
  <path style="opacity:0.3;fill:currentColor" class="ColorScheme-Text" d="M 11,3 A 8,8 0 0 0 3,11 8,8 0 0 0 11,19 8,8 0 0 0 19,11 8,8 0 0 0 11,3 Z M 13,6 C 13.734,6 14.455,6.3515 15.02,6.8984 15.584,7.4454 16,8.2164 16,9.0938 16,9.7828 15.81,10.56 15.391,11.145 15.391,11.145 15.393,11.164 15.398,11.184 15.404,11.203 15.42,11.196 15.428,11.344 15.439,11.565 15.262,11.821 15.1,11.906 15.022,11.947 14.951,11.967 14.881,11.98 14.958,12.432 15.049,12.93 15.18,13.441 15.361,14.153 15.62,14.835 15.896,15.195 16.15,15.525 15.914,16.002 15.498,16 H 8.5 C 8.1787,15.999 7.9411,15.7 8.0137,15.387 8.0997,15.015 8.8171,13.661 8.9121,13.406 9.0071,13.152 8.9742,13.037 8.9902,13.064 9.0072,13.092 8.9529,12.995 8.5059,13 8.2226,13.003 7.9932,12.771 8,12.488 L 8.0059,12.219 C 7.3009,11.548 6.3552,10.854 5.6602,9.9902 5.607,9.9963 5.5535,9.9996 5.5,10 4.6716,10 4,9.3284 4,8.5 4,7.6716 4.6716,7 5.5,7 6.1349,7.0009 6.7005,7.4014 6.9121,8 7.1931,7.9985 8.798,8.0034 9,8 V 7.5 C 9,7.2239 9.2239,7 9.5,7 H 10.238 C 10.305,6.889 10.312,6.7375 10.402,6.6582 10.625,6.463 10.889,6.3425 11.172,6.25 11.737,6.065 12.397,6 13,6 Z M 13,7 C 12.476,7 11.885,7.0694 11.482,7.2012 11.281,7.267 11.132,7.3491 11.062,7.4102 10.994,7.4712 11,7.4728 11,7.5 11,7.7761 10.776,8 10.5,8 10.701,7.9998 10.882,8.1198 10.961,8.3047 11.035,8.4783 11.124,8.6413 11.221,8.8008 11.499,9.1494 11.763,9.5068 12.084,9.7969 12.259,9.9439 12.859,10.333 12.955,10.387 13.238,10.543 13.539,10.693 13.881,10.828 14.169,10.92 14.301,10.932 14.438,10.951 14.449,10.887 14.43,10.84 14.457,10.771 14.476,10.724 14.502,10.678 14.535,10.639 14.774,10.342 15,9.5945 15,9.0938 15,8.5352 14.728,8.008 14.324,7.6172 13.921,7.2264 13.392,7 13,7 Z M 6.9121,9 C 6.8516,9.1713 6.7599,9.33 6.6426,9.4688 7.2486,10.169 8.1032,10.882 8.8652,11.646 8.9623,11.743 9.0149,11.875 9.0117,12.012 L 9.0078,12.207 C 9.3198,12.283 9.6887,12.288 9.8457,12.547 10.098,12.964 9.9827,13.394 9.8477,13.756 9.7127,14.118 9.2939,14.923 9.2559,15 H 14.764 C 14.567,14.569 14.333,14.167 14.211,13.689 14.038,13.012 13.938,12.384 13.855,11.873 13.855,11.873 13.375,11.689 13.295,11.654 12.881,11.489 12.356,11.25 11.725,10.801 11.049,10.32 10.662,9.6889 10.35,9.3125 10.21,9.1447 10.102,9.0557 10.016,9.0039 Z"/>
  <path style="fill:currentColor" class="ColorScheme-Text" d="M 11,3 A 8,8 0 0 0 3.6094,7.9395 8,8 0 0 0 5.3438,16.656 L 8.9492,13.051 C 8.9111,13.032 8.8192,12.996 8.5059,13 8.2226,13.003 7.9932,12.771 8,12.488 L 8.0059,12.219 C 7.3009,11.548 6.3552,10.854 5.6602,9.9902 5.607,9.9963 5.5535,9.9996 5.5,10 4.6716,10 4,9.3284 4,8.5 4,7.6716 4.6716,7 5.5,7 6.1349,7.0009 6.7005,7.4014 6.9121,8 7.1931,7.9985 8.798,8.0034 9,8 V 7.5 C 9,7.2239 9.2239,7 9.5,7 H 10.238 C 10.305,6.889 10.312,6.7375 10.402,6.6582 10.578,6.5041 10.784,6.4043 11,6.3203 Z M 11,7.5 C 11,7.7761 10.776,8 10.5,8 10.701,7.9998 10.882,8.1198 10.961,8.3047 10.972,8.3307 10.988,8.3534 11,8.3789 Z M 6.9121,9 C 6.8516,9.1713 6.7599,9.33 6.6426,9.4688 7.2486,10.169 8.1032,10.882 8.8652,11.646 8.9623,11.743 9.0149,11.875 9.0117,12.012 L 9.0078,12.207 C 9.2185,12.258 9.451,12.282 9.6309,12.369 L 11,11 V 10.125 C 10.736,9.8215 10.527,9.526 10.35,9.3125 10.21,9.1447 10.102,9.0557 10.016,9.0039 Z"/>
 </g>
</svg>
