<svg xmlns="http://www.w3.org/2000/svg" width="24" height="24" version="1.1">
 <defs>
  <style id="current-color-scheme" type="text/css">
   .ColorScheme-Text { color:#cbe3e7; } .ColorScheme-Highlight { color:#4285f4; } .ColorScheme-NeutralText { color:#ff9800; } .ColorScheme-PositiveText { color:#4caf50; } .ColorScheme-NegativeText { color:#f44336; }
  </style>
 </defs>
 <path style="fill:currentColor" class="ColorScheme-Text" d="M 17.000075,5 C 14.894406,5.000493 13.14967,6.6333541 13.009841,8.734375 L 11.033278,12.001953 A 3,3 0 0 0 11.000075,12 3,3 0 0 0 8.7969502,12.96875 L 4.4082783,11.085938 A 0.99811608,0.99864687 0 0 0 4.0215596,11 0.99811608,0.99864687 0 0 0 3.621169,12.923828 L 8.0078877,14.804688 A 3,3 0 0 0 8.0000752,15 3,3 0 0 0 11.000075,18 3,3 0 0 0 14.000075,15 3,3 0 0 0 13.994216,14.886719 L 17.339919,12.982422 C 19.408619,12.806026 20.998458,11.076206 21.000075,9 21.000075,6.790861 19.209214,4.9999999 17.000075,5 Z M 17.000075,6 C 18.656929,5.9999999 20.000075,7.3431457 20.000075,9 20.000075,10.656854 18.656929,12 17.000075,12 15.343221,12 14.000075,10.656854 14.000075,9 14.000075,7.3431457 15.343221,5.9999999 17.000075,6 Z M 17.000075,7 C 15.895506,7.0000001 15.000075,7.8954305 15.000075,9 15.000075,10.10457 15.895506,11 17.000075,11 18.104644,11 19.000075,10.10457 19.000075,9 19.000075,7.8954305 18.104644,7.0000001 17.000075,7 Z M 11.000075,13 A 2,2 0 0 1 13.000075,15 2,2 0 0 1 11.000075,17 2,2 0 0 1 9.0176533,15.238281 L 10.607497,15.919922 A 0.99922398,0.99975537 0 1 0 11.394606,14.082031 L 9.8028096,13.400391 A 2,2 0 0 1 11.000075,13 Z"/>
 <path style="fill:currentColor" class="ColorScheme-Text" d="M 13.349609,12.990234 A 3.9999998,3.9999998 0 0 0 13.363281,13.001953 L 13.353516,13 Z"/>
</svg>
