<svg xmlns="http://www.w3.org/2000/svg" width="24" height="24" version="1.1">
 <defs>
  <style id="current-color-scheme" type="text/css">
   .ColorScheme-Text { color:#cbe3e7; } .ColorScheme-Highlight { color:#4285f4; } .ColorScheme-NeutralText { color:#ff9800; } .ColorScheme-PositiveText { color:#4caf50; } .ColorScheme-NegativeText { color:#f44336; }
  </style>
 </defs>
 <path opacity=".3" style="fill:currentColor" class="ColorScheme-Text" d="m10.043 6.0004c-0.392 0.011001-0.791 0.083004-1.186 0.21701-1.691 0.57503-2.975 2.2281-3.352 4.2982-1.11 0.26801-2.061 1.2571-2.389 2.6661-0.465 2.0001 0.502 4.0782 2.155 4.6402 0.027 0.008 0.055 0.013 0.082 0.02 0.228 0.099 0.472 0.15801 0.729 0.15801h11.988c0.429 0 0.824-0.15601 1.159-0.41502 1.34-0.77404 2.07-2.6151 1.654-4.4032-0.307-1.3211-1.162-2.2781-2.182-2.6131-0.009-0.044-0.017-0.087-0.027-0.13201-0.465-2.0001-2.183-3.1691-3.836-2.6061-0.317 0.10801-0.61 0.28001-0.876 0.49402-0.911-1.4811-2.372-2.3651-3.918-2.3231z"/>
</svg>
