<svg xmlns="http://www.w3.org/2000/svg" width="16" height="16" version="1.1">
 <path style="opacity:0.3;fill:#cbe3e7" d="M 8 0 A 3 3 0 0 0 5 3 L 5 5 L 4 5 C 3.446 5 3 5.4460001 3 6 L 3 10 C 3 10.554 3.446 11 4 11 L 10 11 L 10 10 L 13 10 L 13 6 C 13 5.4460001 12.554 5 12 5 L 11 5 L 11 3 A 3 3 0 0 0 8 0 z M 8 2 C 8.575974 2 9 2.424026 9 3 L 9 5 L 7 5 L 7 3 C 7 2.424026 7.424026 2 8 2 z M 7 12 L 7 13 L 5 13 L 5 14 L 5 16 L 10 16 L 10 14 L 10 13 L 9 13 L 9 12 L 7 12 z M 1 14 C 0.446 14 0 14.446 0 15 C 0 15.554 0.446 16 1 16 L 4 16 L 4 14 L 1 14 z"/>
 <path style="fill:#cbe3e7" d="m 11,11 v 1 c 0,0.28 0.1,0.54 0.28,0.72 l 0.78,0.78 -0.78,0.78 C 11.1,14.47 11,14.73 11,15 v 1 h 1 c 0.28,0 0.54,-0.1 0.72,-0.28 l 0.78,-0.78 0.78,0.78 C 14.46,15.9 14.73,16 15,16 h 1 v -1 c 0,-0.27 -0.1,-0.53 -0.28,-0.72 L 14.94,13.5 15.72,12.72 C 15.9,12.54 16,12.28 16,12 v -1 h -1 c -0.27,0 -0.54,0.1 -0.72,0.28 L 13.5,12.07 12.72,11.28 C 12.54,11.1 12.28,11 12,11 Z"/>
</svg>
