<svg xmlns="http://www.w3.org/2000/svg" width="16" height="16" version="1.1">
 <path style="fill:#cbe3e7" d="M 13.5,16 C 14.88,16 16,14.88 16,13.5 16,12.23 15.04,11.19 13.81,11.03 13.41,9.86 12.31,9 11,9 9.69,9 8.6,9.86 8.19,11.03 6.96,11.19 6,12.23 6,13.5 6,14.88 7.12,16 8.5,16"/>
 <path style="fill:#cbe3e7" d="M 8,1 C 4.1145,0.999 1,4.134 1,8 1,10.841 2.6956,13.28 5.127,14.377 5.0526,14.095 5,13.804 5,13.5 5,12.309 5.6566,11.348 6.5957,10.758 5.6043,9.6168 5,8.1303 5,6.5 5.0014,4.267 6.1294,2.19 8,1 Z"/>
</svg>
