<svg xmlns="http://www.w3.org/2000/svg" width="22" height="22" version="1.1">
 <defs>
  <style id="current-color-scheme" type="text/css">
   .ColorScheme-Text { color:#e2d5bc; } .ColorScheme-Highlight { color:#4285f4; } .ColorScheme-NeutralText { color:#ff9800; } .ColorScheme-PositiveText { color:#4caf50; } .ColorScheme-NegativeText { color:#f44336; }
  </style>
 </defs>
 <path style="fill:currentColor" class="ColorScheme-Text" d="M 5,3 C 3.892,3 3,3.892 3,5 V 17 C 3,18.108 3.892,19 5,19 H 17 C 18.108,19 19,18.108 19,17 V 5 C 19,3.892 18.108,3 17,3 Z M 9.6816,6 H 10 V 6.7559 H 9.6465 C 9.1745,6.7559 8.8682,6.835 8.7266,6.9902 8.5816,7.1419 8.5078,7.4679 8.5078,7.9688 V 9.2812 C 8.5078,9.8351 8.4331,10.236 8.2812,10.486 8.1296,10.737 7.8664,10.906 7.4922,10.994 7.8664,11.089 8.1296,11.263 8.2812,11.514 8.433,11.764 8.5078,12.165 8.5078,12.715 V 14.027 C 8.5078,14.532 8.5816,14.858 8.7266,15.01 8.8682,15.161 9.1745,15.238 9.6465,15.238 H 10 V 16 H 9.6816 C 8.8422,16 8.2818,15.87 8.002,15.609 7.7188,15.348 7.5781,14.826 7.5781,14.047 V 12.783 C 7.5781,12.251 7.4867,11.882 7.3047,11.678 7.1226,11.473 6.7932,11.371 6.3145,11.371 H 6 V 10.613 H 6.3145 C 6.7932,10.613 7.1226,10.514 7.3047,10.312 7.4867,10.108 7.5781,9.7424 7.5781,9.2168 V 7.9473 C 7.5781,7.1677 7.7188,6.6481 8.002,6.3906 8.2818,6.1296 8.8422,6 9.6816,6 Z M 12,6 H 12.318 C 13.158,6 13.718,6.1296 13.998,6.3906 14.281,6.6481 14.422,7.1677 14.422,7.9473 V 9.2168 C 14.422,9.7424 14.513,10.108 14.695,10.312 14.877,10.514 15.207,10.613 15.686,10.613 H 16 V 11.371 H 15.686 C 15.207,11.371 14.877,11.473 14.695,11.678 14.513,11.882 14.422,12.251 14.422,12.783 V 14.047 C 14.422,14.826 14.281,15.348 13.998,15.609 13.718,15.87 13.158,16 12.318,16 H 12 V 15.238 H 12.354 C 12.826,15.238 13.132,15.161 13.273,15.01 13.418,14.858 13.492,14.532 13.492,14.027 V 12.715 C 13.492,12.165 13.567,11.764 13.719,11.514 13.87,11.263 14.134,11.089 14.508,10.994 14.134,10.906 13.87,10.737 13.719,10.486 13.567,10.236 13.492,9.8351 13.492,9.2812 V 7.9688 C 13.492,7.468 13.418,7.1419 13.273,6.9902 13.132,6.835 12.826,6.7559 12.354,6.7559 H 12 Z"/>
</svg>
