<svg xmlns="http://www.w3.org/2000/svg" width="22" height="22" version="1.1" viewBox="0 0 22 22">
 <defs>
  <style id="current-color-scheme" type="text/css">
   .ColorScheme-Text { color:#e2d5bc; } .ColorScheme-Highlight { color:#4285f4; } .ColorScheme-NeutralText { color:#ff9800; } .ColorScheme-PositiveText { color:#4caf50; } .ColorScheme-NegativeText { color:#f44336; }
  </style>
 </defs>
 <path style="fill:currentColor" class="ColorScheme-Text" d="m 4,5 v 2 h 6 V 5 Z m 8,0 v 2 h 6 V 5 Z M 4,8 v 2 h 6 V 8 Z m 8,0 v 2 h 6 V 8 Z m -8,3 v 2 h 6 v -2 z m 8,0 v 2 h 6 v -2 z m -8,3 v 2 h 6 v -2 z m 8,0 v 2 h 6 v -2 z"/>
</svg>
