<svg xmlns="http://www.w3.org/2000/svg" width="20" height="20" version="1.1">
 <defs>
  <style id="current-color-scheme" type="text/css">
   .ColorScheme-Text { color:#e2d5bc; } .ColorScheme-Highlight { color:#4285f4; } .ColorScheme-NeutralText { color:#ff9800; } .ColorScheme-PositiveText { color:#4caf50; } .ColorScheme-NegativeText { color:#f44336; }
  </style>
 </defs>
 <path style="opacity:0.3;fill:currentColor" class="ColorScheme-Text" d="M 1,1 H 19 V 19 H 1 Z"/>
 <path style="fill:currentColor" class="ColorScheme-Text" d="M 1,10 H 10 V 19 H 1 Z M 10,1 H 19 V 10 H 10 Z"/>
</svg>
