<svg xmlns="http://www.w3.org/2000/svg" width="20" height="20" version="1.1">
 <defs>
  <style id="current-color-scheme" type="text/css">
   .ColorScheme-Text { color:#e2d5bc; } .ColorScheme-Highlight { color:#4285f4; } .ColorScheme-NeutralText { color:#ff9800; } .ColorScheme-PositiveText { color:#4caf50; } .ColorScheme-NegativeText { color:#f44336; }
  </style>
 </defs>
 <path style="opacity:0.3;fill:currentColor" class="ColorScheme-Text" d="M 1,1 H 19 V 19 H 1 Z"/>
 <path style="opacity:0.3;fill:currentColor" class="ColorScheme-Text" d="M 3,3 H 17 V 17 H 3 Z"/>
 <path style="opacity:0.3;fill:currentColor" class="ColorScheme-Text" d="M 5,5 H 15 V 15 H 5 Z"/>
 <path style="opacity:0.3;fill:currentColor" class="ColorScheme-Text" d="M 7,7 H 13 V 13 H 7 Z"/>
 <path style="fill:currentColor" class="ColorScheme-Text" d="M 9,9 H 11 V 11 H 9 Z"/>
</svg>
