<svg xmlns="http://www.w3.org/2000/svg" width="22" height="22" version="1.1">
 <defs>
  <style id="current-color-scheme" type="text/css">
   .ColorScheme-Text { color:#e2d5bc; } .ColorScheme-Highlight { color:#4285f4; } .ColorScheme-NeutralText { color:#ff9800; } .ColorScheme-PositiveText { color:#4caf50; } .ColorScheme-NegativeText { color:#f44336; }
  </style>
 </defs>
 <g transform="translate(3,3)">
  <path style="fill:currentColor" class="ColorScheme-Text" d="M 3,1 C 1,1 1,3 1,3 V 7 H 3 V 3 H 13 V 7 H 15 V 3 C 15,3 15,1 13,1 Z M 9,9 C 8,9 8,10 8,10 V 14 C 8,15 9,15 9,15 H 14 C 15,15 15,14 15,14 V 10 C 15,9 14,9 14,9 Z M 3,9 V 11 H 1 V 13 H 3 V 15 H 5 V 13 H 7 V 11 H 5 V 9 Z M 10,4 V 6 H 12 V 4 Z M 7,4 V 6 H 9 V 4 Z M 4,4 V 6 H 6 V 4 Z"/>
 </g>
</svg>
