<svg xmlns="http://www.w3.org/2000/svg" width="22" height="22" version="1.1">
 <defs>
  <style id="current-color-scheme" type="text/css">
   .ColorScheme-Text { color:#e2d5bc; } .ColorScheme-Highlight { color:#4285f4; } .ColorScheme-NeutralText { color:#ff9800; } .ColorScheme-PositiveText { color:#4caf50; } .ColorScheme-NegativeText { color:#f44336; }
  </style>
 </defs>
 <g transform="translate(3,3)">
  <path style="fill:currentColor" class="ColorScheme-Text" d="M 11,1 8,5 H 10 V 8 H 12 V 5 H 14 Z M 2.5,2 A 1.5,1.5 0 0 0 1,3.5 1.5,1.5 0 0 0 2.5,5 1.5,1.5 0 0 0 4,3.5 1.5,1.5 0 0 0 2.5,2 Z M 2.5,6 A 1.5,1.5 0 0 0 1,7.5 1.5,1.5 0 0 0 2.5,9 1.5,1.5 0 0 0 4,7.5 1.5,1.5 0 0 0 2.5,6 Z M 7,7 V 10 H 5 L 8,14 11,10 H 9 V 7 Z M 2.5,10 A 1.5,1.5 0 0 0 1,11.5 1.5,1.5 0 0 0 2.5,13 1.5,1.5 0 0 0 4,11.5 1.5,1.5 0 0 0 2.5,10 Z"/>
 </g>
</svg>
