<svg xmlns="http://www.w3.org/2000/svg" width="22" height="22" version="1.1">
 <defs>
  <style id="current-color-scheme" type="text/css">
   .ColorScheme-Text { color:#e2d5bc; } .ColorScheme-Highlight { color:#4285f4; } .ColorScheme-NeutralText { color:#ff9800; } .ColorScheme-PositiveText { color:#4caf50; } .ColorScheme-NegativeText { color:#f44336; }
  </style>
 </defs>
 <path style="fill:currentColor" class="ColorScheme-Text" d="m 4,4 v 6 h 2 v 4 2 h 6 v 2 h 6 v -6 h -6 v 2 H 8 v -4 h 2 V 8 h 2 v 2 h 6 V 4 H 12 V 6 H 10 V 4 Z M 6,6 H 8 V 8 H 6 Z m 8,0 h 2 v 2 h -2 z"/>
</svg>
