<svg xmlns="http://www.w3.org/2000/svg" width="16" height="16" version="1.1" viewBox="0 0 16 16">
 <defs>
  <style id="current-color-scheme" type="text/css">
   .ColorScheme-Text { color:#d0d0d0; } .ColorScheme-Highlight { color:#4285f4; } .ColorScheme-NeutralText { color:#ff9800; } .ColorScheme-PositiveText { color:#4caf50; } .ColorScheme-NegativeText { color:#f44336; }
  </style>
 </defs>
 <circle style="opacity:0.5;fill:currentColor" class="ColorScheme-Text" cx="8" cy="6" r="5"/>
 <circle style="fill:currentColor" class="ColorScheme-Text" cx="6" cy="10" r="5"/>
 <circle cx="10" cy="10" r="5" style="opacity:0.3;fill:currentColor" class="ColorScheme-Text"/>
</svg>
