<svg xmlns="http://www.w3.org/2000/svg" width="16" height="16" version="1.1">
 <defs>
  <style id="current-color-scheme" type="text/css">
   .ColorScheme-Text { color:#d0d0d0; } .ColorScheme-Highlight { color:#4285f4; } .ColorScheme-NeutralText { color:#ff9800; } .ColorScheme-PositiveText { color:#4caf50; } .ColorScheme-NegativeText { color:#f44336; }
  </style>
 </defs>
 <path style="fill:currentColor" class="ColorScheme-Text" d="M 8 0 A 8 8 0 0 0 1.4433594 3.4433594 L 0 2 L 0 6 L 0.25976562 6 L 2.3515625 6 L 4 6 L 2.8828125 4.8828125 A 6 6 0 0 1 8 2 A 6 6 0 0 1 14 8 A 6 6 0 0 1 8 14 A 6 6 0 0 1 2.3496094 10 L 0.265625 10 A 8 8 0 0 0 8 16 A 8 8 0 0 0 16 8 A 8 8 0 0 0 8 0 z M 5 5 L 5 6 C 5 6.276 5.0992969 6.53765 5.2792969 6.71875 L 6.5605469 8 L 5.2792969 9.28125 C 5.0992969 9.46225 5 9.7239 5 10 L 5 11 L 6 11 C 6.28 11 6.5407031 10.89975 6.7207031 10.71875 L 8 9.4335938 L 9.2792969 10.71875 C 9.4592969 10.89975 9.72 11 10 11 L 11 11 L 11 10 C 11 9.7239 10.900703 9.46215 10.720703 9.28125 L 9.4394531 8 L 10.720703 6.71875 C 10.900703 6.53765 11 6.276 11 6 L 11 5 L 10 5 C 9.72 5 9.4592969 5.10025 9.2792969 5.28125 L 8 6.5585938 L 6.7207031 5.28125 C 6.5407031 5.10025 6.28 5 6 5 L 5 5 z"/>
</svg>
