<svg xmlns="http://www.w3.org/2000/svg" width="16" height="16" version="1.1">
 <defs>
  <style id="current-color-scheme" type="text/css">
   .ColorScheme-Text { color:#d0d0d0; } .ColorScheme-Highlight { color:#4285f4; } .ColorScheme-NeutralText { color:#ff9800; } .ColorScheme-PositiveText { color:#4caf50; } .ColorScheme-NegativeText { color:#f44336; }
  </style>
 </defs>
 <circle style="fill:currentColor" class="ColorScheme-Text" cx="14" cy="8" r="2"/>
 <path style="fill:currentColor" class="ColorScheme-Text" d="M 0,9 H 7 L 3.5,12.5 5,14 11,8 5,2 3.5,3.5 7,7 H 0 Z"/>
</svg>
