<svg xmlns="http://www.w3.org/2000/svg" width="16" height="16" version="1.1">
 <defs>
  <style id="current-color-scheme" type="text/css">
   .ColorScheme-Text { color:#d0d0d0; } .ColorScheme-Highlight { color:#4285f4; } .ColorScheme-NeutralText { color:#ff9800; } .ColorScheme-PositiveText { color:#4caf50; } .ColorScheme-NegativeText { color:#f44336; }
  </style>
 </defs>
 <path style="fill:currentColor" class="ColorScheme-Text" d="M 12.292,3 3,12.292 V 13 H 3.708 L 13,3.708 V 3 Z"/>
 <path style="fill:currentColor" class="ColorScheme-Text" d="M 0,11 H 5 V 16 H 0 Z M 11,0 H 16 V 5 H 11 Z"/>
</svg>
