<svg xmlns="http://www.w3.org/2000/svg" width="16" height="16" version="1.1">
 <defs>
  <style id="current-color-scheme" type="text/css">
   .ColorScheme-Text { color:#d0d0d0; } .ColorScheme-Highlight { color:#4285f4; } .ColorScheme-NeutralText { color:#ff9800; } .ColorScheme-PositiveText { color:#4caf50; } .ColorScheme-NegativeText { color:#f44336; }
  </style>
 </defs>
 <path style="fill:currentColor" class="ColorScheme-Text" d="M 2,1 C 1,1 1,2 1,2 V 3 C 1,3 1,4 2,4 H 3 V 12 H 2 C 1,12 1,13 1,13 V 14 C 1,14 1,15 2,15 H 7 C 8,15 8,14 8,14 V 13 C 8,13 8,12 7,12 H 6 V 4 H 7 C 8,4 8,3 8,3 V 2 C 8,2 8,1 7,1 Z M 8,8 C 7,8 7,9 7,9 V 11 C 7,11 7,12 8,12 H 15 C 16,12 16,11 16,11 V 9 C 16,9 16,8 15,8 H 14 C 13,8 13,9 13,9 H 10 C 10,9 10,8 9,8 Z"/>
</svg>
