<svg xmlns="http://www.w3.org/2000/svg" width="24" height="24" version="1">
 <rect style="opacity:0.2" width="20" height="12" x="2" y="9.5" rx="1" ry="1"/>
 <path style="fill:#7CB34F" d="M 2,17 C 2,17.554 2.446,18 3,18 H 21 C 21.554,18 22,17.554 22,17 V 6 C 22,5.446 21.554,5 21,5 H 11 V 4 C 11,3.446 10.554,3 10,3 H 3 C 2.446,3 2,3.446 2,4"/>
 <rect style="opacity:0.2" width="20" height="12" x="2" y="8.5" rx="1" ry="1"/>
 <rect style="fill:#e4e4e4" width="16" height="8" x="4" y="7" rx="1" ry="1"/>
 <rect style="fill:#7CB34F" width="20" height="12" x="2" y="9" rx="1" ry="1"/>
 <path style="opacity:0.1;fill:#ffffff" d="M 3,3 C 2.446,3 2,3.446 2,4 V 4.5 C 2,3.946 2.446,3.5 3,3.5 H 10 C 10.554,3.5 11,3.946 11,4.5 V 4 C 11,3.446 10.554,3 10,3 Z M 11,5 V 5.5 H 21 C 21.554,5.5 22,5.946 22,6.5 V 6 C 22,5.446 21.554,5 21,5 Z"/>
 <path style="fill:#0E0A17" d="M 11.818359 11 A 3.6363636 3.6363636 0 0 0 8.4707031 13.216797 A 2.9090909 2.9090909 0 0 0 6 16.091797 A 2.9090909 2.9090909 0 0 0 8.7695312 18.992188 L 8.7695312 19 L 15.835938 19 A 1.8008658 1.8008658 0 0 0 16.041016 18.986328 A 1.75 1.75 0 0 0 16.25 19 A 1.75 1.75 0 0 0 18 17.25 A 1.75 1.75 0 0 0 16.804688 15.591797 A 1.8181818 1.8181818 0 0 0 16.908203 15 A 1.8181818 1.8181818 0 0 0 15.148438 13.185547 A 3.6363636 3.6363636 0 0 0 11.818359 11 z M 10 13 L 11 13 L 12.910156 13 L 12.910156 16 L 11 16 L 11 17.5 L 10 17.5 L 10 16 L 10 13 z M 11 14 L 11 15 L 12 15 L 12 14 L 11 14 z"/>
</svg>
