<svg xmlns="http://www.w3.org/2000/svg" width="24" height="24" viewBox="0 0 24 24">
 <defs>
  <style id="current-color-scheme" type="text/css">
   .ColorScheme-Text { color:#d9d9d9; } .ColorScheme-Highlight { color:#4285f4; } .ColorScheme-NeutralText { color:#ff9800; } .ColorScheme-PositiveText { color:#4caf50; } .ColorScheme-NegativeText { color:#f44336; }
  </style>
 </defs>
 <path style="fill:currentColor" class="ColorScheme-Text" d="M 5 1 L 5 3 L 0 3 L 0 7 L 5 7 L 5 9 L 0 9 L 0 13 L 5 13 L 5 15 L 7 15 L 7 1 L 5 1 z M 14 1 L 14 3 L 9 3 L 9 7 L 14 7 L 14 9 L 9 9 L 9 13 L 14 13 L 14 15 L 16 15 L 16 1 L 14 1 z" transform="translate(4 4)"/>
</svg>
