<svg xmlns="http://www.w3.org/2000/svg" width="24" height="24" version="1.1">
 <defs>
  <style id="current-color-scheme" type="text/css">
   .ColorScheme-Text { color:#d9d9d9; } .ColorScheme-Highlight { color:#4285f4; } .ColorScheme-NeutralText { color:#ff9800; } .ColorScheme-PositiveText { color:#4caf50; } .ColorScheme-NegativeText { color:#f44336; }
  </style>
 </defs>
 <g transform="matrix(1,0,0,1,1,1)">
  <path style="fill:currentColor" class="ColorScheme-Text" d="M 4 3 C 3.446 3 3 3.446 3 4 L 4 4 L 5 4 L 5 3 L 4 3 z M 6 3 L 6 4 L 8 4 L 8 3 L 6 3 z M 9 3 L 9 4 L 11 4 L 11 3 L 9 3 z M 12 3 L 12 4 L 14 4 L 14 3 L 12 3 z M 15 3 L 15 4 L 17 4 L 17 3 L 15 3 z M 18 3 L 18 4 L 18 5 L 19 5 L 19 4 C 19 3.446 18.554 3 18 3 z M 3 5 L 3 7 L 4 7 L 4 5 L 3 5 z M 6 6 L 6 8 L 12 8 L 12 6 L 6 6 z M 18 6 L 18 8 L 19 8 L 19 6 L 18 6 z M 3 8 L 3 10 L 4 10 L 4 8 L 3 8 z M 18 9 L 18 11 L 19 11 L 19 9 L 18 9 z M 8 10 L 8 12 L 14 12 L 14 10 L 8 10 z M 3 11 L 3 13 L 4 13 L 4 11 L 3 11 z M 18 12 L 18 14 L 19 14 L 19 12 L 18 12 z M 3 14 L 3 16 L 4 16 L 4 14 L 3 14 z M 10 14 L 10 16 L 16 16 L 16 14 L 10 14 z M 18 15 L 18 17 L 19 17 L 19 15 L 18 15 z M 3 17 L 3 18 C 3 18.554 3.446 19 4 19 L 4 18 L 4 17 L 3 17 z M 5 18 L 5 19 L 7 19 L 7 18 L 5 18 z M 8 18 L 8 19 L 10 19 L 10 18 L 8 18 z M 11 18 L 11 19 L 13 19 L 13 18 L 11 18 z M 14 18 L 14 19 L 16 19 L 16 18 L 14 18 z M 17 18 L 17 19 L 18 19 C 18.554 19 19 18.554 19 18 L 18 18 L 17 18 z"/>
 </g>
</svg>
