<svg xmlns="http://www.w3.org/2000/svg" width="24" height="24" version="1.1">
 <defs>
  <style id="current-color-scheme" type="text/css">
   .ColorScheme-Text { color:#d9d9d9; } .ColorScheme-Highlight { color:#4285f4; } .ColorScheme-NeutralText { color:#ff9800; } .ColorScheme-PositiveText { color:#4caf50; } .ColorScheme-NegativeText { color:#f44336; }
  </style>
 </defs>
 <path style="fill:currentColor" class="ColorScheme-Text" d="m 12,5 a 7,7 0 0 0 -7,7 7,7 0 0 0 7,7 7,7 0 0 0 7,-7 7,7 0 0 0 -0.771484,-3.175781 l -1.517578,1.517578 A 5,5 0 0 1 17,12 5,5 0 0 1 12,17 5,5 0 0 1 7,12 5,5 0 0 1 12,7 5,5 0 0 1 15.994141,9 L 17.419922,7.5761719 A 7,7 0 0 0 12,5 Z m 0,3 C 10.892,8 9.8929219,8.446922 9.1699219,9.169922 L 9.8769531,9.876953 C 10.419203,9.334703 11.169,9 12,9 c 1.662,0 3,1.338 3,3 0,1.662 -1.338,3 -3,3 -1.662,0 -3,-1.338 -3,-3 0,-0.30185 0.056502,-0.586928 0.1386719,-0.861328 l -0.78125,-0.78125 C 8.1318319,10.859002 8,11.41251 8,12 c 0,2.216 1.784,4 4,4 2.216,0 4,-1.784 4,-4 0,-2.216 -1.784,-4 -4,-4 z m 0,2 c -1.104569,0 -2,0.895431 -2,2 0,1.10457 0.895431,2 2,2 0.911645,-4.31e-4 1.707636,-0.617304 1.935547,-1.5 H 12.863281 C 12.68514,12.808554 12.356285,12.999022 12,13 c -0.552285,0 -1,-0.447715 -1,-1 0,-0.552285 0.447715,-1 1,-1 0.356983,2.82e-4 0.686743,0.190844 0.865234,0.5 h 1.06836 C 13.705865,10.618007 12.910917,10.00132 12,10 Z"/>
</svg>
