<svg xmlns="http://www.w3.org/2000/svg" width="24" height="24" version="1.1">
 <defs>
  <style id="current-color-scheme" type="text/css">
   .ColorScheme-Text { color:#d9d9d9; } .ColorScheme-Highlight { color:#4285f4; } .ColorScheme-NeutralText { color:#ff9800; } .ColorScheme-PositiveText { color:#4caf50; } .ColorScheme-NegativeText { color:#f44336; }
  </style>
 </defs>
 <path style="fill:currentColor" class="ColorScheme-Text" transform="translate(4,4)" d="m 1,2 v 11 2 H 3 14 V 13 H 3 V 2 Z M 4,2 V 3 H 5 V 2 Z M 6,2 V 3 H 7 V 2 Z m 6,1 v 1 h 1 V 3 Z m 1,1 v 1 h 1 V 4 Z m 0,1 h -1 v 1 h 1 z M 12,5 V 4 H 11 V 5 Z M 4,4 V 5 H 5 V 4 Z M 6,4 V 5 H 7 V 4 Z m 3,3 v 1 h 1 V 7 Z m 2,0 v 1 h 1 V 7 Z M 5,9 v 1 H 6 V 9 Z m 1,1 v 1 h 1 v -1 z m 0,1 H 5 v 1 H 6 Z M 5,11 V 10 H 4 v 1 z M 9,9 v 1 h 1 V 9 Z m 2,0 v 1 h 1 V 9 Z"/>
</svg>
