<svg xmlns="http://www.w3.org/2000/svg" width="24" height="24" version="1.1">
 <defs>
  <style id="current-color-scheme" type="text/css">
   .ColorScheme-Text { color:#d9d9d9; } .ColorScheme-Highlight { color:#4285f4; } .ColorScheme-NeutralText { color:#ff9800; } .ColorScheme-PositiveText { color:#4caf50; } .ColorScheme-NegativeText { color:#f44336; }
  </style>
 </defs>
 <g transform="translate(4,4)">
  <path style="fill:currentColor" class="ColorScheme-Text" d="M 1.0195312 1.5 A 0.50005 0.50005 0 0 0 0.96875 1.5019531 A 0.50005 0.50005 0 0 0 0.93554688 2.4980469 C 0.93554688 2.4980469 4.621675 3.0111881 7.234375 4.6738281 C 8.540775 5.5051481 9.5421156 6.5832406 9.7910156 7.9941406 C 10.015866 9.2682406 9.6331 10.904753 8.125 13.001953 L 7.0019531 13.001953 L 7.0019531 16.001953 L 10.001953 16.001953 L 10.001953 14.333984 C 12.361253 13.942784 13.769509 12.885563 14.537109 11.789062 C 15.501909 10.410763 15.501953 9.0019531 15.501953 9.0019531 A 0.50005 0.50005 0 1 0 14.501953 9.0019531 C 14.501953 9.0019531 14.501997 10.093144 13.716797 11.214844 C 13.129217 12.054244 11.940353 12.819328 10.001953 13.173828 L 10.001953 13.001953 L 9.1796875 13.001953 C 10.461688 11.026753 11.031191 9.2716656 10.775391 7.8222656 C 10.461871 6.0456656 9.2132313 4.7487781 7.7695312 3.8300781 C 4.8822313 1.9926781 1.0683594 1.5058594 1.0683594 1.5058594 A 0.50005 0.50005 0 0 0 1.0195312 1.5 z"/>
 </g>
</svg>
