<svg xmlns="http://www.w3.org/2000/svg" width="24" height="24" version="1.1">
 <defs>
  <style id="current-color-scheme" type="text/css">
   .ColorScheme-Text { color:#d9d9d9; } .ColorScheme-Highlight { color:#4285f4; } .ColorScheme-NeutralText { color:#ff9800; } .ColorScheme-PositiveText { color:#4caf50; } .ColorScheme-NegativeText { color:#f44336; }
  </style>
 </defs>
 <g transform="translate(4,4)">
  <path style="fill:currentColor" class="ColorScheme-Text" d="M 13,10 V 11 H 10 V 14 H 13 V 15 L 16,12.5 Z M 0,1 V 15 H 9 V 10 9 H 15 16 V 1 Z M 9,3 H 15 V 4 H 9 Z M 3.5,4 C 3.5,4 5,4 5,5.5 V 7 H 6 V 10 H 1 V 7 H 2 V 5.5 C 2,4 3.5,4 3.5,4 Z M 3.5,5 C 3.5,5 3,5 3,5.5 V 7 H 4 V 5.5 C 4,5 3.5,5 3.5,5 Z M 9,6 H 15 V 7 H 9 Z"/>
 </g>
</svg>
