<svg xmlns="http://www.w3.org/2000/svg" width="16" height="16" version="1.1">
 <defs>
  <style id="current-color-scheme" type="text/css">
   .ColorScheme-Text { color:#e2d5bc; } .ColorScheme-Highlight { color:#4285f4; } .ColorScheme-NeutralText { color:#ff9800; } .ColorScheme-PositiveText { color:#4caf50; } .ColorScheme-NegativeText { color:#f44336; }
  </style>
 </defs>
 <path style="fill:currentColor" class="ColorScheme-Text" d="M 2,1 V 7 H 3 V 9 H 1 V 15 H 7 V 9 H 5 V 7 H 10 V 5 H 11 V 10 H 9 V 15 H 15 V 10 H 13 V 3 H 10 V 1 Z"/>
</svg>
