<svg xmlns="http://www.w3.org/2000/svg" width="16" height="16" version="1.1">
 <defs>
  <style id="current-color-scheme" type="text/css">
   .ColorScheme-Text { color:#e2d5bc; } .ColorScheme-Highlight { color:#4285f4; } .ColorScheme-NeutralText { color:#ff9800; } .ColorScheme-PositiveText { color:#4caf50; } .ColorScheme-NegativeText { color:#f44336; }
  </style>
 </defs>
 <path style="fill:currentColor" class="ColorScheme-Text" d="M 10,0 V 2 H 12 V 14 H 10 V 16 H 16 V 14 H 14 V 2 H 16 V 0 Z M 10,14 5.7148,2 H 4.082 L 0,14 H 2.041 L 2.8887,11 H 6.9082 L 7.7559,14 Z M 4.8984,5.4277 6.0879,9 H 3.707 Z"/>
</svg>
