<svg xmlns="http://www.w3.org/2000/svg" id="Capa_1" width="16" height="16" x="0" y="0" version="1.1" viewBox="0 0 16 16" xml:space="preserve">
 <defs>
  <style id="current-color-scheme" type="text/css">
   .ColorScheme-Text { color:#e2d5bc; } .ColorScheme-Highlight { color:#4285f4; } .ColorScheme-NeutralText { color:#ff9800; } .ColorScheme-PositiveText { color:#4caf50; } .ColorScheme-NegativeText { color:#f44336; }
  </style>
 </defs>
 <path style="fill:currentColor" class="ColorScheme-Text" d="m5 1c-1.1046 0-2 1.3432-2 3s0.8954 3 2 3 2-1.3432 2-3-0.8954-3-2-3zm5 0c-1.1046 0-2 1.3432-2 3s0.8954 3 2 3c1.105 0 2-1.3432 2-3s-0.895-3-2-3zm-8.1133 4.9863c-0.0909 0.0114-0.1776 0.0351-0.2617 0.0742-0.67256 0.3136-0.82714 1.4276-0.3438 2.4864 0.4837 1.0587 1.4212 1.6611 2.0938 1.3476 0.6726-0.3138 0.8274-1.4256 0.3438-2.4843-0.4232-0.9264-1.1955-1.5038-1.8321-1.4239zm12.226 0c-0.636-0.0799-1.409 0.4975-1.832 1.4239-0.483 1.0587-0.329 2.1705 0.344 2.4843 0.673 0.3135 1.61-0.2889 2.094-1.3476 0.483-1.0588 0.329-2.1728-0.344-2.4864-0.084-0.0391-0.171-0.0628-0.262-0.0742zm-6.2751 2.0137s-1.0555-0.003-1.7793 0.6445c-1.0017 0.8974-2.1582 2.8065-2.1582 2.8065-0.6115 0.958-0.9004 1.464-0.9004 1.994 0 1.048 0.7838 1.555 1.8379 1.555 0.4641 0 0.7517 0.005 1.5098-0.387 0 0 0.4921-0.452 1.6523-0.406 1.1494-0.046 1.6406 0.4 1.6406 0.4 0.7584 0.392 1.0584 0.393 1.5234 0.393 1.054 0 1.836-0.508 1.836-1.555 0-0.53-0.289-1.039-0.9-1.996 0 0.001-1.186-1.8746-2.1566-2.8045-0.6786-0.6481-1.7813-0.6445-1.7813-0.6445h-0.3242z"/>
</svg>
