<svg xmlns="http://www.w3.org/2000/svg" width="16" height="16" version="1.1">
 <defs>
  <style id="current-color-scheme" type="text/css">
   .ColorScheme-Text { color:#e2d5bc; } .ColorScheme-Highlight { color:#4285f4; } .ColorScheme-NeutralText { color:#ff9800; } .ColorScheme-PositiveText { color:#4caf50; } .ColorScheme-NegativeText { color:#f44336; }
  </style>
 </defs>
 <path style="fill:currentColor" class="ColorScheme-Text" d="M 13,13 H 16 V 16 H 13 Z M 12,6 V 12 H 6 Z M 0,14 H 4 V 15 H 0 Z M 14,0 H 15 V 4 H 14 Z M 6,14 H 10 V 15 H 6 Z M 14,6 H 15 V 10 H 14 Z"/>
</svg>
