<svg xmlns="http://www.w3.org/2000/svg" width="16" height="16" version="1.1">
 <defs>
  <style id="current-color-scheme" type="text/css">
   .ColorScheme-Text { color:#e2d5bc; } .ColorScheme-Highlight { color:#4285f4; } .ColorScheme-NeutralText { color:#ff9800; } .ColorScheme-PositiveText { color:#4caf50; } .ColorScheme-NegativeText { color:#f44336; }
  </style>
 </defs>
 <path style="fill:currentColor" class="ColorScheme-Text" d="M 8 1 L 0 9 L 1.5 10.5 L 2.5 9.5 L 3.5 15 L 12.5 15 L 13.5 9.5 L 14.5 10.5 L 16 9 L 8 1 z M 8 6 A 2.5 2.5 0 0 1 10.5 8.5 A 2.5 2.5 0 0 1 8 11 A 2.5 2.5 0 0 1 5.5 8.5 A 2.5 2.5 0 0 1 8 6 z M 8 12 A 1 1 0 0 1 9 13 A 1 1 0 0 1 8 14 A 1 1 0 0 1 7 13 A 1 1 0 0 1 8 12 z"/>
</svg>
