<svg xmlns="http://www.w3.org/2000/svg" width="16" height="16" version="1.1">
 <defs>
  <style id="current-color-scheme" type="text/css">
   .ColorScheme-Text { color:#e2d5bc; } .ColorScheme-Highlight { color:#4285f4; } .ColorScheme-NeutralText { color:#ff9800; } .ColorScheme-PositiveText { color:#4caf50; } .ColorScheme-NegativeText { color:#f44336; }
  </style>
  <style id="current-color-scheme-3" type="text/css">
   .ColorScheme-Text { color:#e2d5bc; } .ColorScheme-Highlight { color:#4285f4; } .ColorScheme-NeutralText { color:#ff9800; } .ColorScheme-PositiveText { color:#4caf50; } .ColorScheme-NegativeText { color:#f44336; }
  </style>
 </defs>
 <path style="fill:currentColor" class="ColorScheme-Text" d="M 8 1 L 0 5 L 2 5 L 2 7 L 3 7 L 3 13 L 2 13 L 2 15 L 3 15 L 10 15 L 10 13 L 9 13 L 9 7 L 11 7 L 11 10 L 13 10 L 13 7 L 14 7 L 14 5 L 16 5 L 8 1 z M 5 7 L 7 7 L 7 13 L 5 13 L 5 7 z M 14.980469 11.003906 C 14.938617 11.012276 14.894251 11.03544 14.849609 11.080078 L 14.214844 11.714844 L 15.285156 12.785156 L 15.919922 12.150391 C 16.098491 11.971822 15.919922 11.792969 15.919922 11.792969 L 15.207031 11.080078 C 15.207031 11.080078 15.106025 10.978797 14.980469 11.003906 z M 13.857422 12.072266 L 11 14.927734 L 11 16 L 12.072266 16 L 14.927734 13.142578 L 13.857422 12.072266 z"/>
</svg>
