<svg xmlns="http://www.w3.org/2000/svg" width="16" height="16" version="1.1">
 <defs>
  <style id="current-color-scheme" type="text/css">
   .ColorScheme-Text { color:#CFD5D6; } .ColorScheme-Highlight { color:#4285f4; }
  </style>
 </defs>
 <path style="fill:currentColor" class="ColorScheme-Text" d="M 7.417317,1.0019531 C 6.8133171,0.99958314 6.2266887,1.0798211 5.6790357,1.2421875 4.8464467,1.5712899 4.1626575,1.8744947 4.9407544,2.2851562 6.4161934,3.0560093 7.8060468,4.1074336 9.0091138,5.4394531 9.5324342,6.018866 9.9939903,6.632452 10.409504,7.265625 A 5,5 0 0 1 11.999348,7 5,5 0 0 1 14.901692,7.9335938 C 14.699079,6.4091999 14.070245,4.8083149 12.893879,3.5058594 11.385738,1.8360665 9.3192669,1.0094156 7.417317,1.0019531 Z m 7.40625,0.00586 c -0.204194,-0.018859 -0.427398,0.01367 -0.658203,0.070312 -0.497911,0.1413938 -0.978369,0.5073831 -1.445313,0.8964844 0.31868,0.2641452 0.629004,0.5435533 0.916016,0.8613281 0.110902,0.1227902 0.209869,0.2519012 0.3125,0.3789063 0.119496,-0.057018 0.249175,-0.1092292 0.404297,-0.1445313 0.358329,-0.081548 0.967456,0.1500187 1.25,0.2519531 0.375949,0.00644 0.449347,-0.5595557 0.365234,-0.9589844 C 15.869698,1.8960427 15.562803,1.5640128 15.370442,1.25 15.213309,1.0976196 15.027761,1.0266698 14.823567,1.0078125 Z M 4.2493482,3.0253906 c -0.04378,0.032066 -0.087034,0.05855 -0.1308594,0.091797 -3.31051599,2.51173 -5.1638736,8.0631815 -3.49414064,10.0292965 1.38696024,1.633151 4.43838114,2.185168 7.23242194,1.644532 A 5,5 0 0 1 6.9993482,12 5,5 0 0 1 9.4915357,7.6816406 C 9.1255778,7.136434 8.7186388,6.6095042 8.2669263,6.109375 7.1454973,4.8677455 5.8514958,3.8895379 4.4778638,3.171875 h -0.00195 l -0.00195,-0.00195 C 4.3999614,3.1308688 4.3252372,3.0717819 4.2493482,3.0253906 Z"/>
 <path style="fill:currentColor" class="ColorScheme-Highlight" d="m 12.279689,8.0102171 c -0.768513,-0.05431 -1.562112,0.113216 -2.279506,0.527343 -1.9131511,1.10434 -2.567496,3.5501419 -1.4630249,5.4628909 1.1044721,1.912649 3.5503399,2.567231 5.4633909,1.462891 1.913151,-1.104339 2.567497,-3.548188 1.463025,-5.460938 C 14.773279,8.8069981 13.560545,8.1007331 12.279689,8.0102171 Z m -2.279506,1.9902339 h 0.707096 l 0.232443,0.232422 1.060644,1.060547 1.060644,-1.060547 0.232444,-0.232422 h 0.707095 v 0.707031 l -0.232443,0.232422 -1.060644,1.060547 1.060644,1.060547 0.232443,0.232422 v 0.707031 h -0.707095 l -0.232444,-0.232422 -1.060644,-1.060547 -1.060644,1.060547 -0.232443,0.232422 H 10.000183 V 13.29342 l 0.232443,-0.232422 1.060644,-1.060547 -1.060644,-1.060547 -0.232443,-0.232422 z"/>
</svg>
