<svg xmlns="http://www.w3.org/2000/svg" width="16" height="16" viewBox="0 0 16 16">
 <defs>
  <style id="current-color-scheme" type="text/css">
   .ColorScheme-Text { color:#c0c3cf; } .ColorScheme-Highlight { color:#4285f4; }
  </style>
 </defs>
 <path style="fill:currentColor" class="ColorScheme-Text" d="m 1,1 0,10 -1,0 0,2 14,0 0,-2 -1,0 L 13,1 9,1 9,11 0,11 5,11 5,1 Z m 13,12 0,2 2,0 0,-2 z"/>
</svg>
