<svg xmlns="http://www.w3.org/2000/svg" width="16" height="16" version="1">
 <defs>
  <style id="current-color-scheme" type="text/css">
   .ColorScheme-Text { color:#c0c3cf; } .ColorScheme-Highlight { color:#4285f4; }
  </style>
 </defs>
 <path style="fill:currentColor" class="ColorScheme-Highlight" d="m8 1c-3.878 0-7 3.122-7 7s3.122 7 7 7 7-3.122 7-7-3.122-7-7-7zm-1.5039 4.002c0.5381 0.0186 1.0732 0.2241 1.5019 0.6367 0.3306 0.3176 0.4769 0.5891 0.9747 1.791 0.5195 1.2569 0.6148 1.4535 0.7832 1.6211 0.1803 0.1782 0.3481 0.2383 0.6681 0.2383 0.525 0 0.9-0.3308 0.9-0.7911 0-0.3895-0.134-0.5137-0.822-0.7617-1.0472-0.3836-1.3855-0.7295-1.3868-1.4258 0-0.3714 0.0927-0.6202 0.3282-0.8769 0.3379-0.3664 0.9196-0.4867 1.4356-0.3047 0.22 0.0794 0.682 0.4928 0.682 0.6113 0 0.0576-0.268 0.2338-0.416 0.2754-0.079 0.0207-0.145-0.0059-0.235-0.0937-0.183-0.1782-0.306-0.2344-0.525-0.2344-0.378 0-0.6135 0.2308-0.6135 0.6035 0 0.3715 0.1502 0.4968 0.8945 0.752 1.026 0.3517 1.328 0.6712 1.334 1.4062 0.006 0.635-0.276 1.0922-0.836 1.3633-0.255 0.1223-0.342 0.1387-0.758 0.1387-0.5938-0.0013-0.8601-0.113-1.1931-0.4942-0.2238-0.2563-0.4504-0.7376-1.1777-2.4941-0.3017-0.7279-0.6902-1.0842-1.336-1.2246-0.3272-0.071-0.783-0.0046-1.0801 0.1543-0.2896 0.1538-0.6129 0.501-0.7656 0.8183-0.1262 0.2577-0.1367 0.3293-0.1367 0.7774 0 0.4274 0.0155 0.5292 0.1211 0.7637 0.1601 0.3579 0.476 0.687 0.8223 0.8652 0.2502 0.1282 0.3273 0.1445 0.7265 0.1445 0.3835 0 0.4823-0.0179 0.711-0.1289 0.261-0.1294 0.6127-0.4476 0.7558-0.6855l0.0742-0.1231 0.1465 0.3418c0.0819 0.1882 0.1485 0.3646 0.1485 0.3965 0 0.0941-0.3326 0.4021-0.6368 0.5937-0.4617 0.2896-0.9922 0.3968-1.5586 0.3184v0.002c-0.16-0.0219-0.4448-0.1162-0.6347-0.209-1.2374-0.6022-1.7443-2.119-1.1348-3.3965 0.4352-0.913 1.3414-1.4003 2.2383-1.3691z"/>
</svg>
