<svg xmlns="http://www.w3.org/2000/svg" width="16" height="16" version="1.1" viewBox="0 0 16 16">
 <defs>
  <style id="current-color-scheme" type="text/css">
   .ColorScheme-Text { color:#c0c3cf; } .ColorScheme-Highlight { color:#4285f4; }
  </style>
 </defs>
 <path style="fill:currentColor" class="ColorScheme-Text" d="m 13.456086,1.0006868 c -0.38886,0.011288 -0.758096,0.1736868 -1.029397,0.4526607 l -2.353186,2.3550062 -0.0039,-0.00585 L 8.1355916,1.8669891 6.7240702,3.2796026 8.1609366,4.7175807 1.0000001,11.884057 v 3.115944 h 3.115479 L 11.274466,7.8354729 12.713282,9.273451 14.124804,7.8608375 12.190786,5.9272739 14.543971,3.5722677 C 15.521581,2.6194252 14.82011,0.96132714 13.456086,1.0006868 Z M 8.9973154,5.5468049 10.408838,6.9594183 3.5325442,13.841031 2.1210229,12.428418 Z"/>
</svg>
