<svg xmlns="http://www.w3.org/2000/svg" width="16" height="16" viewBox="0 0 16 16">
 <defs>
  <style id="current-color-scheme" type="text/css">
   .ColorScheme-Text { color:#c0c3cf; } .ColorScheme-Highlight { color:#4285f4; }
  </style>
 </defs>
 <path style="fill:currentColor" class="ColorScheme-Text" d="m1 1v2h2v-2h-2zm3 0v2h5v-2h-5zm8 2l-5 7h3v5l5-7h-3v-5zm-11 1v2h2v-2h-2zm3 0v2h5v-2h-5zm-3 3v2h2v-2h-2zm3 0v2h3v-2h-3z"/>
</svg>
