<svg xmlns="http://www.w3.org/2000/svg" width="16" height="16" version="1.1">
 <defs>
  <style id="current-color-scheme" type="text/css">
   .ColorScheme-Text { color:#c0c3cf; } .ColorScheme-Highlight { color:#4285f4; }
  </style>
 </defs>
 <path style="fill:currentColor" class="ColorScheme-Text" d="M 7,3 V 9 H 4 V 7 H 2 V 9 C 2,9 2,11 4,11 H 7 V 14 H 9 V 11 H 12 C 14,11 14,9 14,9 V 7 H 12 V 9 H 9 V 3 Z M 8,0 5.5,4 H 10.5 Z"/>
 <path style="fill:currentColor" class="ColorScheme-Text" d="M 10,14 A 2,2 0 0 1 8,16 2,2 0 0 1 6,14 2,2 0 0 1 8,12 2,2 0 0 1 10,14 Z M 12,4 H 14 C 14,4 15,4 15,5 V 7 C 15,8 14,8 14,8 H 12 C 12,8 11,8 11,7 V 5 C 11,4 12,4 12,4 Z M 5,6 A 2,2 0 0 1 3,8 2,2 0 0 1 1,6 2,2 0 0 1 3,4 2,2 0 0 1 5,6 Z"/>
</svg>
