<svg xmlns="http://www.w3.org/2000/svg" width="16" height="16" version="1.1">
 <defs>
  <style id="current-color-scheme" type="text/css">
   .ColorScheme-Text { color:#c0c3cf; } .ColorScheme-Highlight { color:#4285f4; }
  </style>
 </defs>
 <path style="fill:currentColor" class="ColorScheme-Text" d="M 12.5,9 C 10.567,9 9,10.567 9,12.5 9,14.433 10.567,16 12.5,16 14.433,16 16,14.433 16,12.5 16,10.567 14.433,9 12.5,9 Z M 12,10 H 13 V 12 H 15 V 13 H 12 Z M 7,2 2,5 7,8 V 6 H 10 C 11.332,6 12.425,6.8362 12.826,8.0176 A 4.5,4.5 0 0 1 14.988,8.752 C 14.857,6.1143 12.669,4 10,4 H 7 Z M 5,12 V 14 H 8.2637 A 4.5,4.5 0 0 1 8,12.5 4.5,4.5 0 0 1 8.0312,12 Z"/>
</svg>
