<svg xmlns="http://www.w3.org/2000/svg" width="16" height="16" version="1.1">
 <defs>
  <style id="current-color-scheme" type="text/css">
   .ColorScheme-Text { color:#c0c3cf; } .ColorScheme-Highlight { color:#4285f4; }
  </style>
 </defs>
 <path style="fill:currentColor" class="ColorScheme-Text" d="M 3.547,3 1,10 H 2 L 2.728,8 H 5.271 L 6,10 H 7 L 4.453,3 Z M 4,4.5 4.908,7 H 3.092 Z M 7,3 V 4 H 11 V 3 Z M 13,3 V 7 L 16,5 Z M 8,6 V 7 H 11 V 6 Z M 9,9 V 10 H 11 V 9 Z M 13,9 V 13 L 16,11 Z M 1,12 V 13 H 11 V 12 Z"/>
</svg>
