<svg xmlns="http://www.w3.org/2000/svg" width="16" height="16" version="1.1">
 <defs>
  <style id="current-color-scheme" type="text/css">
   .ColorScheme-Text { color:#c0c3cf; } .ColorScheme-Highlight { color:#4285f4; }
  </style>
 </defs>
 <path style="fill:currentColor" class="ColorScheme-Text" d="M 0,2 4,6 V 14 L 6,11 V 6 L 10,2 Z M 10,6 V 8 H 8 V 10 H 10 V 12 H 12 V 10 H 14 V 8 H 12 V 6 Z"/>
</svg>
