<svg xmlns="http://www.w3.org/2000/svg" width="16" height="16" version="1.1">
 <defs>
  <style id="current-color-scheme" type="text/css">
   .ColorScheme-Text { color:#c0c3cf; } .ColorScheme-Highlight { color:#4285f4; }
  </style>
 </defs>
 <path style="fill:currentColor" class="ColorScheme-Text" d="M 11,8 V 14 H 12 V 12 L 16,11 12,8 Z M 2,2 C 0,2 0,4 0,4 V 12 C 0,12 0,14 2,14 H 10 V 8 L 8,9 2,6 V 4 L 8,7 14,4 V 6 L 12,7 H 12.334 L 16,9.75 V 4 C 16,4 16,2 14,2 Z"/>
</svg>
