<svg xmlns="http://www.w3.org/2000/svg" width="16" height="16" version="1.1">
 <defs>
  <style id="current-color-scheme" type="text/css">
   .ColorScheme-Text { color:#c0c3cf; } .ColorScheme-Highlight { color:#4285f4; }
  </style>
 </defs>
 <path style="fill:currentColor" class="ColorScheme-Text" d="M 1,0 V 13 H 3 V 2 H 12 V 0 Z M 4,3 V 16 H 15 V 3 Z M 6,5 H 13 V 14 H 6 Z"/>
</svg>
