<svg xmlns="http://www.w3.org/2000/svg" width="16" height="16" version="1.1">
 <g>
  <path style="fill:#d0d0d0" d="M 3.0004,0 A 2.0001,2.0002 0 0 0 1.0122,1.779 L 0.01222,10.779 A 2.0001,2.0002 0 0 0 2.0004,13 H 14 A 2.0001,2.0002 0 0 0 15.988,10.779 L 14.988,1.779 A 2.0001,2.0002 0 0 0 13,0 Z M 9,2 V 4 9 H 11 V 11 H 5.0003 V 9 H 7 V 4.5 L 5.0003,5 V 3 Z"/>
  <path style="fill:#d0d0d0" d="M 5.2738e-4,13.203 V 13.75 C 5.2738e-4,14.962 1.0386,16 2.2504,16 H 13.75 C 14.962,16 16,14.962 16,13.75 V 13.203 C 15.468,13.688 14.775,14 14,14 H 2.0004 C 1.2258,14 0.53212,13.688 5.2738e-4,13.203 Z"/>
 </g>
</svg>
