<svg xmlns="http://www.w3.org/2000/svg" width="24" height="24" version="1.1">
 <defs>
  <style id="current-color-scheme" type="text/css">
   .ColorScheme-Text { color:#e2d5bc; } .ColorScheme-Highlight { color:#4285f4; } .ColorScheme-NeutralText { color:#ff9800; } .ColorScheme-PositiveText { color:#4caf50; } .ColorScheme-NegativeText { color:#f44336; }
  </style>
 </defs>
 <g transform="translate(4,4)">
  <path style="fill:currentColor" class="ColorScheme-Text" d="M 7,5 H 9 V 8 H 11 L 8,11.5 5,8 H 7 Z M 8,2 C 5.93,2 4.17,3.27 3.41,5.06 1.48,5.35 0,7 0,9 0,11.21 1.79,13 4,13 H 12.5 C 14.43,13 16,11.43 16,9.5 16,7.7 14.65,6.23 12.91,6.03 12.45,3.74 10.43,2 8,2 Z"/>
 </g>
</svg>
