<svg xmlns="http://www.w3.org/2000/svg" width="24" height="24" version="1.1">
 <defs>
  <style id="current-color-scheme" type="text/css">
   .ColorScheme-Text { color:#e2d5bc; } .ColorScheme-Highlight { color:#4285f4; } .ColorScheme-NeutralText { color:#ff9800; } .ColorScheme-PositiveText { color:#4caf50; } .ColorScheme-NegativeText { color:#f44336; }
  </style>
 </defs>
 <g transform="translate(4,4)">
  <path style="opacity:0.3;fill:currentColor" class="ColorScheme-Text" d="M 6 1 L 6 6 L 1 6 L 1 15 L 10 15 L 10 10 L 15 10 L 15 1 L 6 1 z"/>
  <path style="opacity:0.3;fill:currentColor" class="ColorScheme-Text" d="M 6,1 V 6 H 1 V 15 L 15,1 Z"/>
  <path style="fill:currentColor" class="ColorScheme-Text" d="M 11,11 H 15 V 15 H 11 Z M 1,1 H 5 V 5 H 1 Z M 4.293,5 11,11.707 V 11 H 11.707 L 5,4.293 V 5 Z"/>
 </g>
</svg>
