<svg xmlns="http://www.w3.org/2000/svg" width="24" height="24" version="1.1">
 <defs>
  <style id="current-color-scheme" type="text/css">
   .ColorScheme-Text { color:#e2d5bc; } .ColorScheme-Highlight { color:#4285f4; } .ColorScheme-NeutralText { color:#ff9800; } .ColorScheme-PositiveText { color:#4caf50; } .ColorScheme-NegativeText { color:#f44336; }
  </style>
 </defs>
 <path style="fill:currentColor" class="ColorScheme-Text" d="M 12,4 A 8,8 0 0 0 5.4433594,7.4433594 L 4,6 v 4 H 4.2597656 6.3515625 8 L 6.8828125,8.882813 A 6,6 0 0 1 12,6 6,6 0 0 1 18,12 6,6 0 0 1 12,18 6,6 0 0 1 6.3496094,14 H 4.265625 A 8,8 0 0 0 12,20 8,8 0 0 0 20,12 8,8 0 0 0 12,4 Z M 9,9 v 1 c 0,0.276 0.099297,0.53765 0.2792969,0.71875 L 10.560547,12 9.2792969,13.28125 C 9.0992969,13.46225 9,13.7239 9,14 v 1 h 1 c 0.28,0 0.540703,-0.10025 0.720703,-0.28125 L 12,13.433594 13.279297,14.71875 C 13.459297,14.89975 13.72,15 14,15 h 1 v -1 c 0,-0.2761 -0.0993,-0.53785 -0.279297,-0.71875 L 13.439453,12 14.720703,10.71875 C 14.900703,10.53765 15,10.276 15,10 V 9 H 14 C 13.72,9 13.459297,9.10025 13.279297,9.28125 L 12,10.558594 10.720703,9.28125 C 10.540703,9.10025 10.28,9 10,9 Z"/>
</svg>
