<?xml version="1.0" encoding="UTF-8" standalone="no"?>
<svg
   xmlns:dc="http://purl.org/dc/elements/1.1/"
   xmlns:cc="http://creativecommons.org/ns#"
   xmlns:rdf="http://www.w3.org/1999/02/22-rdf-syntax-ns#"
   xmlns:svg="http://www.w3.org/2000/svg"
   xmlns="http://www.w3.org/2000/svg"
   xmlns:sodipodi="http://sodipodi.sourceforge.net/DTD/sodipodi-0.dtd"
   xmlns:inkscape="http://www.inkscape.org/namespaces/inkscape"
   width="24"
   height="24"
   version="1.1"
   id="svg7"
   sodipodi:docname="office-chart-line-forecast@24x24.svg"
   inkscape:version="0.92.5 (2060ec1f9f, 2020-04-08)">
  <metadata
     id="metadata11">
    <rdf:RDF>
      <cc:Work
         rdf:about="">
        <dc:format>image/svg+xml</dc:format>
        <dc:type
           rdf:resource="http://purl.org/dc/dcmitype/StillImage" />
      </cc:Work>
    </rdf:RDF>
  </metadata>
  <sodipodi:namedview
     pagecolor="#ffffff"
     bordercolor="#666666"
     borderopacity="1"
     objecttolerance="10"
     gridtolerance="10"
     guidetolerance="10"
     inkscape:pageopacity="0"
     inkscape:pageshadow="2"
     inkscape:window-width="622"
     inkscape:window-height="436"
     id="namedview9"
     showgrid="false"
     inkscape:zoom="14.75"
     inkscape:cx="8"
     inkscape:cy="8"
     inkscape:window-x="0"
     inkscape:window-y="0"
     inkscape:window-maximized="0"
     inkscape:current-layer="svg7" />
  <defs
     id="defs3">
    <style
       id="current-color-scheme"
       type="text/css">
   .ColorScheme-Text { color:#e2d5bc; } .ColorScheme-Highlight { color:#4285f4; } .ColorScheme-NeutralText { color:#ff9800; } .ColorScheme-PositiveText { color:#4caf50; } .ColorScheme-NegativeText { color:#f44336; }
  </style>
  </defs>
  <g transform="translate(4,4)"
     id="g14">
    <path
       id="path5"
       d="M 13.232422 1.9609375 L 10.90625 4.4921875 L 11.613281 5.1992188 L 13.96875 2.6386719 L 13.232422 1.9609375 z M 1 2 L 1 4.9960938 L 1 5.0058594 L 1 7.6464844 L 1 15 L 14 15 L 14 13 L 3 13 L 3 12 L 3.0058594 12 C 3.8809366 11.99953 5.3496094 12 5.3496094 12 L 5.5 11.851562 L 7.8652344 9.2792969 L 7.1582031 8.5722656 L 4.9277344 11 L 3.0058594 11 L 3 11 L 3 2 L 1 2 z M 10.228516 5.2285156 L 7.8359375 7.8359375 L 8.5429688 8.5429688 L 10.9375 5.9375 L 10.228516 5.2285156 z"
       class="ColorScheme-Text"
       style="fill:currentColor" />
  </g>
</svg>
