<svg xmlns="http://www.w3.org/2000/svg" width="24" height="24" viewBox="0 0 24 24">
 <defs>
  <style id="current-color-scheme" type="text/css">
   .ColorScheme-Text { color:#e2d5bc; } .ColorScheme-Highlight { color:#4285f4; } .ColorScheme-NeutralText { color:#ff9800; } .ColorScheme-PositiveText { color:#4caf50; } .ColorScheme-NegativeText { color:#f44336; }
  </style>
 </defs>
 <path style="fill:currentColor" class="ColorScheme-Text" d="M 5 1 L 5 3 L 12 3 L 12 8 L 10 8 L 13 11 L 16 8 L 14 8 L 14 1 L 5 1 z M 3 5 L 0 8 L 2 8 L 2 15 L 11 15 L 11 13 L 4 13 L 4 8 L 6 8 L 3 5 z" transform="translate(4 4)"/>
</svg>
