<svg xmlns="http://www.w3.org/2000/svg" width="24" height="24" viewBox="0 0 24 24">
 <defs>
  <style id="current-color-scheme" type="text/css">
   .ColorScheme-Text { color:#e2d5bc; } .ColorScheme-Highlight { color:#4285f4; } .ColorScheme-NeutralText { color:#ff9800; } .ColorScheme-PositiveText { color:#4caf50; } .ColorScheme-NegativeText { color:#f44336; }
  </style>
 </defs>
 <path style="fill:currentColor" class="ColorScheme-Text" d="M 13.646484 1.6464844 L 9.2929688 6 L 6 6 L 6 9.2929688 L 1.6464844 13.646484 L 2.3535156 14.353516 L 6.7070312 10 L 10 10 L 10 6.7070312 L 14.353516 2.3535156 L 13.646484 1.6464844 z M 2 2 L 2 3 L 3 3 L 3 2 L 2 2 z M 4 4 L 4 5 L 5 5 L 5 4 L 4 4 z M 11 11 L 11 12 L 12 12 L 12 11 L 11 11 z M 13 13 L 13 14 L 14 14 L 14 13 L 13 13 z" transform="translate(4 4)"/>
</svg>
