<svg xmlns="http://www.w3.org/2000/svg" width="24" height="24" version="1.1">
 <defs>
  <style id="current-color-scheme" type="text/css">
   .ColorScheme-Text { color:#e2d5bc; } .ColorScheme-Highlight { color:#4285f4; } .ColorScheme-NeutralText { color:#ff9800; } .ColorScheme-PositiveText { color:#4caf50; } .ColorScheme-NegativeText { color:#f44336; }
  </style>
 </defs>
 <path style="fill:currentColor" class="ColorScheme-Text" d="m 5,5 v 5 A 1.0001,1.0001 0 0 1 5.2929688,9.292969 l 1,-1 2,-2.0000002 A 1.0001,1.0001 0 0 1 9.0976562,6.0039062 1.0001,1.0001 0 0 1 9.3828125,6.0761719 1.0001,1.0001 0 0 1 10,7 v 1 h 1 V 5 Z m 0,5 v 9 h 6 v -3 a 1.0001,1.0001 0 0 1 -1,-1 v -2 a 1.0001,1.0001 0 0 1 -1.7070312,0.707031 l -2,-2 -1,-1 A 1.0001,1.0001 0 0 1 5,10 Z m 5,3 a 1.0001,1.0001 0 0 1 1,-1 h -1 z m 3,-8 v 3 a 1.0001,1.0001 0 0 1 1,1 v 2 a 1.0001,1.0001 0 0 1 1.707031,-0.707031 l 2,2 1,1 A 1.0001,1.0001 0 0 1 19,14 V 11.125 5 Z m 6,9 a 1.0001,1.0001 0 0 1 -0.292969,0.707031 l -1,1 -2,2 A 1.0001,1.0001 0 0 1 14,17 v -1 h -1 v 3 h 6 z m -5,-3 a 1.0001,1.0001 0 0 1 -1,1 h 1 z M 9,7 7,9 l -1,1 1,1 2,2 v -2 h 4 V 9 H 9 Z m 6,4 v 2 h -4 v 2 h 4 v 2 l 2,-2 1,-1 -1,-1 z"/>
</svg>
