<svg xmlns="http://www.w3.org/2000/svg" width="24" height="24" version="1.1">
 <defs>
  <style id="current-color-scheme" type="text/css">
   .ColorScheme-Text { color:#e2d5bc; } .ColorScheme-Highlight { color:#4285f4; } .ColorScheme-NeutralText { color:#ff9800; } .ColorScheme-PositiveText { color:#4caf50; } .ColorScheme-NegativeText { color:#f44336; }
  </style>
 </defs>
 <g transform="translate(4,4)">
  <path style="fill:currentColor" class="ColorScheme-Text" d="M 4 2 C 4 2 2 2 2 4 L 2 11 C 2 12 1 12 1 12 L 0 12 L 0 14 L 16 14 L 16 12 L 15 12 C 15 12 14 12 14 11 L 14 4 C 14 4 14 2 12 2 L 4 2 z M 5 5 L 6.4141 5 L 8 6.5859 L 9.5859 5 L 11 5 L 11 6.4141 L 9.4141 8 L 11 9.5859 L 11 11 L 9.5859 11 L 8 9.4141 L 6.4141 11 L 5 11 L 5 9.5859 L 6.5859 8 L 5 6.4141 L 5 5 z"/>
 </g>
</svg>
