<svg xmlns="http://www.w3.org/2000/svg" width="16" height="16" version="1.1">
 <path style="fill:#CFD5D6" d="M 8,1 C 4.9494,1 2.0806,2.0732 0,4 L 8,15 16,4 C 13.919,2.0731 11.051,1 8,1 Z m 0,3 c 1.11,0 2,0.9 2,2 0,1.11 -0.89,2 -2,2 V 9 H 7 V 7 H 8 C 8.56,7 9,6.56 9,6 9,5.45 8.56,5 8,5 7.45,5 7,5.45 7,6 H 6 C 6,4.9 6.9,4 8,4 Z m -1,6 h 1 v 1 H 7 Z"/>
</svg>
