<svg xmlns="http://www.w3.org/2000/svg" width="16" height="16" version="1.1">
 <path style="fill:#4285f4" class="warning" d="M 7,6 V 10 L 7.25,12 H 8.75 L 9,10 V 6 Z M 7,13 V 15 H 9 V 13 Z"/>
 <path style="fill:#CFD5D6" d="M 8,0 C 5.93,0 4.17,1.27 3.41,3.06 1.48,3.35 0,5 0,7 0,9.21 1.79,11 4,11 H 6 V 5 H 10 V 11 H 12.5 C 14.43,11 16,9.43 16,7.5 16,5.7 14.65,4.23 12.91,4.03 12.45,1.74 10.43,0 8,0 Z"/>
</svg>
