<svg xmlns="http://www.w3.org/2000/svg" width="16" height="16" version="1.1">
 <defs>
  <style id="current-color-scheme" type="text/css">
   .ColorScheme-Text { color:#d0d0d0; } .ColorScheme-Highlight { color:#4285f4; } .ColorScheme-NeutralText { color:#ff9800; } .ColorScheme-PositiveText { color:#4caf50; } .ColorScheme-NegativeText { color:#f44336; }
  </style>
 </defs>
 <path style="fill:currentColor" class="ColorScheme-Text" d="M 8 1 A 7 7 0 0 0 1 8 A 7 7 0 0 0 8 15 A 7 7 0 0 0 9 14.927734 L 9 12.898438 A 5 5 0 0 1 8 13 A 5 5 0 0 1 3 8 A 5 5 0 0 1 8 3 A 5 5 0 0 1 13 8 C 13.755058 8 14.43461 8.2958443 14.958984 8.765625 A 7 7 0 0 0 15 8 A 7 7 0 0 0 8 1 z M 6.6679688 4 C 6.2986348 4 6 4.2469097 6 4.5546875 L 6 6.8066406 C 6 6.8066406 7 7.3361244 7 7.6933594 C 7 8.0505914 6 8.5800781 6 8.5800781 L 6 11.445312 C 6 11.753093 6.2986347 12 6.6679688 12 L 9.3320312 12 C 9.7013654 12 10 11.753107 10 11.445312 L 10 10.201172 L 9.9921875 10.191406 C 9.9921845 10.191406 9.000124 9.6421152 9 9.2695312 C 8.99988 8.8965974 9.9921875 8.34375 9.9921875 8.34375 L 10 8.3359375 L 10 4.5546875 C 10 4.2469097 9.7013653 4 9.3320312 4 L 6.6679688 4 z M 13 9 C 11.892 9 11 9.9108999 11 11.03125 L 11 12 L 10 12 L 10 16 L 16 16 L 16 12 L 15 12 L 15 11.03125 C 15 9.9113499 14.108 9 13 9 z M 13 10 C 13.554 10 14 10.4424 14 11 L 14 12 L 12 12 L 12 11 C 12 10.4424 12.446 10 13 10 z"/>
</svg>
