<svg xmlns="http://www.w3.org/2000/svg" width="16" height="16" version="1.1">
 <defs>
  <style id="current-color-scheme" type="text/css">
   .ColorScheme-Text { color:#d0d0d0; } .ColorScheme-Highlight { color:#4285f4; } .ColorScheme-NeutralText { color:#ff9800; } .ColorScheme-PositiveText { color:#4caf50; } .ColorScheme-NegativeText { color:#f44336; }
  </style>
 </defs>
 <path style="fill:currentColor" class="ColorScheme-Text" d="M 2.1668178,11.755878 4.3196205,10.10669 c 1.1437625,1.492767 2.3589513,2.180832 3.7115736,2.180832 1.3453891,0 2.5262219,-0.679927 3.6184459,-2.16094 l 2.183542,1.609403 C 12.257233,13.87161 10.298826,15 8.0311941,15 5.7707959,15 3.7934008,13.878845 2.1668178,11.755878 Z M 8.0239621,4.5877037 4.192133,7.8896931 2.4208872,5.8354434 8.0320991,1 13.599005,5.8390598 11.819621,7.8860759 Z"/>
</svg>
