<svg xmlns="http://www.w3.org/2000/svg" width="16" height="16" version="1.1">
 <defs>
  <style id="current-color-scheme" type="text/css">
   .ColorScheme-Text { color:#d0d0d0; } .ColorScheme-Highlight { color:#4285f4; } .ColorScheme-NeutralText { color:#ff9800; } .ColorScheme-PositiveText { color:#4caf50; } .ColorScheme-NegativeText { color:#f44336; }
  </style>
 </defs>
 <path style="fill:currentColor" class="ColorScheme-Text" d="M 1,1 C 0.446,1 0,1.446 0,2 V 12 C 0,12.554 0.446,13 1,13 H 6 C 5.446,13 5,13.446 5,14 V 15 H 11 V 14 C 11,13.446 10.554,13 10,13 H 15 C 15.554,13 16,12.554 16,12 V 2 C 16,1.446 15.554,1 15,1 Z M 2,3 H 14 V 11 H 2 Z"/>
</svg>
