<svg xmlns="http://www.w3.org/2000/svg" width="16" height="16" version="1.1">
 <defs>
  <style id="current-color-scheme" type="text/css">
   .ColorScheme-Text { color:#d0d0d0; } .ColorScheme-Highlight { color:#4285f4; } .ColorScheme-NeutralText { color:#ff9800; } .ColorScheme-PositiveText { color:#4caf50; } .ColorScheme-NegativeText { color:#f44336; }
  </style>
 </defs>
 <path style="fill:currentColor" class="ColorScheme-Text" d="M 2 1 C 2 1 1 0.99996254 1 2 L 1 14 C 1 15.000125 2 15 2 15 L 9 15 L 9 10.75 C 9 9.7952572 9.7952572 9 10.75 9 L 15 9 L 15 2 C 15 0.99996254 14 1 14 1 L 2 1 z"/>
 <path d="m 15,10.000022 h -4.25 c -0.414167,0 -0.75,0.335833 -0.75,0.75 v 4.25 z" style="opacity:0.3;fill:currentColor" class="ColorScheme-Text"/>
</svg>
