<svg xmlns="http://www.w3.org/2000/svg" width="16" height="16" version="1.1">
 <defs>
  <style id="current-color-scheme" type="text/css">
   .ColorScheme-Text { color:#d0d0d0; } .ColorScheme-Highlight { color:#4285f4; } .ColorScheme-NeutralText { color:#ff9800; } .ColorScheme-PositiveText { color:#4caf50; } .ColorScheme-NegativeText { color:#f44336; }
  </style>
 </defs>
 <path style="fill:currentColor" class="ColorScheme-Text" d="M 8,1 A 7,7 0 0 0 1,8 7,7 0 0 0 8,15 7,7 0 0 0 11.131,14.252 L 10.453,13.574 C 10.149,13.282 9.9636,12.831 9.9844,12.424 10.005,12.017 10.184,11.679 10.432,11.432 10.679,11.184 11.017,11.005 11.424,10.984 11.831,10.964 12.282,11.149 12.574,11.453 L 13.09,11.969 14.15,9.8457 C 14.308,9.5175 14.582,9.2732 14.906,9.1309 A 7,7 0 0 0 15,8 7,7 0 0 0 8,1 Z M 6,5 V 7 H 10 V 5 L 13,8 10,11 V 9 H 6 V 11 L 3,8 Z M 15.477,9.9941 A 0.50005,0.50005 0 0 0 15.053,10.277 L 13.363,13.656 11.854,12.146 A 0.50063,0.50063 0 1 0 11.146,12.854 L 13.146,14.854 A 0.50005,0.50005 0 0 0 13.947,14.723 L 15.947,10.723 A 0.50005,0.50005 0 0 0 15.477,9.9941 Z"/>
</svg>
