<svg xmlns="http://www.w3.org/2000/svg" width="16" height="16" version="1.1">
 <defs>
  <style id="current-color-scheme" type="text/css">
   .ColorScheme-Text { color:#d0d0d0; } .ColorScheme-Highlight { color:#4285f4; } .ColorScheme-NeutralText { color:#ff9800; } .ColorScheme-PositiveText { color:#4caf50; } .ColorScheme-NegativeText { color:#f44336; }
  </style>
 </defs>
 <path style="fill:currentColor;fill-rule:evenodd" class="ColorScheme-Text" d="M 8.5,0 C 6.007,0 4,2.040203 4,4.5332031 V 7 H 3.7851562 C 3.3497123,7 3,7.365187 3,7.818359 v 7.363282 C 3,15.634813 3.3497122,16 3.7851562,16 H 13.214844 C 13.650288,16 14,15.634813 14,15.181641 V 7.818359 C 14,7.365187 13.650288,7 13.214844,7 H 13 V 4.5332031 C 13,2.040203 10.993,0 8.5,0 Z m 0,2 c 1.838963,0 2.280276,1.1465511 2.5,2.9335938 V 7 H 6 V 4.9335938 C 6,3.1330939 6.661038,2 8.5,2 Z m 0,6 C 10.432997,8 12,9.567004 12,11.5 12,13.432997 10.432997,15 8.5,15 6.567003,15 5,13.432997 5,11.5 5,9.567004 6.567003,8 8.5,8 Z m 0.386719,0.291016 a 0.09723195,0.09723195 0 0 0 -0.08594,0.09766 v 0.777343 a 0.09723195,0.09723195 0 1 0 0.193359,0 V 8.388676 A 0.09723195,0.09723195 0 0 0 8.886717,8.291016 Z M 10.798828,10.25 a 0.29169585,0.29169585 0 0 0 -0.128906,0.04102 l -2.210938,1.27539 -1.65039,-0.953125 a 0.29228632,0.29228632 0 0 0 -0.292969,0.50586 l 1.798828,1.037109 a 0.29169585,0.29169585 0 0 0 0.291016,0 l 2.355469,-1.359379 A 0.29169585,0.29169585 0 0 0 10.798828,10.25 Z M 5.3691406,11.804688 A 0.09814307,0.09814307 0 0 0 5.3886719,12 H 6.166016 a 0.097656,0.097656 0 1 0 0,-0.195312 H 5.3886719 a 0.097656,0.097656 0 0 0 -0.00977,0 0.097778,0.097778 0 0 0 -0.00977,0 z m 5.4453124,0 A 0.09814306,0.09814306 0 0 0 10.833984,12 h 0.777344 a 0.097656,0.097656 0 1 0 0,-0.195312 h -0.777344 a 0.097656,0.097656 0 0 0 -0.0098,0 0.09777798,0.09777798 0 0 0 -0.0098,0 z m -1.927734,1.929687 a 0.09723195,0.09723195 0 0 0 -0.08594,0.09961 v 0.777344 a 0.09723195,0.09723195 0 1 0 0.193359,0 v -0.777344 a 0.09723195,0.09723195 0 0 0 -0.09766,-0.09961 0.09723195,0.09723195 0 0 0 -0.0098,0 z"/>
 <path style="opacity:0.3;fill:currentColor" class="ColorScheme-Text" d="M 7.085938,9.251953 A 0.29169585,0.29169585 0 0 0 6.847656,9.693359 l 1.359375,2.357422 a 0.29228632,0.29228632 0 1 0 0.50586,-0.292969 L 7.351563,9.402344 A 0.29169585,0.29169585 0 0 0 7.085938,9.251953 Z"/>
 <path style="opacity:0.5;fill:currentColor" class="ColorScheme-Text" d="M 8.455078,8.886719 A 0.29169585,0.29169585 0 0 0 8.167969,9.183594 v 0.115234 2.605469 a 0.29199215,0.29199215 0 1 0 0.583984,0 V 9.298828 9.183594 A 0.29169585,0.29169585 0 0 0 8.455078,8.886719 Z"/>
 <path style="opacity:0.7;fill:currentColor" class="ColorScheme-Text" d="M 9.824219,9.251953 A 0.29169585,0.29169585 0 0 0 9.566406,9.402344 l -1.359375,2.355468 a 0.29228632,0.29228632 0 1 0 0.50586,0.292969 L 10.072266,9.693359 A 0.29169585,0.29169585 0 0 0 9.824219,9.251953 Z"/>
</svg>
