<svg xmlns="http://www.w3.org/2000/svg" width="16" height="16" version="1.1">
 <defs>
  <style id="current-color-scheme" type="text/css">
   .ColorScheme-Text { color:#d0d0d0; } .ColorScheme-Highlight { color:#4285f4; } .ColorScheme-NeutralText { color:#ff9800; } .ColorScheme-PositiveText { color:#4caf50; } .ColorScheme-NegativeText { color:#f44336; }
  </style>
 </defs>
 <path style="fill:currentColor" class="ColorScheme-Text" d="M 1.4196,14.581 C -0.20998,12.95 3.2704,1.7884 5.6385,1.0499 8.0062,0.31113 15.69,7.9946 14.95,10.361 14.212,12.729 3.0494,16.21 1.4193,14.581 Z"/>
</svg>
