<svg xmlns="http://www.w3.org/2000/svg" width="16" height="16" version="1.1">
 <defs>
  <style id="current-color-scheme" type="text/css">
   .ColorScheme-Text { color:#d0d0d0; } .ColorScheme-Highlight { color:#4285f4; } .ColorScheme-NeutralText { color:#ff9800; } .ColorScheme-PositiveText { color:#4caf50; } .ColorScheme-NegativeText { color:#f44336; }
  </style>
 </defs>
 <path style="fill:currentColor" class="ColorScheme-Text" d="M 7.736,0.9962 C 4.9732,1.0977 2.4273,2.8008 1.4235,5.5587 0.89934,6.999 0.87974,8.501 1.2653,9.875 1.669,8.557 2.7497,7.542 4.1032,7.192 4.2732,6.9013 4.4747,6.6319 4.693,6.3791 4.7035,5.6688 4.8234,4.9505 5.0797,4.2462 5.5939,2.8336 6.5542,1.7379 7.736,0.9962 Z M 8.086,5.7502 C 6.5323,5.7502 5.2096,6.7011 4.6403,8.047 3.1944,8.262 2.0856,9.494 2.0856,11 2.0856,12.657 3.4287,14 5.0856,14 H 11.461 C 12.91,14 14.086,12.825 14.086,11.375 14.086,10.028 13.073,8.924 11.765,8.774 11.424,7.054 9.906,5.7502 8.086,5.7502 Z"/>
</svg>
