<svg xmlns="http://www.w3.org/2000/svg" width="16" height="16" version="1.1">
 <defs>
  <style id="current-color-scheme" type="text/css">
   .ColorScheme-Text { color:#d0d0d0; } .ColorScheme-Highlight { color:#4285f4; } .ColorScheme-NeutralText { color:#ff9800; } .ColorScheme-PositiveText { color:#4caf50; } .ColorScheme-NegativeText { color:#f44336; }
  </style>
 </defs>
 <path style="fill:currentColor" class="ColorScheme-Text" d="M 1.793,2.9902 C 1.112,2.9901 0.7422,3.7865 1.1816,4.3066 L 2.6172,6.0625 C 1.168,7.3652 0,9.1838 0,11.23 0,12 0.77734,12 0.77734,12 H 15.203 C 15.203,12 16,12 16,11.191 16,9.1604 14.826,7.3552 13.385,6.0605 L 14.818,4.3066 C 15.262,3.7781 14.874,2.973 14.184,2.9922 13.948,2.9986 13.727,3.1087 13.58,3.293 L 12.088,5.1191 C 10.89,4.4124 9.4939,4 8,4 6.5054,4 5.1108,4.4118 3.9121,5.1191 L 2.4199,3.293 C 2.2681,3.1017 2.0372,2.9902 1.793,2.9902 Z M 4,8 C 4.5523,8 5,8.4477 5,9 5,9.5523 4.5523,10 4,10 3.4477,10 3,9.5523 3,9 3,8.4477 3.4477,8 4,8 Z M 12,8 C 12.552,8 13,8.4477 13,9 13,9.5523 12.552,10 12,10 11.448,10 11,9.5523 11,9 11,8.4477 11.448,8 12,8 Z"/>
</svg>
