<svg xmlns="http://www.w3.org/2000/svg" width="16" height="16" version="1.1">
 <path style="fill:#cac9bf" d="M 8,0 2,2 V 9 C 2,11.07 3.58,12.49 4.94,13.44 6.3,14.39 8,15 8,15 8,15 9.7,14.39 11.06,13.44 12.42,12.48 14,11.04 14,9 V 2 Z"/>
</svg>
