<svg xmlns="http://www.w3.org/2000/svg" width="16" height="16" version="1.1">
 <path style="opacity:0.3;fill:#cac9bf" d="M 8,2 C 9.66,2 11,3.34 11,5 11,6.65 9.66,8 8,8 6.34,8 5,6.65 5,5 5,3.34 6.34,2 8,2 Z M 8,10 C 14,9.99 14,14 14,14 V 15 H 2 V 14 C 2,14 2,10 8,10 Z"/>
</svg>
