<svg xmlns="http://www.w3.org/2000/svg" width="16" height="16" version="1">
 <defs>
  <style id="current-color-scheme" type="text/css">
   .ColorScheme-Text { color:#c0c3cf; } .ColorScheme-Highlight { color:#4285f4; }
  </style>
 </defs>
 <path style="fill:currentColor" class="ColorScheme-Text" d="M 7.9355469 1.0117188 L 2.1328125 3.0488281 C 2.0536125 3.0768274 2 3.4645676 2 3.5488281 C 2 12.000284 7.9692063 14.996635 8 15 C 8 15 14 12.000284 14 3.5488281 C 14 3.4645676 13.946045 3.0768274 13.867188 3.0488281 L 8.0644531 1.0117188 C 8.0215961 0.99658165 7.9784036 0.99658165 7.9355469 1.0117188 z M 8 3.109375 L 11.851562 4.4609375 C 11.544524 9.1886427 9.3588323 11.634014 8.0390625 12.599609 C 7.6051694 12.264987 7.083349 11.834815 6.5292969 11.166016 C 5.4009719 9.8040079 4.3706233 7.6036785 4.15625 4.4589844 L 8 3.109375 z"/>
 <path style="fill:none" class="ColorScheme-Text" d="m 7.9348571,1.0113528 -5.8026,1.7381468 C 2.0530571,2.7774989 2,3.1643274 2,3.2485879 2,5.3242142 2.5479714,7.7245455 3.5033428,9.8323711 4.2782857,11.542081 5.6718285,13.822278 7.9091428,14.978125 7.9382857,14.992125 7.9691428,15 8,15 c 0.030857,0 0.061714,-0.0079 0.09,-0.02187 2.238,-1.155847 3.631714,-3.436044 4.406571,-5.1457539 C 13.452286,7.7236705 14,5.3239518 14,3.2485879 14,3.1643274 13.946857,2.7774989 13.868,2.7494996 L 8.0651428,1.0113528 c -0.042857,-0.0151371 -0.087429,-0.0151371 -0.1302857,0 z"/>
</svg>
