<svg xmlns="http://www.w3.org/2000/svg" width="16" height="16" version="1.1">
 <defs>
  <style id="current-color-scheme" type="text/css">
   .ColorScheme-Text { color:#c0c3cf; } .ColorScheme-Highlight { color:#4285f4; }
  </style>
 </defs>
 <path style="fill:currentColor" class="ColorScheme-Text" d="M 8,4.21 C 6.7,4.21 5.58,4.93 5,6 H 11 C 10.42,4.94 9.3,4.21 8,4.21 Z M 15,8 H 1 L 8,15 Z M 1,6 H 2.5 C 3.24,3.68 5.43,2 8,2 10.57,2 12.76,3.68 13.5,6 H 15 C 14.22,2.85 11.4,0.5 8,0.5 4.6,0.5 1.78,2.85 1,6 Z"/>
</svg>
