<svg xmlns="http://www.w3.org/2000/svg" width="16" height="16" version="1.1">
 <defs>
  <style id="current-color-scheme" type="text/css">
   .ColorScheme-Text { color:#c0c3cf; } .ColorScheme-Highlight { color:#4285f4; }
  </style>
 </defs>
 <path style="fill:currentColor" class="ColorScheme-Text" d="M 8.9882812 1.0039062 C 8.661237 1.0227416 8.3353553 1.1117698 8.0234375 1.2695312 C 7.9234203 1.3201181 7.7873264 1.3970771 7.7207031 1.4414062 C 7.0570408 1.8830183 6.4860262 2.8125747 6.0898438 3.7304688 C 5.992609 3.955744 5.8602275 4.3083003 5.8457031 4.3808594 C 5.8326486 4.4461108 5.8038438 4.4435126 5.7265625 4.3691406 C 5.4244066 4.0783444 5.0515157 3.9261683 4.6855469 3.9453125 C 4.3186288 3.9645198 4.0031406 4.1208744 3.6933594 4.4335938 C 3.4515385 4.6777089 3.2745489 4.9438679 3.125 5.2890625 C 2.930183 5.7387519 2.8362234 6.1426954 2.7832031 6.7617188 L 2.7753906 6.8535156 L 2.6445312 6.9414062 C 1.9045579 7.43876 1.3277716 8.3498158 1.1035156 9.5878906 C 0.80268972 11.248707 1.1664266 12.975133 2.0234375 14.064453 C 2.1228005 14.190748 2.3648768 14.439423 2.4765625 14.529297 C 2.8054626 14.793949 3.1410748 14.941052 3.5351562 14.992188 L 3.5371094 14.992188 C 3.5596744 14.995088 5.6155651 14.997047 8.1054688 14.998047 C 13.069221 15.000347 12.732002 15.007448 12.998047 14.923828 C 13.462284 14.777887 13.926076 14.382995 14.261719 13.849609 C 14.834828 12.938855 15.095054 11.679717 14.96875 10.421875 C 14.799666 8.7379233 14.005012 7.3712709 13.373047 7.1328125 L 13.263672 7.1015625 L 13.259766 6.9863281 C 13.233756 6.0169927 13.183086 5.5319814 13.033203 4.8613281 C 12.623803 3.0294917 11.164102 1.604757 9.96875 1.1582031 C 9.6445204 1.0370765 9.3153264 0.9850714 8.9882812 1.0039062 z M 6.7148438 5.0019531 C 7.4986726 4.9926431 8.2645711 5.0415241 8.8769531 5.1523438 C 9.3089391 5.2305138 9.6848046 5.3321714 10.060547 5.4746094 C 10.926204 5.8027664 11.627783 6.348583 11.898438 7.0625 C 12.079349 7.539724 11.993616 8.9320575 11.847656 9.5234375 C 11.720367 10.039129 11.387161 10.657689 10.966797 11.03125 L 12.511719 14 L 11.611328 14 L 10.888672 14 L 9.9707031 14 L 9.0976562 11.888672 C 8.7285712 11.938392 8.3581139 11.973572 7.9199219 12.019531 C 7.5760649 12.046371 6.9157265 12.043192 6.4609375 12.013672 C 6.2601725 12.000662 6.1187145 11.985922 6.1015625 11.982422 C 6.0844125 11.978922 6.0635875 11.984221 6.0546875 11.994141 C 6.0432775 12.006741 6.049475 11.416211 6.046875 12.0625 L 6.0429688 13.980469 L 4.6972656 13.982422 L 4 13.986328 L 4.0039062 9.1425781 L 4.0078125 5.2988281 L 4.0625 5.28125 C 4.09339 5.27195 4.2654544 5.2378081 4.4433594 5.2050781 C 5.1293324 5.0788411 5.9310143 5.011263 6.7148438 5.0019531 z"/>
 <path style="fill:currentColor" class="ColorScheme-Highlight" d="m 7.5507812,7 c -0.4465849,-0.0012 -0.969238,0.03923 -1.359375,0.109375 -0.07654,0.01377 -0.1440974,0.025391 -0.1484374,0.025391 -0.0043,0 -0.015361,0.0067 -0.025391,0.015625 C 6.0012881,7.1650106 5.99984,7.3028955 6,8.5234375 c 8.9e-5,0.764103 0.00397,1.3649469 0.00977,1.3730469 0.01743,0.02457 0.3471817,0.0724 0.6503906,0.09375 0.29238,0.02059 1.0945894,0.0075 1.3808594,-0.021484 C 8.4454986,9.92781 8.8316394,9.8376359 9.1152344,9.7167969 9.4554724,9.5718249 9.6971361,9.3655891 9.8457031,9.0957031 9.9441931,8.9167821 9.9851319,8.769161 9.9980469,8.53125 10.019667,8.133131 9.8854024,7.80222 9.5976562,7.546875 9.2549283,7.242733 8.7494466,7.078698 7.9648438,7.015625 7.8407507,7.005625 7.6996432,7.00041 7.5507812,7 Z"/>
</svg>
