<svg xmlns="http://www.w3.org/2000/svg" width="16" height="16" version="1.1">
 <path style="fill:#f8f8f2" d="M 11.62,0.11988 C 12.01,0.01988 12.41,0.00988 12.79,0.03988 L 11.43,2.3399 C 11.15,2.8199 11.3,3.4099 11.78,3.6899 L 12.65,4.1999 C 13.13,4.4799 13.73,4.3199 14.01,3.8499 L 15.37,1.5399 C 15.58,1.8499 15.77,2.2099 15.87,2.5899 16.36,4.4499 15.24,6.3399 13.38,6.8299 12.99,6.9299 12.59,6.9399 12.21,6.9099 L 11.4,8 7.99,7.9999 C 7.99,7.9999 9.51,5.4199 9.62,5.4099 9.41,5.0899 9.22,4.7399 9.12,4.3499 8.63,2.4999 9.75,0.59988 11.62,0.11988 Z"/>
 <path style="fill:#f8f8f2" d="M 3.6,0.71988 C 3.37,0.76988 3.15,0.84988 2.94,0.93988 2.92,1.5599 3.03,2.3799 2.78,2.5899 2.55,2.7999 1.75,2.6299 1.13,2.5599 0.99998,2.7999 0.9,3.0499 0.82,3.3099 1.3,3.7099 1.96,4.1499 1.97,4.4699 1.99,4.7899 1.35,5.2699 0.91,5.7199 1.02,5.9799 1.16,6.2099 1.32,6.4399 1.93,6.3099 2.68,6.0599 2.94,6.2499 3.2,6.4399 3.21,7.2599 3.28,7.8699 3.53,7.9499 3.8,7.9799 4.06,7.9999 4.34,7.4499 4.63,6.6799 4.94,6.5899 5.25,6.5099 5.9,7.0499 6.44,7.3699 6.65,7.2199 6.85,7.0399 7.03,6.8399 6.77,6.2699 6.31,5.5499 6.44,5.2499 6.56,4.9499 7.41,4.7799 8,4.5599 8,4.4899 8.03,4.4199 8.03,4.3399 8.03,4.1499 7.99,3.9599 7.96,3.7799 7.36,3.6199 6.5,3.5399 6.34,3.2499 6.18,2.9599 6.58,2.1899 6.78,1.5899 6.58,1.4199 6.36,1.2599 6.12,1.1199 5.62,1.4999 5.04,2.1199 4.72,2.0599 4.4,2.0099 4.06,1.2399 3.72,0.71988 3.68,0.72988 3.64,0.70988 3.6,0.71988 Z M 4.22,2.5899 C 5.15,2.5899 5.9,3.3499 5.9,4.2799 5.9,5.2099 5.15,5.9699 4.22,5.9699 3.29,5.9699 2.53,5.2099 2.53,4.2799 2.53,3.3499 3.29,2.5899 4.22,2.5899 Z"/>
 <path style="fill:#f8f8f2" d="M 3,9 H 13 V 15 C 13,15.06 13,16 12,16 H 4 C 3,16 3,15 3,15 Z"/>
 <path style="fill:#f8f8f2" d="M 2.5859,9 0.29297,11.293 A 1.0001,1.0001 0 1 0 1.707,12.707 L 3.4141,11 H 12.586 L 14.293,12.707 A 1.0001,1.0001 0 1 0 15.707,11.293 L 13.414,9 Z"/>
</svg>
