<svg xmlns="http://www.w3.org/2000/svg" width="16" height="16" version="1.1">
 <path style="fill:#FCE8C3" d="M 3,1 C 1,1 1,3 1,3 V 13 C 1,15 3,15 3,15 H 6.07 L 6.06,14.99 V 14.98 L 5.94,14.77 7.57,13.82 C 7.53,13.55 7.5,13.28 7.5,13 7.5,12.72 7.53,12.45 7.57,12.18 L 5.94,11.23 7.94,7.77 9.57,8.71 C 10.01,8.37 10.49,8.09 11,7.89 V 6 H 15 V 3 C 15,3 15,1 13,1 Z M 13,11 C 11.9,11 11,11.9 11,13 11,14.1 11.9,15 13,15 14.1,15 15,14.1 15,13 15,11.9 14.1,11 13,11 Z"/>
</svg>
