<svg xmlns="http://www.w3.org/2000/svg" width="16" height="16" version="1.1">
 <path style="fill:#FCE8C3" d="M 8,3 V 14 H 11.666 C 13.513,14 15,12.487 15,10.5 15,8.5133 13.513,7 11.666,7 H 10 V 3 Z M 11.334,9 C 12.257,9 13,9.6648 13,10.5 13,11.336 12.257,12 11.334,12 H 10 V 9 Z"/>
 <path style="fill:#FCE8C3" d="M 2,6 V 8 H 5 V 9 H 4 C 2.338,9 1,10.115 1,11.5 1,12.885 2.338,14 4,14 H 7 V 8 C 7,6.892 6.108,6 5,6 Z M 3.5,11 H 5 V 12 H 3.5 C 3.223,12 3,11.777 3,11.5 3,11.223 3.223,11 3.5,11 Z"/>
</svg>
