<svg xmlns="http://www.w3.org/2000/svg" width="16" height="16" version="1.1">
 <path style="fill:#d0d0d0" d="M 11.1,1.07 C 10.48,0.85 9.81,1.14 9.53,1.72 7.6,1.6 5.76,2.76 5.07,4.67 4.46,6.41 3.23,8.64 2.59,8.76 2.47,8.83 2.36,8.95 2.3,9.1 2.18,9.43 2.36,9.8 2.69,9.92 L 11.99,13.25 C 12.32,13.37 12.68,13.19 12.8,12.86 12.86,12.71 12.85,12.55 12.79,12.41 12.38,11.92 12.84,9.41 13.47,7.68 14.16,5.77 13.46,3.7 11.9,2.57 12.04,1.94 11.72,1.3 11.1,1.07 Z M 6.74,12.72 C 6.44,13.55 7.01,14.51 8,14.87 9,15.22 10.04,14.84 10.34,14.01 Z"/>
</svg>
