<svg xmlns="http://www.w3.org/2000/svg" width="16" height="16" version="1.1">
 <path style="fill:#d0d0d0" d="M 3.5478,1 1,8 V 15 H 15 V 8 L 12.452,1 Z M 5.2,3.04 H 10.8 L 12.969,9 H 11 L 10,11 H 6 L 5,9 H 3.0307 Z"/>
</svg>
