<svg xmlns="http://www.w3.org/2000/svg" width="22" height="22" version="1.1">
 <defs>
  <style id="current-color-scheme" type="text/css">
   .ColorScheme-Text { color:#e0e0e0; } .ColorScheme-Highlight { color:#4285f4; } .ColorScheme-NeutralText { color:#ff9800; } .ColorScheme-PositiveText { color:#4caf50; } .ColorScheme-NegativeText { color:#f44336; }
  </style>
 </defs>
 <path style="fill:currentColor" class="ColorScheme-Text" d="m 11,2.9999998 c -3.313708,0 -6,2.686291 -6,6.0000003 V 10 H 4.714844 c -0.30286,0 -0.583665,0.08222 -0.830078,0.216797 l 5.347656,5.263672 c 0.875466,0.861786 1.580307,0.812485 2.193359,0.611328 0.613054,-0.201159 1.039063,-0.611328 1.039063,-0.611328 l 5.447265,-5.361328 C 17.717545,10.044001 17.507431,10 17.285156,10 H 17 V 9.0000001 C 17,5.6862908 14.313709,2.9999998 11,2.9999998 Z m 0,2 c 2.23283,0 4,1.767171 4,4.0000003 V 9.6113281 10 H 7 V 9.6777341 9.0000001 C 7,6.7671708 8.767173,4.9999998 11,4.9999998 Z m 7.775391,5.8632812 -4.445313,4.375 3.664063,3.607422 C 18.58711,18.580747 19,17.997459 19,17.3125 v -5.625 c 0,-0.301643 -0.08488,-0.579682 -0.224609,-0.824219 z M 3.123047,11.060547 C 3.044347,11.254606 3,11.465146 3,11.6875 v 5.625 c 0,0.655046 0.380231,1.214253 0.931641,1.494141 l 3.53125,-3.476563 z m 10.398437,4.972656 -0.248046,0.244141 c 0,0 -0.584153,0.584833 -1.486329,0.880859 -0.902176,0.296026 -2.216489,0.246092 -3.361328,-0.880859 L 8.269531,16.126953 5.349609,19 h 11.185547 z"/>
</svg>
