<svg xmlns="http://www.w3.org/2000/svg" width="22" height="22" version="1.1">
 <defs>
  <style id="current-color-scheme" type="text/css">
   .ColorScheme-Text { color:#f8f8f2; } .ColorScheme-Highlight { color:#4285f4; } .ColorScheme-NeutralText { color:#ff9800; } .ColorScheme-PositiveText { color:#4caf50; } .ColorScheme-NegativeText { color:#f44336; }
  </style>
 </defs>
 <path style="fill:currentColor" class="ColorScheme-Text" d="M 8.5 5 C 7.6715729 5 7 5.6715729 7 6.5 C 7 7.3284271 7.6715729 8 8.5 8 C 10.005792 8 11.445151 8.322598 12.744141 9.1269531 C 13.330491 8.3563929 14.104587 7.697638 15.056641 7.1660156 C 13.073485 5.6926702 10.777478 5 8.5 5 z M 3.515625 6 C 3.451029 5.999088 3.3864412 6.0023456 3.3222656 6.0097656 C 2.4989989 6.1075106 1.9111472 6.8545719 2.0097656 7.6777344 C 2.324551 10.330335 3.3599573 12.220342 4.7109375 13.466797 C 6.0619177 14.713251 7.609899 15.326857 8.9121094 15.880859 C 9.6747319 16.206018 10.556509 15.850859 10.880859 15.087891 C 11.206018 14.325268 10.850859 13.443491 10.087891 13.119141 C 8.7660238 12.556771 7.5961137 12.047774 6.7441406 11.261719 C 5.8921675 10.475663 5.23956 9.4232569 4.9902344 7.3222656 C 4.9009236 6.573518 4.2696434 6.0074562 3.515625 6 z M 18.433594 7 C 18.334764 7.00463 18.236625 7.0190178 18.140625 7.0429688 C 15.576693 7.6758583 13.904178 8.868733 13.070312 10.449219 C 12.273094 11.960247 12.196174 13.525304 12.03125 15.117188 C 12.175574 15.0404 12.33652 15.000164 12.5 15 L 14 15 L 14 12 C 14.000055 11.447738 14.447738 11.000055 15 11 L 16.404297 11 C 16.877328 10.608111 17.603783 10.266966 18.859375 9.9570312 C 19.664318 9.7588896 20.15592 8.9453836 19.957031 8.140625 C 19.795133 7.4836959 19.213493 7.0164641 18.537109 7 C 18.502619 6.99881 18.468089 6.99881 18.433594 7 z M 7.8085938 8.890625 C 7.6996417 9.514551 7.5823434 10.071034 7.4492188 10.548828 C 8.0617079 11.103426 9.0138332 11.557303 10.150391 12.048828 C 10.434002 11.239205 10.618677 10.318594 10.777344 9.3378906 C 10.05939 9.1142468 9.3048286 9 8.5 9 C 8.2591492 9 8.0298586 8.955794 7.8085938 8.890625 z M 15 12 L 15 16 L 12.5 16 L 14.25 18 L 16 20 L 17.75 18 L 19.5 16 L 17 16 L 17 12 L 15 12 z M 3.7402344 13.904297 C 3.5642588 13.943007 3.4278159 13.987457 3.2304688 14.023438 C 2.4146743 14.171812 1.8740177 14.953927 2.0234375 15.769531 C 2.1718124 16.585326 2.9539274 17.125982 3.7695312 16.976562 C 4.9042516 16.769679 5.9023281 16.45024 6.7675781 16.013672 C 5.870866 15.574821 4.9243274 15.023349 4.0332031 14.201172 C 3.9323108 14.108086 3.8376263 14.003637 3.7402344 13.904297 z"/>
</svg>
