<svg xmlns="http://www.w3.org/2000/svg" width="22" height="22" version="1.1">
 <defs>
  <style id="current-color-scheme" type="text/css">
   .ColorScheme-Text { color:#f8f8f2; } .ColorScheme-Highlight { color:#4285f4; } .ColorScheme-NeutralText { color:#ff9800; } .ColorScheme-PositiveText { color:#4caf50; } .ColorScheme-NegativeText { color:#f44336; }
  </style>
 </defs>
 <path style="opacity:0.3;fill:currentColor" class="ColorScheme-NegativeText" d="M 9,4 V 5 H 6 v 12 c 0,0.554 0.446,1 1,1 h 7 V 9 h 2 V 5 H 13 V 4 Z"/>
 <path style="fill:currentColor" class="ColorScheme-NegativeText" d="m 6,15 v 2 c 0,0.554 0.446,1 1,1 h 7 v -3 z"/>
 <path style="fill:currentColor" class="ColorScheme-NegativeText" d="m 15,10 v 4 l 0.25,2 h 1.5 L 17,14 v -4 z m 0,7 v 2 h 2 v -2 z"/>
</svg>
