<svg xmlns="http://www.w3.org/2000/svg" width="22" height="22" version="1.1">
 <defs>
  <style id="current-color-scheme" type="text/css">
   .ColorScheme-Text { color:#f8f8f2; } .ColorScheme-Highlight { color:#4285f4; } .ColorScheme-NeutralText { color:#ff9800; } .ColorScheme-PositiveText { color:#4caf50; } .ColorScheme-NegativeText { color:#f44336; }
  </style>
 </defs>
 <circle style="fill:currentColor" class="ColorScheme-Highlight" cx="19" cy="5" r="2"/>
 <path style="fill:currentColor" class="ColorScheme-Text" d="m 11.199979,2.999731 c -0.07277,-8.44e-4 -0.145538,0.0023 -0.217969,0.0094 -4.0785133,0.01011 -7.5564686,3.136527 -7.9460942,7.233008 -0.4008831,4.214839 2.5983297,8.047177 6.7859381,8.670545 C 13.91736,19.522343 17.811029,16.86157 18.77029,12.863303 L 15.954981,9.478382 C 15.555442,8.99194 15.390985,8.999893 14.79867,8.999893 H 11.999989 C 9.2953433,8.961643 9.2953645,13.038251 12.000011,13 h 2.465591 c -0.795245,1.394864 -2.371041,2.206931 -4.054686,1.956303 C 8.2874068,14.640197 6.8146619,12.758349 7.0179471,10.62103 7.2212323,8.483712 9.0221417,6.913059 11.167166,7.002964 c 0.08695,0.0046 0.174119,0.0036 0.260937,-0.0031 h 2.571655 c 1.115632,0.01578 2.028484,-0.884282 2.028484,-2.000054 0,-1.115773 -0.912852,-2.015833 -2.028484,-2.000054 z"/>
</svg>
