<svg xmlns="http://www.w3.org/2000/svg" width="22" height="22" version="1.1">
 <defs>
  <style id="current-color-scheme" type="text/css">
   .ColorScheme-Text { color:#f8f8f2; } .ColorScheme-Highlight { color:#4285f4; } .ColorScheme-NeutralText { color:#ff9800; } .ColorScheme-PositiveText { color:#4caf50; } .ColorScheme-NegativeText { color:#f44336; }
  </style>
 </defs>
 <path style="fill:currentColor" class="ColorScheme-Text" d="m 11,3 c -4.4320002,0 -7.9999998,3.568 -7.9999998,8 0,4.432 3.5679996,8 7.9999998,8 4.432,0 8,-3.568 8,-8 0,-4.432 -3.568,-8 -8,-8 z m 2.210938,4 c 0.204819,0 0.565773,0.1131569 0.689453,0.2167969 l 0.09961,0.083984 -0.0957,0.2832032 c -0.2179,0.6464 -0.821334,3.5304879 -1.058594,5.0546879 -0.0627,0.40283 -0.151695,0.925439 -0.197265,1.162109 -0.0988,0.51299 -0.102492,0.708193 -0.01367,0.945313 0.14055,0.37522 0.13485,0.412938 -0.09375,0.517578 -0.11323,0.05183 -0.372332,0.122633 -0.576172,0.158203 -0.68941,0.1203 -0.900101,-0.03324 -0.900391,-0.65625 -2.06e-4,-0.41919 0.03843,-0.643601 0.302735,-1.744141 0.11636,-0.48455 0.210937,-0.918857 0.210937,-0.966797 0,-0.08116 -0.01978,-0.08685 -0.296875,-0.05859 -0.16366,0.01669 -0.663628,0.03401 -1.111328,0.03711 -0.4477402,0.0031 -0.8277402,0.0186 -0.8437502,0.03516 -0.016,0.01656 -0.105135,0.366654 -0.197266,0.777344 -0.09212,0.41069 -0.256657,1.086953 -0.367187,1.501953 -0.11053,0.41504 -0.210603,0.878017 -0.220703,1.029297 -0.01201,0.1797 -0.04203,0.297724 -0.08789,0.339844 -0.1042,0.09569 -0.61884,0.246704 -0.94336,0.277344 -0.3948,0.041 -0.534959,-0.132828 -0.505859,-0.423829 0.02656,-0.261129 0.181369,-0.825039 0.568359,-2.0625 0.65476,-2.0937 1.066729,-4.4742153 0.892579,-5.1660153 -0.04328,-0.17195 -0.0494,-0.2591482 -0.01758,-0.2988281 0.09911,-0.1235901 0.496838,-0.2587869 0.824218,-0.2792969 0.67605,-0.014051 0.643324,0.23674 0.621094,0.78125 -0.01992,0.48805 -0.149751,1.4062844 -0.269531,2.0214843 -0.03717,0.19092 -0.05592,0.375246 -0.04297,0.410156 0.01952,0.05266 0.200513,0.06306 1.0644532,0.0625 0.57283,-3.55e-4 1.063797,-0.01673 1.091797,-0.03516 0.0874,-0.05751 0.138676,-0.251757 0.509766,-1.9355465 0.1985,-0.90073 0.39603,-1.6964313 0.4375,-1.7695313 0.09463,-0.1667394 0.32678,-0.2988275 0.527341,-0.2988275 z"/>
</svg>
