<svg xmlns="http://www.w3.org/2000/svg" width="22" height="22" version="1.1">
 <defs>
  <style id="current-color-scheme" type="text/css">
   .ColorScheme-Text { color:#f8f8f2; } .ColorScheme-Highlight { color:#4285f4; } .ColorScheme-NeutralText { color:#ff9800; } .ColorScheme-PositiveText { color:#4caf50; } .ColorScheme-NegativeText { color:#f44336; }
  </style>
 </defs>
 <path style="fill:currentColor" class="ColorScheme-Text" d="M 3.1425781,4 C 2.5093781,4 2,4.5344188 2,5.1992188 V 16.800781 C 2,17.465781 2.5093781,18 3.1425781,18 H 18.857422 C 19.491422,18 20,17.465781 20,16.800781 V 5.1992188 C 20,4.5346187 19.491422,4 18.857422,4 Z M 8,7 c 2.209,0 4,1.7909 4,4 0,2.209 -1.791,4 -4,4 C 5.7909,15 4,13.209 4,11 4,8.7909 5.7909,7 8,7 Z m 5,0 h 6 V 8 H 13 Z M 8,9 c -1.1045264,0 -2,0.895467 -2,2 0,1.104667 0.8954736,2 2,2 1.1045263,0 2,-0.895333 2,-2 C 10,9.895467 9.1045263,9 8,9 Z m 5,1 h 6 v 1 h -6 z m 0,3 h 6 v 1 h -6 z"/>
</svg>
