<svg xmlns="http://www.w3.org/2000/svg" width="22" height="22" version="1.1">
 <defs>
  <style id="current-color-scheme" type="text/css">
   .ColorScheme-Text { color:#f8f8f2; } .ColorScheme-Highlight { color:#4285f4; } .ColorScheme-NeutralText { color:#ff9800; } .ColorScheme-PositiveText { color:#4caf50; } .ColorScheme-NegativeText { color:#f44336; }
  </style>
 </defs>
 <path style="fill:currentColor" class="ColorScheme-Text" d="M 3.1425781 4 C 2.5093781 4 2 4.5344188 2 5.1992188 L 2 16.800781 C 2 17.465781 2.5093781 18 3.1425781 18 L 15 18 L 15 16.003906 L 15 13.619141 L 15 13.617188 C 15.000594 12.758008 15.703969 11.976502 16.615234 12 C 16.890135 12.006996 17.158544 12.088441 17.388672 12.230469 L 19.3125 13.425781 L 20 13.851562 L 20 5.1992188 C 20 4.5346187 19.491422 4 18.857422 4 L 3.1425781 4 z M 8 7 C 10.209 7 12 8.7909 12 11 C 12 13.209 10.209 15 8 15 C 5.7909 15 4 13.209 4 11 C 4 8.7909 5.7909 7 8 7 z M 13 7 L 19 7 L 19 8 L 13 8 L 13 7 z M 8 9 C 6.8954736 9 6 9.895467 6 11 C 6 12.104667 6.8954736 13 8 13 C 9.1045263 13 10 12.104667 10 11 C 10 9.895467 9.1045263 9 8 9 z M 13 10 L 19 10 L 19 11 L 13 11 L 13 10 z M 16.589844 13 A 0.57611458 0.61782468 0 0 0 16 13.617188 L 16 16 L 16 18.382812 A 0.57611458 0.61782468 0 0 0 16.863281 18.917969 L 18.787109 17.726562 L 20.710938 16.535156 A 0.57611458 0.61782468 0 0 0 20.710938 15.464844 L 18.787109 14.273438 L 16.863281 13.082031 A 0.57611458 0.61782468 0 0 0 16.589844 13 z"/>
</svg>
