<svg xmlns="http://www.w3.org/2000/svg" width="22" height="22" version="1.1">
 <defs>
  <style id="current-color-scheme" type="text/css">
   .ColorScheme-Text { color:#f8f8f2; } .ColorScheme-Highlight { color:#4285f4; } .ColorScheme-NeutralText { color:#ff9800; } .ColorScheme-PositiveText { color:#4caf50; } .ColorScheme-NegativeText { color:#f44336; }
  </style>
 </defs>
 <path style="fill:currentColor" class="ColorScheme-Text" d="M 5.4453125 3 A 1.4120914 1.4364486 0 0 0 4 4.4355469 L 4 17.564453 A 1.4120914 1.4364486 0 0 0 6.1171875 18.808594 L 17.292969 12.244141 A 1.4120914 1.4364486 0 0 0 17.292969 9.7558594 L 6.1171875 3.1933594 A 1.4120914 1.4364486 0 0 0 5.4453125 3 z M 7 7.1914062 L 13.486328 11.001953 L 7 14.8125 L 7 7.1914062 z M 14.990234 14.990234 A 1.0001 1.0001 0 0 0 14.292969 16.707031 L 15.589844 18.003906 L 14.298828 19.292969 A 1.0001 1.0001 0 1 0 15.712891 20.707031 L 17.003906 19.417969 L 18.292969 20.707031 A 1.0001 1.0001 0 1 0 19.707031 19.292969 L 18.417969 18.003906 L 19.712891 16.707031 A 1.0001 1.0001 0 0 0 19.015625 14.990234 A 1.0001 1.0001 0 0 0 18.298828 15.292969 L 17.003906 16.589844 L 15.707031 15.292969 A 1.0001 1.0001 0 0 0 14.990234 14.990234 z"/>
</svg>
