<svg xmlns="http://www.w3.org/2000/svg" width="22" height="22" version="1.1">
 <defs>
  <style id="current-color-scheme" type="text/css">
   .ColorScheme-Text { color:#f8f8f2; } .ColorScheme-Highlight { color:#4285f4; } .ColorScheme-NeutralText { color:#ff9800; } .ColorScheme-PositiveText { color:#4caf50; } .ColorScheme-NegativeText { color:#f44336; }
  </style>
 </defs>
 <path style="fill:currentColor" class="ColorScheme-Text" d="M 5.0234375,3.000001 C 4.4566955,3.000001 4,3.4566965 4,4.0234385 V 16.976563 c 0,0.566744 0.4566955,1.023438 1.0234375,1.023438 H 16 v -9 h -3 v 6 h -3 v -6 H 7 v -3 h 9 v 3 h 3 V 4.0234385 C 19,3.4566965 18.543306,3.000001 17.976562,3.000001 Z"/>
 <path style="fill:currentColor" class="ColorScheme-NegativeText" d="m 17,10.000001 v 4 L 17.25,16 h 1.5 L 19,14.000001 v -4 z M 17,17 v 2 h 2 v -2 z"/>
</svg>
