<svg xmlns="http://www.w3.org/2000/svg" width="24" height="24" version="1.1">
 <defs>
  <style id="current-color-scheme" type="text/css">
   .ColorScheme-Text { color:#f8f8f2; } .ColorScheme-Highlight { color:#4285f4; } .ColorScheme-NeutralText { color:#ff9800; } .ColorScheme-PositiveText { color:#4caf50; } .ColorScheme-NegativeText { color:#f44336; }
  </style>
 </defs>
 <g transform="translate(4,4)">
  <path style="fill:currentColor" class="ColorScheme-Text" d="M 0,0 V 2 C 7.756,2 14,8.244 14,16 H 16 C 16,7.136 8.864,0 0,0 Z"/>
  <path style="opacity:0.3;fill:currentColor" class="ColorScheme-Text" d="M 0,8 V 10 C 3.324,10 6,12.676 6,16 H 8 C 8,11.568 4.432,8 0,8 Z M 0,4 V 6 C 5.54,6 10,10.46 10,16 H 12 C 12,9.352 6.648,4 0,4 Z"/>
  <rect style="fill:currentColor" class="ColorScheme-Text" width="5" height="5" x="9" y="2"/>
 </g>
</svg>
