<svg xmlns="http://www.w3.org/2000/svg" width="24" height="24" version="1.1">
 <defs>
  <style id="current-color-scheme" type="text/css">
   .ColorScheme-Text { color:#f8f8f2; } .ColorScheme-Highlight { color:#4285f4; } .ColorScheme-NeutralText { color:#ff9800; } .ColorScheme-PositiveText { color:#4caf50; } .ColorScheme-NegativeText { color:#f44336; }
  </style>
 </defs>
 <rect style="opacity:0.3;fill:currentColor" class="ColorScheme-Text" width="12" height="12" x="9" y="9"/>
 <path style="fill:currentColor" class="ColorScheme-Text" d="M 3,9 V 21 H 9 V 9 H 21 V 3 H 9 C 3,3 3,9 3,9 Z"/>
</svg>
