<svg xmlns="http://www.w3.org/2000/svg" width="16" height="16" version="1.1">
 <path style="fill:#c0c3cf" d="M 15,1 1,15 H 15 Z M 12,7 C 13.1,7 14,7.9 14,9 14,10.1 13.1,11 12,11 V 12 H 11 V 10 H 12 C 12.55,10 13,9.55 13,9 13,8.45 12.55,8 12,8 11.45,8 11,8.45 11,9 H 10 C 10,7.9 10.9,7 12,7 Z M 11,13 H 12 V 14 H 11 Z"/>
</svg>
