<svg xmlns="http://www.w3.org/2000/svg" width="16" height="16" version="1.1">
 <path style="fill:#c0c3cf" d="M 8,1 C 4.9069291,1.0031077 2.1825615,3.0358623 1.2988281,6 H 3.4199219 C 4.2148034,4.1786969 6.0127958,3.0009928 8,3 c 1.985786,0.00254 3.781859,1.1799949 4.576172,3 h 2.128906 C 13.820931,3.0344785 11.094516,1.001382 8,1 Z M 8,4 C 6.7301958,4.0017817 5.1992672,4.8028155 4.776,6 h 6.35 C 10.702493,4.8021406 9.2705212,4.0009552 8,4 Z m -7,3 7,8 7,-8 z"/>
</svg>
