<svg xmlns="http://www.w3.org/2000/svg" width="16" height="16" version="1.1">
 <path style="fill:#c0c3cf" d="M 8,1 C 4.14,1 1,4.14 1,8 1,11.86 4.14,15 8,15 11.86,15 15,11.86 15,8 15,4.14 11.86,1 8,1 Z M 8,2 C 11.32,2 14,4.68 14,8 14,11.32 11.32,14 8,14 4.68,14 2,11.32 2,8 2,4.68 4.68,2 8,2 Z"/>
</svg>
