<svg xmlns="http://www.w3.org/2000/svg" width="24" height="24" version="1.1">
 <defs>
  <style id="current-color-scheme" type="text/css">
   .ColorScheme-Text { color:#e7e6df; } .ColorScheme-Highlight { color:#4285f4; }
  </style>
 </defs>
 <g>
  <path style="fill:currentColor" class="ColorScheme-Text" d="m16 5.0718a8 8 0 0 0 -10.928 2.9282 8 8 0 0 0 2.928 10.928 8 8 0 0 0 10.928 -2.928 8 8 0 0 0 -2.928 -10.928zm-1 1.7321a6 6 0 0 1 2.8736 3.9955 1.5 1.5 0 0 1 0.24007 0.11154 1.5 1.5 0 0 1 0.54904 2.049 1.5 1.5 0 0 1 -0.90187 0.6949 6 6 0 0 1 -0.565 1.345 6 6 0 0 1 -2.793 2.49 1.5 1.5 0 0 1 -0.198 0.691 1.5 1.5 0 0 1 -2.049 0.549 1.5 1.5 0 0 1 -0.647 -0.758 6 6 0 0 1 -2.509 -0.776 6 6 0 0 1 -2.9949 -5.195 1.5 1.5 0 0 1 -0.0517 -0.028 1.5 1.5 0 0 1 -0.5491 -2.0489 1.5 1.5 0 0 1 1.3084 -0.7467 6 6 0 0 1 0.0911 -0.1774 6 6 0 0 1 8.1962 -2.1961zm-0.5 0.866a5 5 0 0 0 -6.8301 1.8301 5 5 0 0 0 -0.0108 0.0186 1.5 1.5 0 0 1 0.541 1.1914l3.2736 1.2518a1.5 1.5 0 0 1 1.8923 -0.32831 1.5 1.5 0 0 1 0.57176 0.59172l1.9534-0.29752a1.5 1.5 0 0 1 0.174 -0.467 1.5 1.5 0 0 1 0.786 -0.66 5 5 0 0 0 -2.351 -3.1301zm1.5419 5.2474-1.9534 0.29751a1.5 1.5 0 0 1 -0.17336 0.46824 1.5 1.5 0 0 1 -0.7097 0.62768l0.1093 1.6779a1.5 1.5 0 0 1 0.34143 0.143 1.5 1.5 0 0 1 0.45027 0.39979 5 5 0 0 0 2.2238 -2.0314 5 5 0 0 0 0.41088 -0.9265 1.5 1.5 0 0 1 -0.12737 -0.06453 1.5 1.5 0 0 1 -0.57176 -0.59172zm-4.9226-0.02071-3.2746-1.2501a1.5 1.5 0 0 1 -0.83824 0.49483 5 5 0 0 0 2.4936 4.1888 5 5 0 0 0 1.9805 0.63602 1.5 1.5 0 0 1 0.12652 -0.28554 1.5 1.5 0 0 1 0.7097 -0.62768l-0.1093-1.6779a1.5 1.5 0 0 1 -0.34143 -0.143 1.5 1.5 0 0 1 -0.74675 -1.3355z"/>
 </g>
</svg>
