<svg xmlns="http://www.w3.org/2000/svg" width="16" height="16" version="1.1">
 <path style="fill:#c0c3cf" d="M 3,1 C 2,1 2,2 2,2 V 15 C 2,16 3,16 3,16 H 13 C 14,16 14,15 14,15 V 5 L 10,1 Z M 4,3 H 9 V 6 H 12 V 14 H 4 Z"/>
</svg>
