<svg xmlns="http://www.w3.org/2000/svg" width="16" height="16" version="1.1">
 <defs>
  <style id="current-color-scheme" type="text/css">
   .ColorScheme-Text { color:#cac9bf; } .ColorScheme-Highlight { color:#4285f4; }
  </style>
 </defs>
 <path style="fill:currentColor;opacity:0.3" class="ColorScheme-Text" d="M 10,8 A 5,5 0 0 1 5,13 5,5 0 0 1 0,8 5,5 0 0 1 5,3 5,5 0 0 1 10,8 Z"/>
 <path style="opacity:0.7;fill:currentColor" class="ColorScheme-Text" d="M 5,3 A 5,5 0 0 0 0,8 5,5 0 0 0 5,13 5,5 0 0 0 10,8 5,5 0 0 0 5,3 Z M 5,4 A 4,4 0 0 1 9,8 4,4 0 0 1 5,12 4,4 0 0 1 1,8 4,4 0 0 1 5,4 Z"/>
 <path style="fill:currentColor" class="ColorScheme-Text" d="M 4,0 H 6 V 16 H 4 Z"/>
</svg>
