<svg xmlns="http://www.w3.org/2000/svg" width="16" height="16" version="1.1">
 <defs>
  <style id="current-color-scheme" type="text/css">
   .ColorScheme-Text { color:#cac9bf; } .ColorScheme-Highlight { color:#4285f4; }
  </style>
 </defs>
 <path style="fill:currentColor" class="ColorScheme-Text" d="M 1,1 V 10 H 5 V 5 H 10 V 1 Z M 6,6 V 15 H 15 V 6 Z M 10.5,7 C 10.5,7 12,7 12,8.5 V 10 H 12.5 C 13,10 13,10.5 13,10.5 V 13.5 C 13,13.5 13,14 12.5,14 H 8.5 C 8,14 8,13.5 8,13.5 V 10.5 C 8,10.5 8,10 8.5,10 H 9 V 8.5 C 9,7 10.5,7 10.5,7 Z M 10.5,8 C 10,8 10,8.5 10,8.5 V 10 H 11 V 8.5 C 11,8.5 11,8 10.5,8 Z"/>
</svg>
