<svg xmlns="http://www.w3.org/2000/svg" width="16" height="16" version="1.1">
 <defs>
  <style id="current-color-scheme" type="text/css">
   .ColorScheme-Text { color:#cac9bf; } .ColorScheme-Highlight { color:#4285f4; }
  </style>
 </defs>
 <path style="fill:currentColor" class="ColorScheme-Text" d="M 5,1 V 3 H 1 V 4 H 5 V 6 H 11 V 4 H 15 V 3 H 11 V 1 Z M 6,7 8,10 10,7 Z M 1,10 V 15 H 6 V 13 H 7 V 12 H 6 V 10 Z M 10,10 V 12 H 9 V 13 H 10 V 15 H 15 V 10 Z"/>
</svg>
