<svg xmlns="http://www.w3.org/2000/svg" width="16" height="16" version="1.1">
 <defs>
  <style id="current-color-scheme" type="text/css">
   .ColorScheme-Text { color:#cac9bf; } .ColorScheme-Highlight { color:#4285f4; }
  </style>
 </defs>
 <path style="fill:currentColor" class="ColorScheme-Text" d="M 2,1 C 2,1 1,1 1,2 V 10 H 2 V 9 H 3 V 6 H 13 V 14 H 14 V 13 H 15 V 2 C 15,1 14,1 14,1 Z M 14,14 V 15 H 15 V 14 Z M 13,14 H 12 V 15 H 13 Z M 12,14 V 13 H 11 V 14 Z M 11,14 H 10 V 15 H 11 Z M 10,14 V 13 H 9 V 14 Z M 9,14 H 8 V 15 H 9 Z M 8,14 V 13 H 7 V 14 Z M 7,14 H 6 V 15 H 7 Z M 6,14 V 13 H 5 V 14 Z M 5,14 H 4 V 15 H 5 Z M 4,14 V 13 H 3 V 14 Z M 3,14 H 2 V 15 H 3 Z M 2,14 V 13 H 1 V 14 Z M 2,13 H 3 V 12 H 2 Z M 2,12 V 11 H 1 V 12 Z M 2,11 H 3 V 10 H 2 Z"/>
</svg>
