<svg xmlns="http://www.w3.org/2000/svg" width="16" height="16" version="1.1">
 <defs>
  <style id="current-color-scheme" type="text/css">
   .ColorScheme-Text { color:#cac9bf; } .ColorScheme-Highlight { color:#4285f4; }
  </style>
 </defs>
 <path style="fill:currentColor" class="ColorScheme-Text" d="M 12,4 V 10 L 6,4 Z M 13,13 H 15 V 15 H 13 Z M 1,1 H 3 V 3 H 1 Z M 4,1 V 3 H 13 V 12 H 15 V 1 Z"/>
</svg>
