<svg xmlns="http://www.w3.org/2000/svg" width="16" height="16" version="1.1">
 <defs>
  <style id="current-color-scheme" type="text/css">
   .ColorScheme-Text { color:#cac9bf; } .ColorScheme-Highlight { color:#4285f4; }
  </style>
 </defs>
 <path style="fill:currentColor" class="ColorScheme-Text" d="M 14,11 V 13 H 13 L 14.5,16 16,13 H 15 V 11 Z M 7,1 0,8 H 2 V 15 H 12 V 8 H 14 Z M 7,6 A 2,2 0 0 1 9,8 2,2 0 0 1 7,10 C 10,10 10,12.5 10,12.5 V 13 H 4 V 12.5 C 4,12.5 4,10 7,10 A 2,2 0 0 1 5,8 2,2 0 0 1 7,6 Z"/>
</svg>
