<svg xmlns="http://www.w3.org/2000/svg" viewBox="0 0 64 64">
 <path d="m 9 8 c -1.464 0 -3 1.511 -3 3 l 0 1 -3 0 c -1.47 0 -3 1.495 -3 3 l 0 38 c 0 2 1 3 3 3 l 58 0 c 1.568 0 3 -1.358 3 -3 l 0 -33 c 0 -1.505 -1.455 -3 -3 -3 l -3 0 0 -6 c 0 -1.461 -1.453 -3 -3 -3 z" style="fill:#268bd2;fill-opacity:1;stroke:none"/>
 <path d="m 9 8 c -1.464 0 -3 1.511 -3 3 l 0 1 -3 0 c -1.47 0 -3 1.495 -3 3 l 0 38 c 0 2 1 3 3 3 l 58 0 c 1.568 0 3 -1.358 3 -3 l 0 -33 c 0 -1.505 -1.455 -3 -3 -3 l -3 0 0 -6 c 0 -1.461 -1.453 -3 -3 -3 l -46 0 z m -6 6 34 0 c 0.59 0 1 0.515 1 1 l 0 4 23 0 c 0.506 0 1 0.509 1 1 l 0 33 c 0 0.521 -0.479 1 -1 1 l -58 0 c -0.464 0 -1 -0.396 -1 -1 l 0 -38 c 0 -0.492 0.517 -1 1 -1 z" style="fill:#6c71c4;fill-opacity:1;stroke:none"/>
 <path d="m 41.04 25 c -1.036 0.016 -2.056 0.653 -2.219 1.841 -0.261 1.901 1.697 1.188 3.263 1.188 1.566 0 2.089 3.089 1.697 4.752 -0.392 1.663 -4.555 5.592 -13.967 1.663 c -7.749 -3.235 -11.618 1.072 -11.814 1.158 0.733 6.426 6.713 13.395 13.967 13.395 7.75 0 14.03 -7.678 14.03 -14.732 c 0 -0.81 -0.103 -1.608 -0.261 -2.376 -0.144 -0.388 -0.286 -0.776 -0.392 -1.129 -0.19 -0.633 -0.404 -1.167 -0.587 -1.663 -0.008 -0.016 0.008 -0.043 0 -0.06 -0.742 -1.5 -1.782 -2.855 -3.068 -3.98 -0.006 -0.013 -0.027 0.014 -0.033 0 -0.201 -0.047 -0.413 -0.062 -0.62 -0.06 z" style="fill:#002b36;opacity:1;fill-opacity:1;color:#002b36"/>
 <path d="m 38 31 c 0 1.105 -0.895 2 -2 2 -1.105 0 -2 -0.895 -2 -2 0 -1.105 0.895 -2 2 -2 c 1.105 0 2 0.896 2 2 z" style="fill:#002b36;opacity:1;fill-opacity:1;color:#002b36"/>
 <path d="m 32 28 c 0 0.552 -0.448 1 -1 1 -0.552 0 -1 -0.448 -1 -1 0 -0.552 0.448 -1 1 -1 0.552 0 1 0.448 1 1 z" style="fill:#002b36;opacity:1;fill-opacity:1;color:#002b36"/>
</svg>
