<svg xmlns="http://www.w3.org/2000/svg" width="16" height="16" version="1.1">
 <defs>
  <style id="current-color-scheme" type="text/css">
   .ColorScheme-Text { color:#efefef; } .ColorScheme-Highlight { color:#4285f4; }
  </style>
 </defs>
 <path style="fill:currentColor" class="ColorScheme-Text" d="M 11.646,1 1,11.646 4.3535,15 15,4.3535 Z M 3.5,2 2.9687,2.9687 2,3.5 2.9687,4.0312 3.5,5 4.0312,4.0312 5,3.5 4.0312,2.9687 Z M 11.646,2.6777 13.322,4.3535 10.078,7.5996 8.4004,5.9219 Z"/>
</svg>
