<svg xmlns="http://www.w3.org/2000/svg" width="16" height="16" version="1.1">
 <defs>
  <style id="current-color-scheme" type="text/css">
   .ColorScheme-Text { color:#efefef; } .ColorScheme-Highlight { color:#4285f4; }
  </style>
 </defs>
 <path style="fill:currentColor;opacity:0.3" class="ColorScheme-Text" d="M 13,11 A 5,5 0 0 1 8,16 5,5 0 0 1 3,11 5,5 0 0 1 8,6 5,5 0 0 1 13,11 Z"/>
 <path style="opacity:0.7;fill:currentColor" class="ColorScheme-Text" d="M 8 6 A 5 5 0 0 0 3 11 A 5 5 0 0 0 8 16 A 5 5 0 0 0 13 11 A 5 5 0 0 0 8 6 z M 8 7 A 4 4 0 0 1 12 11 A 4 4 0 0 1 8 15 A 4 4 0 0 1 4 11 A 4 4 0 0 1 8 7 z"/>
 <path style="fill:currentColor" class="ColorScheme-Text" d="M 0,10 H 16 V 12 H 0 Z"/>
</svg>
