<svg xmlns="http://www.w3.org/2000/svg" width="16" height="16" version="1.1">
 <defs>
  <style id="current-color-scheme" type="text/css">
   .ColorScheme-Text { color:#efefef; } .ColorScheme-Highlight { color:#4285f4; }
  </style>
 </defs>
 <path style="fill:currentColor" class="ColorScheme-Text" d="M 3,2 C 3,2 2,2 2,3 V 9 H 4 V 4 H 12 V 9 H 14 V 3 C 14,2 13,2 13,2 Z M 4,10 V 12 H 6 V 10 Z M 10,10 V 12 H 12 V 10 Z M 2,13 V 15 H 4 V 13 Z M 7,13 V 15 H 9 V 13 Z M 12,13 V 15 H 14 V 13 Z"/>
</svg>
