<svg xmlns="http://www.w3.org/2000/svg" width="16" height="16" version="1.1">
 <defs>
  <style id="current-color-scheme" type="text/css">
   .ColorScheme-Text { color:#efefef; } .ColorScheme-Highlight { color:#4285f4; }
  </style>
 </defs>
 <path style="fill:currentColor" class="ColorScheme-Text" d="M 3,0.5 0.5,3 3,5.5 5.5,3 Z M 5.5,4.5 4.5,5.5 8.5,9.5 7,11 H 11 V 7 L 9.5,8.5 Z M 13,10.5 10.5,13 13,15.5 15.5,13 Z"/>
</svg>
