<svg xmlns="http://www.w3.org/2000/svg" width="24" height="24" version="1.1">
 <defs>
  <style id="current-color-scheme" type="text/css">
   .ColorScheme-Text { color:#c0c3cf; } .ColorScheme-Highlight { color:#4285f4; }
  </style>
 </defs>
 <g transform="translate(1,1)">
  <rect style="opacity:0" width="22" height="22" x="0" y="0"/>
  <path style="fill:none;stroke:currentColor;stroke-width:1.99999976;stroke-linecap:round;stroke-linejoin:bevel" class="ColorScheme-Text" d="m 9.0000034,7.0048001 -3.8e-6,5.9999999 c 0,1.000449 -3.8e-6,2.000449 -1.0000062,2.000449 -0.3954482,0 -0.610938,0.0096 -0.9999912,-4.48e-4 -0.3838563,0.0015 -7.5e-6,4.48e-4 -1.0000062,4.48e-4 -1.0000025,0 -0.999995,-1 -0.999995,-2.000449 l 3.8e-6,-5.9999999"/>
  <path style="fill:none;stroke:currentColor;stroke-width:1.99999976;stroke-linecap:round" class="ColorScheme-Text" d="M 17.000001,15 12.999999,9.9999994 M 17.000001,6.9999997 12.999999,12 m 0,3 0,-8.0000003"/>
 </g>
</svg>
