<svg xmlns="http://www.w3.org/2000/svg" width="24" height="24" version="1.1">
 <defs>
  <style id="current-color-scheme" type="text/css">
   .ColorScheme-Text { color:#c0c3cf; } .ColorScheme-Highlight { color:#4285f4; }
  </style>
 </defs>
 <g transform="translate(-544,402.01)">
  <path style="fill:currentColor" class="ColorScheme-Text" d="m 549,-398.01 0,8.6035 c -2.4e-4,4.9478 7,7.3965 7,7.3965 0,0 6.9998,-2.4486 7,-7.3965 l 0,-8.6035 -14,0 z m 2,2 5,0 0,5 5,0 0,2.1992 c -2.7e-4,3.6124 -5,4.8008 -5,4.8008 l 0,-7 -5,0 0,-5 z"/>
 </g>
</svg>
