<svg xmlns="http://www.w3.org/2000/svg" width="24" height="24" version="1.1">
 <defs>
  <style id="current-color-scheme" type="text/css">
   .ColorScheme-Text { color:#c0c3cf; } .ColorScheme-Highlight { color:#4285f4; }
  </style>
 </defs>
 <g transform="translate(-624 -500)">
  <path style="fill:currentColor" class="ColorScheme-Text" d="m636 504c-4.4183 0-8 3.5817-8 8s3.5817 8 8 8 8-3.5817 8-8-3.5817-8-8-8zm3.1816 4.4648 1.4141 1.4141-4.2422 4.2422-1.4141 1.4141-1.4141-1.4141-2.1211-2.1211 1.4141-1.4141 2.1211 2.1211 4.2422-4.2422z"/>
 </g>
</svg>
