<svg xmlns="http://www.w3.org/2000/svg" width="24" height="24" version="1.1">
 <defs>
  <style id="current-color-scheme" type="text/css">
   .ColorScheme-Text { color:#c0c3cf; } .ColorScheme-Highlight { color:#4285f4; }
  </style>
 </defs>
 <g transform="translate(-152 -816.36)">
  <path style="fill:currentColor" class="ColorScheme-Text" d="m169 822.36s2 0 2 2v6c0 2-2 2-2 2l-0.9998-0.00002-2 3.0034-2-3.0034-5.0002 0.00002c-1.108 0-2-0.892-2-2v-6c0-2 1.9688-2 1.9688-2zm-1 4h-8v2h8z"/>
 </g>
</svg>
