<svg xmlns="http://www.w3.org/2000/svg" width="24" height="24" viewBox="0 0 24 24">
 <defs>
  <style id="current-color-scheme" type="text/css">
   .ColorScheme-Text { color:#cac9bf; } .ColorScheme-Highlight { color:#4285f4; }
  </style>
 </defs>
 <path style="fill:currentColor" class="ColorScheme-Text" d="m2 1l3 4 3-4h-6zm7 0v2h3v9.996h-8v-6.996h-2v8c0 1 1 1 1 1h10s1 0 1-1v-12c0-1-1-1-1-1h-4z" transform="translate(4 4)"/>
</svg>
