<svg xmlns="http://www.w3.org/2000/svg" width="24" height="24" version="1.1">
 <defs>
  <style id="current-color-scheme" type="text/css">
   .ColorScheme-Text { color:#cac9bf; } .ColorScheme-Highlight { color:#4285f4; }
  </style>
 </defs>
 <g transform="translate(4,4)">
  <path style="fill:currentColor" class="ColorScheme-Text" d="M 3,0 V 2 H 5 V 0 Z M 0,3 V 5 H 11 V 16 H 13 V 4 C 13,4 13,3 12,3 Z M 3,6 V 12 C 3,13 4,13 4,13 H 10 V 11 H 5 V 6 Z M 14,11 V 13 H 16 V 11 Z"/>
 </g>
</svg>
