<svg xmlns="http://www.w3.org/2000/svg" width="24" height="24" version="1.1">
 <defs>
  <style id="current-color-scheme" type="text/css">
   .ColorScheme-Text { color:#cac9bf; } .ColorScheme-Highlight { color:#4285f4; }
  </style>
 </defs>
 <g transform="translate(4,4)">
  <path style="fill:currentColor" class="ColorScheme-Text" d="M 2.4,4 C 1.6248,4 1,4.6248 1,5.4 V 10.6 C 1,11.376 1.6248,12 2.4004,12 H 13.6 C 14.376,12 15,11.376 15,10.6 V 5.4 C 15,4.6248 14.376,4 13.6,4 Z M 10,6 H 11 V 9 H 6 V 10 L 4,8.5 6,7 V 8 H 10 Z"/>
 </g>
</svg>
