<svg xmlns="http://www.w3.org/2000/svg" width="24" height="24" version="1.1">
 <defs>
  <style id="current-color-scheme" type="text/css">
   .ColorScheme-Text { color:#cac9bf; } .ColorScheme-Highlight { color:#4285f4; }
  </style>
 </defs>
 <g transform="translate(4,4)">
  <path style="fill:currentColor" class="ColorScheme-Text" d="M 11,1 V 3 H 1 V 5 H 11 V 7 L 15,4 Z M 11,9 V 11 H 1 V 13 H 11 V 15 L 15,12 Z"/>
 </g>
</svg>
