<svg xmlns="http://www.w3.org/2000/svg" width="24" height="24" version="1.1">
 <defs>
  <style id="current-color-scheme" type="text/css">
   .ColorScheme-Text { color:#cac9bf; } .ColorScheme-Highlight { color:#4285f4; }
  </style>
 </defs>
 <g transform="translate(4,4)">
  <path style="fill:currentColor" class="ColorScheme-Text" d="M 9,9 C 8,9 8,10 8,10 V 14 C 8,15 9,15 9,15 H 14 C 15,15 15,14 15,14 V 10 C 15,9 14,9 14,9 Z M 3,1 C 1,1 1,3 1,3 V 15 H 7 V 13 H 3 V 3 H 13 V 8 H 15 V 3 C 15,3 15,1 13,1 Z M 4,10 V 12 H 6 V 10 Z M 4,7 V 9 H 6 V 7 Z M 10,4 V 6 H 12 V 4 Z M 7,4 V 6 H 9 V 4 Z M 4,4 V 6 H 6 V 4 Z"/>
 </g>
</svg>
