<svg xmlns="http://www.w3.org/2000/svg" width="24" height="24" version="1.1">
 <defs>
  <style id="current-color-scheme" type="text/css">
   .ColorScheme-Text { color:#cac9bf; } .ColorScheme-Highlight { color:#4285f4; }
  </style>
 </defs>
 <path style="opacity:0.3;fill:currentColor" class="ColorScheme-Text" d="M 9,9 H 21 V 21 H 9 Z"/>
 <path style="fill:currentColor" class="ColorScheme-Text" d="M 3,21 H 9 V 9 H 21 V 3 H 3 Z"/>
</svg>
