<svg xmlns="http://www.w3.org/2000/svg" width="16" height="16" version="1.1">
 <defs>
  <style id="current-color-scheme" type="text/css">
   .ColorScheme-Text { color:#a9b1d6; } .ColorScheme-Highlight { color:#4285f4; } .ColorScheme-NeutralText { color:#ff9800; } .ColorScheme-PositiveText { color:#4caf50; } .ColorScheme-NegativeText { color:#f44336; }
  </style>
 </defs>
 <path style="fill:currentColor;opacity:0.3" class="ColorScheme-Text" d="m 6.0003273,2.0004801 a 0.99987974,1 0 0 0 -0.9998797,1 0.99987974,1 0 0 0 0.9998797,1 c 2.2804041,0 3.5793314,0.5655084 4.5756217,1.4609375 C 11.09201,5.0076761 11.666223,4.6425407 12.269104,4.3207926 12.174174,4.2239826 12.083033,4.1245788 11.98203,4.0317301 10.61524,2.775286 8.6808844,2.0004801 6.0003273,2.0004801 Z m -5.02869201,1 a 0.99987974,1 0 0 0 -0.056634,0.00391 0.99987974,1 0 0 0 -0.9100465,1.0820313 c 0.1945814,2.2574661 0.805942,4.0106277 1.81032881,5.3164025 1.0043869,1.3057741 2.3819176,2.1153441 3.9057802,2.5585941 A 0.99987974,1 0 0 0 6.961149,11.279777 0.99987974,1 0 0 0 6.2795904,10.039542 C 5.0574699,9.6840629 4.1183057,9.1165827 3.4010305,8.1840739 2.6837555,7.2515648 2.1684873,5.9052101 1.9969026,3.9145426 A 0.99987974,1 0 0 0 0.97163529,3.0004801 Z m 14.04713871,1 a 0.99987974,1 0 0 0 -0.384719,0.068359 C 12.961572,4.725498 11.480348,5.4183984 10.421671,6.6762613 9.3629931,7.9341243 8.873737,9.6872849 9.0019194,12.055168 a 0.99987974,1 0 0 0 1.0526086,0.943359 0.99987974,1 0 0 0 0.943245,-1.052735 c -0.111557,-2.0607671 0.269046,-3.1674516 0.954963,-3.9824213 0.685918,-0.8149696 1.824024,-1.4078895 3.411699,-2.03125 a 0.99987974,1 0 0 0 0.566339,-1.296875 0.99987974,1 0 0 0 -0.912,-0.6347656 z M 5.8089441,4.7309489 C 5.4146511,6.4442246 4.9945523,7.5537835 4.4712143,8.248527 4.9469326,8.6910626 5.5265728,8.9979594 6.2502972,9.2348551 6.9828606,8.1648088 7.4200318,6.7541567 7.8204209,4.9106363 7.3115688,4.8092302 6.7229369,4.7504801 6.0003273,4.7504801 c -0.065537,0 -0.1275953,-0.012308 -0.1913832,-0.019531 z m 8.4521089,2.5097656 c -0.750167,0.3724367 -1.310128,0.7446742 -1.667769,1.1425781 0.166324,0.3335386 0.330975,0.6760269 0.497987,1.0371094 a 0.99987974,1 0 0 0 1.327966,0.4882819 0.99987974,1 0 0 0 0.488222,-1.3281257 C 14.698513,8.128817 14.484496,7.6812534 14.261053,7.2407145 Z M 1.2665217,9.9125899 c -0.1572461,0.03465 -0.28483431,0.07188 -0.45697631,0.1054681 a 0.99987974,1 0 0 0 -0.7909204,1.173828 0.99987974,1 0 0 0 1.17368681,0.791016 C 1.8508897,11.854396 2.4503417,11.704181 3.0045938,11.521964 2.3604197,11.08803 1.7718144,10.556951 1.2665217,9.9125899 Z"/>
</svg>
