<svg xmlns="http://www.w3.org/2000/svg" width="16" height="16" version="1.1">
 <defs>
  <style id="current-color-scheme" type="text/css">
   .ColorScheme-Text { color:#a9b1d6; } .ColorScheme-Highlight { color:#4285f4; } .ColorScheme-NeutralText { color:#ff9800; } .ColorScheme-PositiveText { color:#4caf50; } .ColorScheme-NegativeText { color:#f44336; }
  </style>
 </defs>
 <path style="fill:currentColor" class="ColorScheme-Text" d="M 12.5,2 C 10.694268,2.0012107 9.1858574,3.3759536 9.0175781,5.1738281 L 6.4140625,9.0039062 C 5.8293179,9.0240774 5.2701704,9.248704 4.8339844,9.6386719 L 1.4300625,8.0898438 C 1.3088788,8.0323312 1.1773637,7.9997845 1.0433437,7.9941406 -0.06317119,7.9478707 -0.41328801,9.4676256 0.6019375,9.9101562 L 4.0019531,11.457031 C 4.0011789,11.471348 4.0005278,11.485672 4,11.5 4,12.880712 5.1192881,14 6.5,14 7.8807119,14 9,12.880712 9,11.5 8.9989947,11.460245 8.997041,11.42052 8.9941406,11.380859 L 13.197266,8.9296875 C 14.82807,8.5981551 15.999926,7.1641618 16,5.5 16,3.5670034 14.432997,1.9999999 12.5,2 Z M 12.5,3 C 13.880712,2.9999999 15,4.1192881 15,5.5 15,6.8807119 13.880712,8.0000001 12.5,8 11.119288,8.0000001 9.9999999,6.8807119 10,5.5 9.9999999,4.1192881 11.119288,2.9999999 12.5,3 Z M 12.5,3.5 C 11.395431,3.5 10.5,4.3954305 10.5,5.5 10.5,6.6045695 11.395431,7.5 12.5,7.5 13.604569,7.5 14.5,6.6045695 14.5,5.5 14.5,4.3954305 13.604569,3.5 12.5,3.5 Z M 6.5,10 C 7.3284271,10 8,10.671573 8,11.5 8,12.328427 7.3284271,13 6.5,13 5.8423177,12.999148 5.2618956,12.569968 5.0683594,11.941406 L 6.0996094,12.410156 C 7.3258637,12.99668 8.1755917,11.128882 6.9277344,10.589844 L 5.90625,10.125 C 6.0935848,10.043321 6.2956346,10.000784 6.5,10 Z"/>
</svg>
