<svg xmlns="http://www.w3.org/2000/svg" width="64" height="64" version="1.1">
 <rect style="opacity:0.2" width="50" height="32" x="7" y="24" rx="2.5" ry="2.5"/>
 <path style="fill:#F63954" d="M 7,44.5 C 7,45.885 8.115,47 9.5,47 H 54.5 C 55.885,47 57,45.885 57,44.5 V 17.5 C 57,16.115 55.885,15 54.5,15 H 29 V 12.5 C 29,11.115 27.885,10 26.5,10 H 9.5 C 8.115,10 7,11.115 7,12.5"/>
 <rect style="opacity:0.2" width="50" height="32" x="7" y="22" rx="2.5" ry="2.5"/>
 <rect style="fill:#e4e4e4" width="44" height="20" x="10" y="18" rx="2.5" ry="2.5"/>
 <rect style="fill:#F63954" width="50" height="32" x="7" y="23" rx="2.5" ry="2.5"/>
 <path style="opacity:0.1;fill:#ffffff" d="M 9.5,10 C 8.115,10 7,11.115 7,12.5 V 13.5 C 7,12.115 8.115,11 9.5,11 H 26.5 C 27.885,11 29,12.115 29,13.5 V 12.5 C 29,11.115 27.885,10 26.5,10 Z M 29,15 V 16 H 54.5 C 55.89,16 57,17.115 57,18.5 V 17.5 C 57,16.115 55.89,15 54.5,15 Z"/>
 <path style="fill:#1C1d21" d="M 9.5 23 C 8.115 23 7 24.115 7 25.5 L 7 27.041 L 55.223 54.883 C 56.251 54.573 57 53.632 57 52.5 L 57 49.908 L 10.393 23 L 9.5 23 z M 20.785 23 L 57 43.908 L 57 37.908 L 31.176 23 L 20.785 23 z M 41.568 23 L 57 31.908 L 57 25.908 L 51.961 23 L 41.568 23 z M 7 33.041 L 7 39.041 L 34.641 55 L 45.033 55 L 7 33.041 z M 7 45.041 L 7 51.041 L 13.855 55 L 24.248 55 L 7 45.041 z"/>
</svg>
