<svg xmlns="http://www.w3.org/2000/svg" width="24" height="24" version="1.1">
 <defs>
  <style id="current-color-scheme" type="text/css">
   .ColorScheme-Text { color:#CFD5D6; } .ColorScheme-Highlight { color:#4285f4; }
  </style>
 </defs>
 <path d="m 7,4 0,16 11,0 c 0.554,0 1,-0.446 1,-1 L 19,5 C 19,4.446 18.554,4 18,4 L 13,4 7,4 Z" style="fill:currentColor" class="ColorScheme-Text"/>
 <path d="m 14,4 0,7 2,0 0,-7 z" style="fill:currentColor" class="ColorScheme-Highlight"/>
 <path d="M 6,4 C 5.446,4 5,4.446 5,5 l 0,14 c 0,0.554 0.446,1 1,1 L 7,20 7,4 6,4 Z" style="opacity:0.3;fill:currentColor" class="ColorScheme-Text"/>
</svg>
