<svg xmlns="http://www.w3.org/2000/svg" width="24" height="24" version="1.1">
 <defs>
  <style id="current-color-scheme" type="text/css">
   .ColorScheme-Text { color:#CFD5D6; } .ColorScheme-Highlight { color:#4285f4; }
  </style>
 </defs>
 <path style="fill:currentColor" class="ColorScheme-Text" d="M 11.4667,6.0001 C 9.1811733,6.00202 7.1509055,7.493098 6.4188,9.7074 4.9416334,10.433299 4.0015465,11.960338 4,13.6364 4,16.04635 5.9102667,18 8.2667,18 c 1.0463008,-0.0021 2.055375,-0.397303 2.8354,-1.1105 0.121275,0.0108 0.242876,0.01735 0.36459,0.01964 0.779294,-0.0022 1.54864,-0.179117 2.2539,-0.51818 0.618999,0.339536 1.310389,0.517529 2.0128,0.51818 2.356695,-3.95e-4 4.266756,-1.954783 4.266,-4.365 -2.16e-4,-2.409913 -1.910602,-4.3633695 -4.267,-4.3632 l -0.0085,0 C 14.718477,6.809921 13.141479,6.0028458 11.46579,6.0001 Z"/>
</svg>
