<svg xmlns="http://www.w3.org/2000/svg" width="24" height="24" version="1.1">
 <defs>
  <style id="current-color-scheme" type="text/css">
   .ColorScheme-Text { color:#CFD5D6; } .ColorScheme-Highlight { color:#4285f4; }
  </style>
 </defs>
 <path style="opacity:0.3;fill:currentColor" class="ColorScheme-Text" d="m 7.0410156,5.9996286 4.9648434,3.544922 4.962891,-3.544922 z M 7,10.880488 v 7.119141 h 10 v -7.109375 l -3.830078,2.736328 c -0.692341,0.494674 -1.633831,0.494674 -2.326172,0 z"/>
 <path style="fill:currentColor" class="ColorScheme-Text" d="M 5.0371094,5.9999381 A 0.99917917,0.9987072 0 0 0 4.0019531,7.0409537 C 4.0019147,7.0436771 4,7.0682975 4,7.0682975 v 9.9374995 c 0,0.54653 0.4399575,1.000321 0.9921875,0.994141 H 6 V 8.9393912 l 5.425781,3.8730478 a 0.99917917,0.9987072 0 0 0 1.16211,0 L 18,8.9491569 v 9.0507811 h 0.980469 C 19.557469,17.998939 20,17.553563 20,17.015563 V 6.9901725 c 0,-0.00348 -0.0019,-0.0063 -0.002,-0.00977 A 1.0001247,0.99965229 0 0 0 19.92573,6.6327462 c -0.0071,-0.018016 -0.01332,-0.03526 -0.02148,-0.052734 A 1.0001247,0.99965229 0 0 0 19.724609,6.3202506 c -0.01676,-0.01774 -0.03278,-0.034302 -0.05078,-0.050781 A 1.0001247,0.99965229 0 0 0 19.431641,6.10736 C 19.398781,6.091391 19.366701,6.078717 19.332031,6.066344 A 1.0001247,0.99965229 0 0 0 19.052734,6.009704 C 19.03439,6.0086905 19.01856,5.9999381 19,5.9999381 l -0.0059,0.00977 A 1.0001247,0.99965229 0 0 0 18.417969,6.1932975 L 12.005859,10.773376 5.59375,6.1932975 A 0.99917917,0.9987072 0 0 0 5.0371094,5.9999381 Z"/>
</svg>
