<svg xmlns="http://www.w3.org/2000/svg" width="24" height="24" version="1.1">
 <defs>
  <style id="current-color-scheme" type="text/css">
   .ColorScheme-Text { color:#CFD5D6; } .ColorScheme-Highlight { color:#4285f4; }
  </style>
 </defs>
 <path style="fill:currentColor" class="ColorScheme-Text" d="m12 3.9461c-4.3678 0-8 3.3281-8 7.5s3.6322 7.5 8 7.5a1.0001 1.0001 0 0 0 0.002 0c0.61236-0.0013 1.2131-0.11847 1.8086-0.25 1.2282 0.80849 2.6642 1.5391 4.3672 1.2324a1.0001 1.0001 0 0 0 0.54883 -1.6699c-0.583-0.616-0.891-0.999-0.909-1.82 1.331-1.367 2.18-3.109 2.182-4.992 0-4.1718-3.632-7.4999-8-7.4999zm0 2c3.3634 0 5.9988 2.4911 6 5.498-0.0015 1.4994-0.66704 2.9383-1.873 3.9863a1.0001 1.0001 0 0 0 -0.3418 0.70312c-0.03233 0.62878 0.16167 1.1069 0.34375 1.5859-0.4995-0.20339-1.0063-0.49427-1.5527-0.87305a1.0001 1.0001 0 0 0 -0.84 -0.14c-0.562 0.157-1.147 0.239-1.736 0.24-3.3642 0-6-2.4922-6-5.5-2e-7 -3.0078 2.6358-5.5 6-5.5zm3.0156 6.8418a0.75008 0.75008 0 0 0 -0.4668 0.1582c-0.90503 0.68212-1.7402 0.98475-2.5508 0.98633-0.8106 0.0016-1.6398-0.29663-2.543-0.98438a0.75042 0.75042 0 1 0 -0.91016 1.1934c1.0968 0.83525 2.2676 1.2933 3.457 1.291s2.3543-0.46379 3.4492-1.2891a0.75008 0.75008 0 0 0 -0.43555 -1.3555z"/>
</svg>
