<svg xmlns="http://www.w3.org/2000/svg" width="24" height="24" version="1.1">
 <defs>
  <style id="current-color-scheme" type="text/css">
   .ColorScheme-Text { color:#CFD5D6; } .ColorScheme-Highlight { color:#4285f4; }
  </style>
 </defs>
 <path style="fill:currentColor" class="ColorScheme-Text" d="m 19.565574,4.0031151 c -0.13338,-0.013832 -0.342365,0.01732 -0.728515,0.1152471 -0.768649,0.1949282 -0.930631,0.2539411 -0.921875,0.4219215 0.0049,0.094542 0.05525,0.1792495 0.191406,0.3320679 L 17.542137,5.4349136 17.38784,5.2805997 c -0.04221,-0.042191 -0.09726,-0.062507 -0.152344,-0.062507 -0.05508,0 -0.110137,0.020316 -0.152344,0.062507 l -0.21875,0.2187741 1.652344,1.6232259 0.205078,-0.2051007 c 0.08441,-0.084382 0.08441,-0.2203388 0,-0.3047212 l -0.15039,-0.1504072 0.564453,-0.5645153 c 0.146377,0.1289882 0.227098,0.1779931 0.326172,0.189474 0.161676,0.018734 0.200243,-0.1736434 0.40625,-0.9395567 0.203467,-0.7564702 0.152188,-0.8089235 -0.02539,-0.9864369 -0.08481,-0.08478 -0.143964,-0.1443891 -0.277345,-0.1582206 z m -3.058594,1.8537201 -4.804687,4.8052158 1.636719,1.634947 4.820312,-4.816937 z m -6.115234,5.0005508 c -0.05764,7.3e-5 -0.113981,0.02221 -0.158203,0.06641 l -5.0292971,5.025945 c -0.08844,0.08841 -0.08822,0.230207 0,0.318395 l 2.523438,2.521762 c 0.08822,0.08819 0.229915,0.08841 0.318359,0 l 5.0273441,-5.025945 c 0.08844,-0.08841 0.08822,-0.230207 0,-0.318395 l -2.521485,-2.521762 c -0.04411,-0.04409 -0.102517,-0.06649 -0.160156,-0.06641 z m -5.6718751,6.340543 -0.558593,0.556701 c -0.214952,0.214873 -0.214952,0.560604 0,0.775477 l 1.308593,1.308738 c 0.214952,0.214873 0.562392,0.214873 0.777344,0 l 0.556641,-0.556702 z"/>
</svg>
