<svg xmlns="http://www.w3.org/2000/svg" width="24" height="24" version="1.1">
 <defs>
  <style id="current-color-scheme" type="text/css">
   .ColorScheme-Text { color:#CFD5D6; } .ColorScheme-Highlight { color:#4285f4; }
  </style>
 </defs>
 <path style="fill:currentColor" class="ColorScheme-Text" d="m3.9998 6v12h2v-12h-2zm4 0v12l4.252-0.0332c2.9313-0.03263 3.208-0.07195 4.4473-0.67578 2.702-1.3165 3.9797-4.5047 2.9414-7.3438-0.686-1.8751-2.248-3.2628-4.237-3.7677-0.625-0.1586-1.021-0.1797-3.449-0.1797h-3.9552zm6 0.34375 1.4141 1.4141 0.70703 0.70703-0.70703 0.70703-1.4141 1.4141-0.70703-0.70703 0.92773-0.92773c-0.702-0.0859-1.515 0.1003-2.342 0.9276-2.1213 2.1213 0 4.2422 0 4.2422l-0.70703 0.70703s-2.8284-2.8278 0-5.6562c1.0484-1.0483 2.1015-1.3122 3.0059-1.2383l-0.885-0.8827 0.707-0.707zm2.8281 2.8281s2.8284 2.8278 0 5.6562c-1.0484 1.0484-2.1015 1.3122-3.0059 1.2383l0.88476 0.88281-0.70703 0.70703-1.4141-1.4141-0.70703-0.70703 0.70703-0.70703 1.4141-1.4141 0.70703 0.70703-0.92773 0.92773c0.70145 0.08627 1.5145-0.10042 2.3418-0.92773 2.1213-2.1213 0-4.2422 0-4.2422l0.70703-0.70703z"/>
</svg>
