<svg xmlns="http://www.w3.org/2000/svg" width="24" height="24" version="1.1">
 <defs>
  <style id="current-color-scheme" type="text/css">
   .ColorScheme-Text { color:#CFD5D6; } .ColorScheme-Highlight { color:#4285f4; }
  </style>
 </defs>
 <path style="fill:currentColor" class="ColorScheme-Text" d="m 17.5,6 a 3.5,3.5 0 0 0 -3.466797,3.042969 l -1.558594,2.996093 A 3,3 0 0 0 12,12 3,3 0 0 0 9.9199219,12.841797 L 8.9746094,12.369141 A 3,3 0 0 0 9,12 3,3 0 0 0 6,9 3,3 0 0 0 3,12 3,3 0 0 0 6,15 3,3 0 0 0 8.0800781,14.158203 l 0.9453125,0.472656 A 3,3 0 0 0 9,15 a 3,3 0 0 0 3,3 3,3 0 0 0 3,-2.982422 l 3.666016,-2.220703 A 3.5,3.5 0 0 0 21,9.5 3.5,3.5 0 0 0 17.5,6 Z m 0,1 A 2.5,2.5 0 0 1 20,9.5 2.5,2.5 0 0 1 17.5,12 2.5,2.5 0 0 1 15,9.5 2.5,2.5 0 0 1 17.5,7 Z m 0,1 A 1.5,1.5 0 0 0 16,9.5 1.5,1.5 0 0 0 17.5,11 1.5,1.5 0 0 0 19,9.5 1.5,1.5 0 0 0 17.5,8 Z M 6,10 a 2,2 0 0 1 1.9941406,1.878906 l -1.546875,-0.773437 a 1.0001,1.0001 0 0 0 -0.4824218,-0.111328 1.0001,1.0001 0 0 0 -0.4121094,1.90039 l 1.5488281,0.773438 A 2,2 0 0 1 6,14 2,2 0 0 1 4,12 2,2 0 0 1 6,10 Z m 6,3 a 2,2 0 0 1 2,2 2,2 0 0 1 -2,2 2,2 0 0 1 -1.994141,-1.878906 l 1.546875,0.773437 a 1.0001163,1.0001163 0 1 0 0.894532,-1.789062 L 10.898438,13.332031 A 2,2 0 0 1 12,13 Z"/>
</svg>
