<svg xmlns="http://www.w3.org/2000/svg" width="64" height="64" version="1.1">
 <rect style="opacity:0.2" width="50" height="32" x="7" y="24" rx="2.5" ry="2.5"/>
 <path style="fill:#ba6236" d="M 7,44.5 C 7,45.885 8.115,47 9.5,47 H 54.5 C 55.885,47 57,45.885 57,44.5 V 17.5 C 57,16.115 55.885,15 54.5,15 H 29 V 12.5 C 29,11.115 27.885,10 26.5,10 H 9.5 C 8.115,10 7,11.115 7,12.5"/>
 <rect style="opacity:0.2" width="50" height="32" x="7" y="22" rx="2.5" ry="2.5"/>
 <rect style="fill:#e4e4e4" width="44" height="20" x="10" y="18" rx="2.5" ry="2.5"/>
 <rect style="fill:#ba6236" width="50" height="32" x="7" y="23" rx="2.5" ry="2.5"/>
 <path style="opacity:0.1;fill:#ffffff" d="M 9.5,10 C 8.115,10 7,11.115 7,12.5 V 13.5 C 7,12.115 8.115,11 9.5,11 H 26.5 C 27.885,11 29,12.115 29,13.5 V 12.5 C 29,11.115 27.885,10 26.5,10 Z M 29,15 V 16 H 54.5 C 55.89,16 57,17.115 57,18.5 V 17.5 C 57,16.115 55.89,15 54.5,15 Z"/>
 <g>
  <circle style="fill:#22221b;stroke:#ba6236;stroke-linecap:round;stroke-linejoin:round" cx="36" cy="37" r="4.5"/>
  <circle style="fill:#22221b;stroke:#ba6236;stroke-linecap:round;stroke-linejoin:round" cx="45" cy="45" r="2.5"/>
  <circle style="fill:#22221b;stroke:#ba6236;stroke-linecap:round;stroke-linejoin:round" cx="39.5" cy="42.5" r="5"/>
  <circle style="fill:#22221b;stroke:#ba6236;stroke-linecap:round;stroke-linejoin:round" cx="21" cy="43" r="4.5"/>
  <circle style="fill:#22221b;stroke:#ba6236;stroke-linecap:round;stroke-linejoin:round" cx="25.5" cy="33.5" r="3"/>
  <circle style="fill:#22221b;stroke:#ba6236;stroke-linecap:round;stroke-linejoin:round" cx="26" cy="39" r="5.5"/>
  <circle style="fill:#22221b;stroke:#ba6236;stroke-linecap:round;stroke-linejoin:round" cx="25.5" cy="45" r="2.5"/>
  <circle style="fill:#22221b;stroke:#ba6236;stroke-linecap:round;stroke-linejoin:round" cx="30.5" cy="34.5" r="5"/>
  <circle style="fill:#22221b;stroke:#ba6236;stroke-linecap:round;stroke-linejoin:round" cx="32" cy="41" r="6.5"/>
 </g>
</svg>
