/* XPM */
static char * top_right_active_xpm[] = {
"2 26 4 1",
" 	c None",
".	c #00afaf",
"+	c #00afaf",
"@	c #1c1c1c",
". ",
"+.",
"@.",
"@.",
"@.",
"@.",
"@.",
"@.",
"@.",
"@.",
"@.",
"@.",
"@.",
"@.",
"@.",
"@.",
"@.",
"@.",
"@.",
"@.",
"@.",
"@.",
"@.",
"@.",
"@.",
"@."};
