<svg xmlns="http://www.w3.org/2000/svg" width="16" height="16" version="1.1">
 <path style="fill:#f8f8f2" d="M 16,0 C 14.538,0.79964 11.528,1.1006 8.6808,1.0666 6.4458,1.08 2.0831,0.8822 1.3335,3.0667 1.6167,2.6766 6.8123,0.9055 6.2899,3.1054 5.6748,4.8971 4.576,6.3905 3.6344,8.0124 2.7195,8.081 1.4521,8.1209 0.66645,8.6669 0.87102,8.5404 2.6136,8.1941 3.3119,8.575 2.2431,10.343 1.1402,11.774 0.35593,13.698 0.14003,14.36 -0.34642,15.423 0.40057,15.902 1.0343,16.197 0.59049,15.772 0.84703,15.359 1.9219,13.048 3.4019,11.102 4.7526,8.9565 5.5415,9.2847 6.3065,9.8926 7.1668,9.9872 8.3383,10.126 10.357,8.4711 10.667,7.3333 9.3331,8.3346 7.0322,8.0224 5.5116,7.9897 L 8.7947,2.9309 C 9.1179,3.0295 9.6883,3.0568 10.632,3.0667 12.831,3.1293 15.642,2.319 16,0 Z"/>
</svg>
