<svg xmlns="http://www.w3.org/2000/svg" width="16" height="16" version="1.1">
 <defs>
  <style id="current-color-scheme" type="text/css">
   .ColorScheme-Text { color:#a9b1d6; } .ColorScheme-Highlight { color:#4285f4; } .ColorScheme-NeutralText { color:#ff9800; } .ColorScheme-PositiveText { color:#4caf50; } .ColorScheme-NegativeText { color:#f44336; }
  </style>
 </defs>
 <path style="opacity:0.3;fill:currentColor" class="ColorScheme-Text" d="M 0,0 H 16 V 16 H 0 Z"/>
 <path style="opacity:0.3;fill:currentColor" class="ColorScheme-Text" d="M 0,0 H 16 V 10 L 10,16 0,16 Z"/>
 <path style="opacity:0.3;fill:currentColor" class="ColorScheme-Text" d="M 0,0 H 16 L 16,5 5,16 H 0 Z"/>
 <path style="opacity:0.3;fill:currentColor" class="ColorScheme-Text" d="M 0,0 H 16 L 0,16 Z"/>
 <path style="opacity:0.3;fill:currentColor" class="ColorScheme-Text" d="M 0,0 H 11 L 0,11 Z"/>
 <path style="fill:currentColor" class="ColorScheme-Text" d="M 0,0 H 6 L 0,6 Z"/>
</svg>
