<svg xmlns="http://www.w3.org/2000/svg" width="16" height="16" version="1.1">
 <path style="fill:#d9d9d9" d="M 3,1 C 3,1 1,1 1,3 V 14 C 1,15 2,15 2,15 H 14 C 15,15 15,14 15,14 V 3 C 15,3 15,1 13,1 Z M 3,3 H 4 V 6 H 12 V 3 H 13 V 13 H 3 Z"/>
</svg>
