<svg xmlns="http://www.w3.org/2000/svg" width="32" height="32" version="1">
 <rect style="opacity:0.2" width="28" height="18" x="2" y="11" rx="1.4" ry="1.4"/>
 <path style="fill:#cc99cc" d="M 2,22.6 C 2,23.376 2.6244,24 3.4,24 H 28.6 C 29.376,24 30,23.376 30,22.6 V 7.4 C 30,6.6244 29.376,6 28.6,6 H 16 C 13.9,6 13.2,3 11.1,3 H 3.4 C 2.6244,3 2,3.6244 2,4.4"/>
 <rect style="opacity:0.2" width="28" height="18" x="2" y="9" rx="1.4" ry="1.4"/>
 <rect style="fill:#e4e4e4" width="24" height="11" x="4" y="8" rx="1.4" ry="1.4"/>
 <rect style="fill:#cc99cc" width="28" height="18" x="2" y="10" rx="1.4" ry="1.4"/>
 <path style="opacity:0.1;fill:#ffffff" d="M 3.4004,3 C 2.6248,3 2,3.6248 2,4.4004 V 5.4004 C 2,4.6248 2.6248,4 3.4004,4 H 11.1 C 13.2,4 13.9,7 16,7 H 28.6 C 29.375,7 30,7.6248 30,8.4004 V 7.4004 C 30,6.6248 29.375,6 28.6,6 H 16 C 13.9,6 13.2,3 11.1,3 Z"/>
 <path style="fill:#2d2d2d" d="M 12.75,14 C 12.334,14 12,14.335 12,14.75 V 21 H 13 V 22 H 14 V 16 H 17 V 18 H 18 V 23 H 19 V 22 H 20 V 16.5 L 17.5,14 Z M 19,23 V 24 H 20 V 23 Z M 18,23 H 17 V 24 H 18 Z M 17,23 V 22 H 16 V 23 Z M 16,23 H 15 V 24 H 16 Z M 15,23 V 22 H 14 V 23 Z M 14,23 H 13 V 24 H 14 Z M 13,23 V 22 H 12 V 23 Z"/>
</svg>
