/* XPM */
static char * title_2_active_xpm[] = {
"2 26 3 1",
" 	c None",
".	c #5977D9",
"+	c #282727",
"..",
"++",
"++",
"++",
"++",
"++",
"++",
"++",
"++",
"++",
"++",
"++",
"++",
"++",
"++",
"++",
"++",
"++",
"++",
"++",
"++",
"++",
"++",
"++",
"++",
"++"};
