<svg xmlns="http://www.w3.org/2000/svg" width="16" height="16" version="1.1">
 <path style="fill:#d0d0d0" d="M 2 1 C 2 1 1 1 1 2 L 1 13 C 1 13 1 14 2 14 L 14 14 C 14 14 15 14 15 13 L 15 4 C 15 3 14 3 14 3 L 9 3 L 7 1 L 2 1 z M 10.5 6 C 11.33 6 12 6.67 12 7.5 C 12 8.33 11.33 9 10.5 9 C 9.67 9 9 8.33 9 7.5 C 9 6.67 9.67 6 10.5 6 z M 10.5 10 C 13 10 13 11.5 13 11.5 L 13 12 L 8 12 L 8 11.5 C 8 11.5 8 10 10.5 10 z"/>
</svg>
