<svg xmlns="http://www.w3.org/2000/svg" width="24" height="24" viewBox="0 0 24 24">
 <defs>
  <style id="current-color-scheme" type="text/css">
   .ColorScheme-Text { color:#c0c3cf; } .ColorScheme-Highlight { color:#4285f4; }
  </style>
 </defs>
 <path style="fill:currentColor" class="ColorScheme-Text" d="m 5,5 0,10 -1,0 0,2 14,0 0,-2 -1,0 0,-10 -4,0 0,10 -9,0 5,0 0,-10 z m 13,12 0,2 2,0 0,-2 z"/>
</svg>
