<svg xmlns="http://www.w3.org/2000/svg" width="24" height="24" version="1.1">
 <defs>
  <style id="current-color-scheme" type="text/css">
   .ColorScheme-Text { color:#c0c3cf; } .ColorScheme-Highlight { color:#4285f4; }
  </style>
 </defs>
 <g transform="translate(4,4)">
  <path style="fill:currentColor" class="ColorScheme-Text" d="M 10 1 C 9 1 9 2 9 2 L 7 2 L 7 13 L 6 13 C 6 12 5 12 5 12 L 1 12 C 0 12 0 13 0 13 L 0 14 C 0 15 1 15 1 15 L 5 15 C 6 15 6 14 6 14 L 8 14 L 8 3 L 9 3 C 9 4 10 4 10 4 L 14 4 C 15 4 15 3 15 3 L 15 2 C 15 1 14 1 14 1 L 10 1 z"/>
 </g>
</svg>
