<svg xmlns="http://www.w3.org/2000/svg" width="24" height="24" version="1.1">
 <defs>
  <style id="current-color-scheme" type="text/css">
   .ColorScheme-Text { color:#c0c3cf; } .ColorScheme-Highlight { color:#4285f4; }
  </style>
 </defs>
 <g transform="translate(4,4)">
  <path style="fill:currentColor" class="ColorScheme-Text" d="M 1,4 C 0,4 0,5 0,5 V 12 H 2 V 7 H 14 V 12 H 16 V 5 C 16,4 15,4 15,4 Z"/>
 </g>
</svg>
