<svg xmlns="http://www.w3.org/2000/svg" width="24" height="24" version="1.1">
 <defs>
  <style id="current-color-scheme" type="text/css">
   .ColorScheme-Text { color:#c0c3cf; } .ColorScheme-Highlight { color:#4285f4; }
  </style>
 </defs>
 <g transform="translate(4,4)">
  <path style="fill:currentColor" class="ColorScheme-Text" d="M 4,4.3008 C 4,6.2504 7,12 7,12 H 9 C 9,12 12,6.2484 12,4.2988 12,2.4896 10,1 8,1 6,1 4,2.4916 4,4.3008 Z M 7,13 V 14 C 7,15 8,15 8,15 8,15 9,15 9,14 V 13 Z"/>
 </g>
</svg>
