<svg xmlns="http://www.w3.org/2000/svg" width="24" height="24" version="1.1">
 <defs>
  <style id="current-color-scheme" type="text/css">
   .ColorScheme-Text { color:#c0c3cf; } .ColorScheme-Highlight { color:#4285f4; }
  </style>
 </defs>
 <g transform="translate(4,4)">
  <path style="fill:currentColor" class="ColorScheme-Text" d="M 5,1 1,5 V 11 L 5,15 H 11 L 15,11 V 5 L 11,1 Z M 6,3 H 10 L 13,6 V 10 L 10,13 H 6 L 3,10 V 6 Z M 6.5,4 4,6.5 V 9.5 L 6.5,12 H 9.5 L 12,9.5 V 6.5 L 9.5,4 Z"/>
 </g>
</svg>
