<svg xmlns="http://www.w3.org/2000/svg" width="24" height="24" viewBox="0 0 24 24">
 <defs>
  <style id="current-color-scheme" type="text/css">
   .ColorScheme-Text { color:#c0c3cf; } .ColorScheme-Highlight { color:#4285f4; }
  </style>
 </defs>
 <path style="fill:currentColor" class="ColorScheme-Text" d="M 1 1 L 1 5 L 4 3 L 1 1 z M 4 3 L 4 6 L 2 6 L 2 11 L 4 11 L 4 15 L 5 15 L 5 11 L 7 11 L 7 6 L 5 6 L 5 3 L 5 1 L 4 1 L 4 3 z M 5 3 L 8 5 L 8 1 L 5 3 z M 10 6 L 10 11 L 12 11 L 12 15 L 13 15 L 13 11 L 15 11 L 15 6 L 10 6 z M 8 8 L 8 9 L 9 9 L 9 8 L 8 8 z" transform="translate(4 4)"/>
</svg>
