<svg xmlns="http://www.w3.org/2000/svg" width="16" height="16" version="1.1">
 <path style="fill:#cac9bf" d="M 8,1 C 4.13,1 1,4.13 1,8 1,11.86 4.13,15 8,15 11.87,15 15,11.86 15,8 15,4.13 11.87,1 8,1 Z M 5,5 C 5.55,5 6,5.45 6,6 6,6.55 5.55,7 5,7 4.45,7 4,6.55 4,6 4,5.45 4.45,5 5,5 Z M 11,5 C 11.55,5 12,5.45 12,6 12,6.55 11.55,7 11,7 10.45,7 10,6.55 10,6 10,5.45 10.45,5 11,5 Z M 11.69,9.53 C 11.9,9.52 12.33,9.56 12.53,9.93 12.8,10.43 12.19,11.06 12.19,11.06 12.19,11.06 7.24,12.41 7.22,12.4 6.83,12.2 6.59,11.77 7.03,11.34 7.06,11.33 11.56,9.58 11.56,9.56 11.56,9.55 11.62,9.53 11.69,9.53 Z"/>
</svg>
