<svg xmlns="http://www.w3.org/2000/svg" width="32" height="32" version="1">
 <rect style="opacity:.2" width="25" height="16" x="3" y="12" rx="1.25" ry="1.25"/>
 <path style="fill:#7CB34F" d="m3 21.75c0 0.692 0.5575 1.25 1.25 1.25h22.5c0.692 0 1.25-0.558 1.25-1.25v-13.5c0-0.6925-0.558-1.25-1.25-1.25h-12.75v-0.75c0-0.6925-0.557-1.25-1.25-1.25h-8.5c-0.6925 0-1.25 0.5575-1.25 1.25"/>
 <rect style="opacity:.2" width="25" height="16" x="3" y="10" rx="1.25" ry="1.25"/>
 <rect style="fill:#e4e4e4" width="21" height="10" x="5" y="9" rx="1.25" ry="1.25"/>
 <rect style="fill:#7CB34F" width="25" height="16" x="3" y="11" rx="1.25" ry="1.25"/>
 <path style="fill:#ffffff;opacity:.1" d="m4.25 5c-0.6925 0-1.25 0.5575-1.25 1.25v1c0-0.6925 0.5575-1.25 1.25-1.25h8.5c0.693 0 1.25 0.5575 1.25 1.25v0.75h12.75c0.692 0 1.25 0.5575 1.25 1.25v-1c0-0.6925-0.558-1.25-1.25-1.25h-12.75v-0.75c0-0.6925-0.557-1.25-1.25-1.25h-8.5z"/>
 <path style="fill:#0E0A17" d="m11.40822 15c-0.44417 0-0.88635 0.08893-1.2978 0.2627-0.4114996 0.17376-0.7872996 0.4296-1.1044996 0.75295-0.3172 0.3234-0.5713 0.7102-0.7442 1.1355-0.1725 0.426-0.2615 0.885-0.2615 1.347 0 0.46216 0.08879 0.92105 0.26172 1.3467 0.17294 0.4256 0.42698 0.8124 0.74415 1.1358 0.31717 0.323321 0.693 0.579151 1.1044996 0.752951 0.4021 0.1698 0.8337 0.25774 1.2676 0.26172 0.01025 3.71e-4 0.02008 6e-4 0.03027 1e-3 1.055 0.04997 1.9052-0.36871 2.5274-0.97655 0.42532-0.415521 0.7595-0.906201 1.0644-1.406201 0.30496 0.50005 0.6391 0.99075 1.0644 1.406201 0.6222 0.60785 1.4723 1.0265 2.5274 0.97655 0.0102-3.71e-4 0.02003-4.9e-4 0.03028-1e-3 0.43388-0.0037 0.8645-0.09192 1.2666-0.26172 0.4115-0.17376 0.7883-0.4296 1.1054-0.752951l2e-3 -0.0039c0.31586-0.32274 0.56975-0.7075 0.7422-1.1318 0.1725-0.4255 0.2615-0.8845 0.2615-1.3465 0-0.46216-0.0888-0.9211-0.26172-1.3467l-0.0029-0.0059c-0.173-0.423-0.426-0.808-0.7415-1.13-0.317-0.323-0.693-0.579-1.1045-0.753-0.4115-0.1735-0.8535-0.2625-1.2975-0.2625-1.1116 0-1.9894 0.45712-2.6377 1.0928-0.375 0.367-0.679 0.787-0.9545 1.2165-0.2755-0.4295-0.5795-0.8495-0.954-1.2165-0.6485-0.636-1.5265-1.093-2.638-1.093zm-0.01172 1c0.88675 0 1.4532 0.31778 1.9726 0.84375 0.41181 0.41692 0.7729 0.9841 1.1308 1.6026-0.40852 0.72255-0.80335 1.3825-1.247 1.8301-0.48913 0.49341-0.996 0.765501-1.8242 0.71775h-0.03222c-0.31584 0-0.63425-0.06666-0.9248-0.19336-0.28667-0.125-0.5511996-0.31072-0.7695496-0.5381l-0.0088-0.0088c-0.22-0.231-0.397-0.51-0.515-0.809-0.1175-0.2995-0.1785-0.6255-0.1785-0.9475 0-0.32214 0.06099-0.64815 0.17871-0.94725 0.1177-0.29914 0.29461-0.577 0.51465-0.8086l0.0088-0.0098c0.21833-0.22736 0.4828596-0.41309 0.7695496-0.5381 0.2905-0.1265 0.6085-0.193 0.9245-0.193zm7.207 0c0.31585 0 0.63425 0.06666 0.9248 0.19336 0.28666 0.125 0.5512 0.31072 0.76955 0.5381l0.0088 0.0098c0.22004 0.23162 0.39694 0.50945 0.51465 0.8086 0.1175 0.299 0.1785 0.625 0.1785 0.947 0 0.32216-0.06099 0.6481-0.17871 0.94725-0.1177 0.29914-0.2946 0.57795-0.51465 0.80955l-0.0088 0.0088c-0.21833 0.22736-0.48286 0.41308-0.76955 0.5381-0.29057 0.1267-0.60895 0.19336-0.9248 0.19336h-0.03223c-0.828 0.0475-1.335-0.2245-1.824-0.718-0.4435-0.4475-0.8385-1.1075-1.247-1.83 0.358-0.6185 0.719-1.186 1.131-1.6025 0.5195-0.526 1.086-0.844 1.9725-0.844zm-0.6035 1v1h-1v1h1v1h1v-1h1v-1h-1v-1zm-8 1v1h3v-1z"/>
</svg>
