<svg xmlns="http://www.w3.org/2000/svg" width="16" height="16" version="1.1">
 <defs>
  <style id="current-color-scheme" type="text/css">
   .ColorScheme-Text { color:#D3C6AA; } .ColorScheme-Highlight { color:#4285f4; } .ColorScheme-NeutralText { color:#ff9800; } .ColorScheme-PositiveText { color:#4caf50; } .ColorScheme-NegativeText { color:#f44336; }
  </style>
 </defs>
 <path style="fill:currentColor" class="ColorScheme-Text" d="M 8.5,0 C 5.453,0 3,2.676 3,6 V 10 C 3,13.324 5.453,16 8.5,16 11.547,16 14,13.324 14,10 V 6 C 14,2.676 11.547,0 8.5,0 Z M 8,2 H 8.5 C 8.7078,2 8.8574,2.1426 9,2.2852 L 12.25,5.5313 9.25,8 12.25,10.469 8.8437,13.844 C 8.7531,13.934 8.6385,14 8.5,14 H 8 V 9.0625 L 5.8437,10.844 C 5.7533,10.934 5.6381,11 5.5,11 H 5 V 10.5 C 5,10.347 5.079,10.217 5.1875,10.125 L 7.75,8 5.1875,5.875 C 5.079,5.7833 5,5.6532 5,5.5 V 5 H 5.5 C 5.6229,5 5.7254,5.0514 5.8125,5.125 L 8,6.9375 Z M 9,3.6875 V 6.9375 L 10.781,5.4688 Z M 9,9.0625 V 12.313 L 10.781,10.531 Z"/>
</svg>
