<svg xmlns="http://www.w3.org/2000/svg" width="16" height="16" version="1">
 <path style="fill:#FCE8C3" d="M 10.747,4.6036 C 10.987,4.7419 11.068,5.048 10.928,5.2898 L 8.9315,8.7466 C 8.7919,8.9883 8.4863,9.0716 8.2463,8.9332 8.0072,8.7954 7.9264,8.4893 8.0661,8.2475 L 10.063,4.7907 C 10.202,4.549 10.508,4.4657 10.747,4.6036 Z M 0.23509,2.3789 2.3807,0.23494 C 2.6942,-0.07829 3.199,-0.07834 3.5125,0.23496 L 5.658,2.3788 C 5.9715,2.6921 5.9715,3.1964 5.658,3.5097 L 3.5125,5.6536 C 3.199,5.9669 2.6942,5.9669 2.3806,5.6536 L 0.23514,3.5098 C -0.07839,3.1965 -0.07843,2.6921 0.23509,2.3789 Z"/>
 <path style="fill:#FCE8C3" d="M 10,8.5 A 1.5,1.5 0 0 1 8.5,10 1.5,1.5 0 0 1 7,8.5 1.5,1.5 0 0 1 8.5,7 1.5,1.5 0 0 1 10,8.5 Z M 8.5,1 A 7.5,7.5 0 0 0 1,8.5 7.5,7.5 0 0 0 8.5,16 7.5,7.5 0 0 0 16,8.5 7.5,7.5 0 0 0 8.5,1 Z M 8.5,3 A 5.5,5.5 0 0 1 14,8.5 5.5,5.5 0 0 1 8.5,14 5.5,5.5 0 0 1 3,8.5 5.5,5.5 0 0 1 8.5,3 Z"/>
</svg>
