<svg xmlns="http://www.w3.org/2000/svg" width="16" height="16" version="1.1">
 <path style="fill:#FCE8C3" d="M 8,0 C 5.93,0 4.17,1.27 3.41,3.06 1.48,3.35 0,4.99 0,7 0,9.21 1.79,11 4,11 H 12.5 C 14.43,11 16,9.43 16,7.5 16,5.7 14.65,4.23 12.91,4.03 12.45,1.74 10.43,0 8,0 Z"/>
 <path style="fill:#FCE8C3" d="M 2.9766,11.994 A 0.5,0.5 0 0 0 2.5527,12.277 L 1.5527,14.277 A 0.5,0.5 0 1 0 2.4473,14.723 L 3.4473,12.723 A 0.5,0.5 0 0 0 2.9766,11.994 Z M 5.4766,11.994 A 0.5,0.5 0 0 0 5.0527,12.277 L 4.0527,14.277 A 0.5,0.5 0 1 0 4.9473,14.723 L 5.9473,12.723 A 0.5,0.5 0 0 0 5.4766,11.994 Z M 7.9766,11.994 A 0.5,0.5 0 0 0 7.5527,12.277 L 6.5527,14.277 A 0.5,0.5 0 1 0 7.4473,14.723 L 8.4473,12.723 A 0.5,0.5 0 0 0 7.9766,11.994 Z M 10.477,11.994 A 0.5,0.5 0 0 0 10.053,12.277 L 9.0527,14.277 A 0.5,0.5 0 1 0 9.9473,14.723 L 10.947,12.723 A 0.5,0.5 0 0 0 10.477,11.994 Z M 12.977,11.994 A 0.5,0.5 0 0 0 12.553,12.277 L 11.553,14.277 A 0.5,0.5 0 1 0 12.447,14.723 L 13.447,12.723 A 0.5,0.5 0 0 0 12.977,11.994 Z"/>
</svg>
