<svg xmlns="http://www.w3.org/2000/svg" width="16" height="16" version="1.1">
 <defs>
  <style id="current-color-scheme" type="text/css">
   .ColorScheme-Text { color:#e7e6df; } .ColorScheme-Highlight { color:#4285f4; }
  </style>
 </defs>
 <path style="opacity:0.3;fill:currentColor" class="ColorScheme-Highlight" d="M 6,1 V 2 H 3 V 14 C 3,14.554 3.446,15 4,15 H 12 C 12.554,15 13,14.554 13,14 V 2 H 10 V 1 Z"/>
 <path style="fill:currentColor" class="ColorScheme-Highlight" d="M 3,12 V 14 C 3,14.554 3.446,15 4,15 H 12 C 12.554,15 13,14.554 13,14 V 12 Z"/>
</svg>
