<svg xmlns="http://www.w3.org/2000/svg" width="16" height="16" version="1.1">
 <defs>
  <style id="current-color-scheme" type="text/css">
   .ColorScheme-Text { color:#e7e6df; } .ColorScheme-Highlight { color:#4285f4; }
  </style>
 </defs>
 <path style="fill:currentColor" class="ColorScheme-Text" d="M 2,1 V 10 H 4 V 1 Z M 5,3 V 15 H 7 V 3 Z M 8,3 V 15 H 10 V 3 Z M 11,3 V 10 H 13 V 3 Z"/>
</svg>
