<svg xmlns="http://www.w3.org/2000/svg" width="16" height="16" version="1.1">
 <defs>
  <style id="current-color-scheme" type="text/css">
   .ColorScheme-Text { color:#e7e6df; } .ColorScheme-Highlight { color:#4285f4; }
  </style>
 </defs>
 <path style="fill:currentColor;fill-rule:evenodd" class="ColorScheme-Text" d="M 8,0.99996 C 6.1588,2.7236 3.0582,3.9918 2,4.25 2,8.9164 4.25,14.222 8,15 11.75,14.222 14,8.9164 14,4.25 12.941,3.9918 9.8411,2.7236 8,0.99996 Z M 8,5 C 8.8403,5.0011 9.6417,5.3547 10.209,5.9746 L 10.998,5.5176 10.82,6.9922 10.824,7 H 10.82 L 10.699,8 8.4004,7.0176 9.3086,6.4922 C 8.9458,6.176 8.4812,6.0013 8,6 7.286,6.0006 6.6265,6.3817 6.2695,7 H 5.1738 C 5.5973,5.8021 6.7295,5.001 8,5 Z M 5.2988,8.0176 7.5977,9 6.7012,9.5176 C 7.0628,9.828 7.5234,9.9991 8,10 8.714,9.9994 9.3735,9.6183 9.7305,9 H 10.826 C 10.403,10.198 9.2705,10.999 8,11 7.1655,10.999 6.3694,10.65 5.8027,10.037 L 5,10.5 5.1797,9.0098 5.1758,9 H 5.1797 Z"/>
</svg>
