<svg xmlns="http://www.w3.org/2000/svg" width="16" height="16" version="1.1">
 <defs>
  <style id="current-color-scheme" type="text/css">
   .ColorScheme-Text { color:#e7e6df; } .ColorScheme-Highlight { color:#4285f4; }
  </style>
 </defs>
 <path style="fill:currentColor" class="ColorScheme-Text" d="M 6 3 A 4 4 0 0 0 2 7 A 4 4 0 0 0 2.0058594 7.171875 A 3 3 0 0 0 0 10 A 3 3 0 0 0 3 13 L 13 13 A 3 3 0 0 0 16 10 A 3 3 0 0 0 13.990234 7.171875 A 3 3 0 0 0 14 7 A 3 3 0 0 0 11 4 A 3 3 0 0 0 9.1992188 4.6054688 A 4 4 0 0 0 6 3 z M 6.0019531 6 L 6.5019531 6 L 6.5214844 6 C 6.648776 6.0053336 6.7668573 6.0759797 6.8554688 6.1679688 L 8 7.2929688 L 9.1679688 6.1679688 C 9.3004533 6.0533155 9.379499 6.0046661 9.5 6 L 10 6 L 10 6.5 C 10 6.6433166 9.9828543 6.7750117 9.875 6.875 L 8.7285156 8.0214844 L 9.8535156 9.1464844 C 9.9473867 9.2411401 10 9.3653492 10 9.5 L 10 10 L 9.5 10 C 9.3675155 10 9.2403552 9.9475047 9.1464844 9.8535156 L 8 8.7285156 L 6.8554688 9.8535156 C 6.7615312 9.9481714 6.633905 10 6.5019531 10 L 6.0019531 10 L 6.0019531 9.5 C 6.0019531 9.3673485 6.0525467 9.2385203 6.1464844 9.1445312 L 7.2929688 8.0214844 L 6.1464844 6.875 C 6.0418948 6.7803443 5.9913011 6.6399837 6.0019531 6.5 L 6.0019531 6 z"/>
</svg>
