<svg xmlns="http://www.w3.org/2000/svg" width="16" height="16" version="1.1">
 <defs>
  <style id="current-color-scheme" type="text/css">
   .ColorScheme-Text { color:#e7e6df; } .ColorScheme-Highlight { color:#4285f4; }
  </style>
 </defs>
 <g id="MPATH5" transform="matrix(0.30284675,0,0,0.32257321,0.8846153,0.39775655)">
  <path style="fill:currentColor" class="ColorScheme-Text" d="m 15,0 -3.5,1.7089844 0,0.703125 0,0.3730468 c 2.5e-5,0.00527 4.51e-4,0.010368 0,0.015625 l 0,6.5078851 0,1.1757817 c 0,2.086981 -1.166667,3.229838 -3.5,3.229838 -2.3333333,0 -3.5,-1.457039 -3.5,-3.229838 l 0,-0.9863286 0,-4.8242913 -3.5,1.7792969 0,2.4375 c 0,1.0469808 0.1357925,2.005601 0.4082031,2.873047 0.2702908,0.867445 0.6896721,1.61352 1.2578125,2.240234 0.4812236,0.531969 1.0749412,0.96409 1.7773438,1.298828 l 0.1347656,0.04297 c 0.078412,0.04401 0.1561135,0.08793 0.2480469,0.125 C 5.6992286,15.822769 6.7376211,16 7.9375,16 L 7.93555,15.9961 c 1.2200183,0 2.2728,-0.170564 3.162109,-0.515625 0.889663,-0.342481 1.619585,-0.826043 2.197266,-1.453125 0.575207,-0.624871 1.005679,-1.377135 1.285156,-2.251953 0.279477,-0.874819 0.417969,-1.8378951 0.417969,-2.8867191 l 0,-0.1816407 C 14.998101,8.704304 15,8.701956 15,8.6992188 Z" transform="matrix(2.8302858,0,0,2.7125625,0.85271462,1.8669979)"/>
 </g>
</svg>
