<svg xmlns="http://www.w3.org/2000/svg" width="22" height="22" version="1.1">
 <defs>
  <style id="current-color-scheme" type="text/css">
   .ColorScheme-Text { color:#a9b1d6; } .ColorScheme-Highlight { color:#4285f4; } .ColorScheme-NeutralText { color:#ff9800; } .ColorScheme-PositiveText { color:#4caf50; } .ColorScheme-NegativeText { color:#f44336; }
  </style>
 </defs>
 <path style="opacity:0.3;fill:currentColor" class="ColorScheme-Text" d="M 4.40625,4 3,5.40625 4.7324219,7.146484 C 4.2692068,7.995101 4,8.964616 4,10 c 0,2.087 1.0708,3.925 2.6875,5 H 6 c -2,0 -2,2 -2,2 v 1 H 15.585938 L 16.59375,19 18,17.59375 14.439453,14.025391 11.605469,11.191406 8.8125,8.398438 5.9746094,5.5605469 Z M 10,4 C 9.1848953,4 8.4077568,4.1625986 7.6992188,4.4570312 L 15.537109,12.294922 C 15.831828,11.586974 16,10.814292 16,10 16,6.6863 13.314,4 10,4 Z M 8.0566406,10.470703 9.533203,11.947266 C 8.8027455,11.771486 8.2324201,11.201161 8.0566406,10.470703 Z"/>
</svg>
