<svg xmlns="http://www.w3.org/2000/svg" width="22" height="22" version="1.1">
 <defs>
  <style id="current-color-scheme" type="text/css">
   .ColorScheme-Text { color:#a9b1d6; } .ColorScheme-Highlight { color:#4285f4; } .ColorScheme-NeutralText { color:#ff9800; } .ColorScheme-PositiveText { color:#4caf50; } .ColorScheme-NegativeText { color:#f44336; }
  </style>
 </defs>
 <path style="opacity:0.3;fill:currentColor" class="ColorScheme-Text" d="M 11.001,3 C 6.569,3 3.001,6.568 3.001,11 3.001,11.837 3.1299,12.643 3.3662,13.4 L 3.376,13.348 C 3.5209,12.783 3.8003,12.197 4.2998,11.734 4.8872,11.19 5.5706,11.043 6.2783,11.031 6.3954,10.784 6.4894,10.52 6.7236,10.348 6.8216,10.275 6.9291,10.305 7.0342,10.258 L 7.0557,10.203 C 7.3391,9.666 7.7093,9.26 8.2275,8.6758 8.9345,7.8788 10.032,7.1397 11.05,6.4785 12.068,5.8169 15.099,4.1328 15.099,4.1328 13.9,3.4185 12.503,3 11.001,3 Z M 18.366,7.8652 C 18.366,7.8652 16.24,10.579 15.425,11.469 14.611,12.357 13.703,13.315 12.798,13.883 12.202,14.257 11.751,14.376 11.272,14.559 11.197,14.982 11.009,15.382 10.638,15.656 10.408,15.826 10.129,15.81 9.862,15.852 9.737,16.305 9.519,16.759 9.126,17.16 L 9.106,17.18 9.087,17.199 C 8.5446,17.696 7.8816,17.919 7.2646,17.99 L 7.1123,17.996 C 8.2624,18.634 9.587,19 11.001,19 15.433,19 19.001,15.432 19.001,11 19.001,9.886 18.774,8.8273 18.366,7.8652 Z"/>
 <path style="fill:currentColor" class="ColorScheme-Text" d="M 18.175,4.0078 C 17.866,3.9733 17.572,4.0905 17.29,4.1895 17.29,4.1895 16.322,4.6203 15.806,4.8867 15.289,5.1531 14.783,5.4304 14.388,5.6523 13.992,5.8742 12.588,6.6709 11.595,7.3164 10.602,7.9618 9.52,8.7265 8.9756,9.34 8.7062,9.643 8.4956,9.883 8.3232,10.102 8.6611,10.212 8.9697,10.419 9.192,10.721 L 11.011,13.188 C 11.111,13.324 11.182,13.474 11.237,13.627 11.527,13.481 11.841,13.302 12.267,13.035 12.966,12.596 13.894,11.66 14.688,10.793 15.483,9.926 16.483,8.6838 16.755,8.3359 17.027,7.9879 17.37,7.5406 17.706,7.082 18.042,6.6233 18.369,6.153 18.61,5.752 18.731,5.5514 18.831,5.3688 18.899,5.209 18.968,5.0493 19.016,4.9189 18.997,4.7754 18.965,4.5368 18.845,4.3966 18.774,4.3242 L 18.765,4.3125 C 18.681,4.2113 18.587,4.1475 18.489,4.0996 18.383,4.0483 18.278,4.0193 18.175,4.0078 Z M 7.8857,11.01 C 7.6921,10.98 7.4882,11.026 7.3174,11.152 6.9758,11.404 6.9035,11.881 7.1553,12.223 L 8.9717,14.689 C 9.223,15.031 9.702,15.103 10.044,14.852 10.386,14.6 10.458,14.123 10.206,13.781 L 8.3877,11.314 C 8.2618,11.144 8.0793,11.039 7.8857,11.01 Z M 6.0381,12.033 C 5.6221,12.095 5.2151,12.25 4.9795,12.469 4.6562,12.768 4.4531,13.173 4.3447,13.596 4.1667,14.289 4.1548,15.286 4.0185,16.023 3.9509,16.389 3.6417,16.959 3.0654,17.697 2.9182,17.945 3.0654,17.977 3.0654,17.977 3.148,18.035 3.2986,17.976 3.374,17.943 4.7075,16.847 5.5884,17.003 7.1494,16.996 7.6086,16.943 8.0627,16.78 8.4111,16.461 8.6375,16.23 8.7625,16.027 8.8525,15.826 8.5884,15.707 8.3482,15.529 8.167,15.283 L 6.3486,12.816 C 6.1744,12.58 6.0779,12.309 6.0381,12.033 Z"/>
</svg>
