<svg xmlns="http://www.w3.org/2000/svg" width="16" height="16" version="1.1">
 <defs>
  <style id="current-color-scheme" type="text/css">
   .ColorScheme-Text { color:#D3C6AA; } .ColorScheme-Highlight { color:#4285f4; } .ColorScheme-NeutralText { color:#ff9800; } .ColorScheme-PositiveText { color:#4caf50; } .ColorScheme-NegativeText { color:#f44336; }
  </style>
 </defs>
 <path style="fill:currentColor" class="ColorScheme-Text" d="M 8 1 L 8 3 A 5 5 0 0 1 12.324219 5.5039062 L 14.058594 4.5039062 A 7.004701 7.0000005 0 0 0 14.019531 4.4355469 A 7.004701 7.0000005 0 0 0 8 1 z M 1.9414062 4.5039062 A 7.004701 7.0000005 0 0 0 1.9023438 4.5722656 A 7.004701 7.0000005 0 0 0 1.9335938 11.5 L 3.6757812 10.496094 A 5 5 0 0 1 3 8 A 5 5 0 0 1 3.6738281 5.5039062 L 1.9414062 4.5039062 z M 6 5.046875 L 6 8 L 6 10.953125 L 8.1328125 9.4765625 L 10.265625 8 L 8.1328125 6.5234375 L 6 5.046875 z M 12.326172 10.496094 A 5 5 0 0 1 8 13 L 8 15 A 7.004701 7.0000005 0 0 0 14.019531 11.564453 A 7.004701 7.0000005 0 0 0 14.058594 11.496094 L 12.326172 10.496094 z"/>
 <path style="opacity:0.3;fill:currentColor" class="ColorScheme-Text" d="M 8 1 A 7.004701 7.0000005 0 0 0 1.9804688 4.4355469 A 7.004701 7.0000005 0 0 0 1.9414062 4.5039062 L 3.6738281 5.5039062 A 5 5 0 0 1 8 3 L 8 1 z M 14.066406 4.5 L 12.324219 5.5039062 A 5 5 0 0 1 13 8 A 5 5 0 0 1 12.326172 10.496094 L 14.058594 11.496094 A 7.004701 7.0000005 0 0 0 14.097656 11.427734 A 7.004701 7.0000005 0 0 0 14.066406 4.5 z M 3.6757812 10.496094 L 1.9414062 11.496094 A 7.004701 7.0000005 0 0 0 1.9804688 11.564453 A 7.004701 7.0000005 0 0 0 8 15 L 8 13 A 5 5 0 0 1 3.6757812 10.496094 z"/>
</svg>
