<svg xmlns="http://www.w3.org/2000/svg" width="16" height="16" version="1.1">
 <defs>
  <style id="current-color-scheme" type="text/css">
   .ColorScheme-Text { color:#D3C6AA; } .ColorScheme-Highlight { color:#4285f4; } .ColorScheme-NeutralText { color:#ff9800; } .ColorScheme-PositiveText { color:#4caf50; } .ColorScheme-NegativeText { color:#f44336; }
  </style>
 </defs>
 <path style="fill:currentColor" class="ColorScheme-Text" d="M 11,12 V 12.799 L 12.803,14 11,15.201 V 16 H 14 V 12 Z"/>
 <circle style="fill:currentColor" class="ColorScheme-Text" cx="12.5" cy="9.5" r="1.5"/>
 <path style="fill:none;stroke:currentColor;stroke-width:2" class="ColorScheme-Text" d="M 4,11 A 10,10 0 0 1 14,1"/>
 <path style="fill:none;stroke:currentColor;stroke-width:2" class="ColorScheme-Text" d="M 8,11 A 6,6 0 0 1 14,5"/>
 <path style="fill:currentColor" class="ColorScheme-Text" d="M 6,12 3,14 6,16"/>
 <path style="opacity:0.3;fill:currentColor" class="ColorScheme-Text" d="M 8,16 11,14 8,12"/>
</svg>
