<svg xmlns="http://www.w3.org/2000/svg" width="22" height="22" version="1.1">
 <defs>
  <style id="current-color-scheme" type="text/css">
   .ColorScheme-Text { color:#a9b1d6; } .ColorScheme-Highlight { color:#4285f4; } .ColorScheme-NeutralText { color:#ff9800; } .ColorScheme-PositiveText { color:#4caf50; } .ColorScheme-NegativeText { color:#f44336; }
  </style>
 </defs>
 <g transform="translate(3,3)">
  <path style="fill:currentColor" class="ColorScheme-Text" d="M 13,1 1,13 V 14 H 2 L 4,12 H 15 C 16,12 16,11 16,11 V 4 C 16,3 15,3 15,3 H 13 L 14,2 V 1 Z M 1,3 C 0,3 0,4 0,4 V 11 C 0,12 1,12 1,12 L 2,11 H 1 V 4 H 9 L 10,3 Z M 12,4 H 15 V 11 H 5 L 6,10 H 7 V 9 L 9,7 V 10 H 10 V 6 Z M 2,5 V 10 H 3 V 8 H 5 V 7 H 3 V 6 H 5 V 5 Z M 6,5 V 6 H 7 V 5 Z M 11,6 V 10 H 14 V 9 H 12 V 8 H 14 V 6 Z"/>
 </g>
</svg>
