<svg xmlns="http://www.w3.org/2000/svg" width="16" height="16" version="1.1">
 <path style="fill:#a9b1d6;opacity:0.3" d="M 8.0449222,1.0001402 C 7.1359431,0.99548495 6.2110349,1.169409 5.3164065,1.5411558 1.7378927,3.0282129 0.05381869,7.1052198 1.5410159,10.683734 c 1.4870221,3.578513 5.5640639,5.262589 9.1425781,3.77539 3.578513,-1.486847 5.262588,-5.5640632 3.77539,-9.1425776 C 13.343849,2.632626 10.771158,1.0141406 8.0449222,1.0001402 Z m -0.044922,3 A 3.9999998,3.9999998 0 0 1 12,8.0001398 3.9999998,3.9999998 0 0 1 8.0000003,12.00014 a 3.9999998,3.9999998 0 0 1 -4,-4.0000002 3.9999998,3.9999998 0 0 1 3.9999999,-3.9999996 z"/>
 <path style="fill:#a9b1d6" d="M 8.0461305,9.504203e-5 C 7.1580122,-0.00448356 6.2565113,0.15673874 5.3832153,0.49339284 A 0.66895307,0.6753941 0 0 0 4.9963152,1.3646622 l 1.1882301,3.1495161 a 0.66895307,0.6753941 0 0 0 0.863085,0.3913645 C 7.3512907,4.7884646 7.6742149,4.7281552 7.999256,4.7277175 c 0.3248137,0.00122 0.6462057,0.062372 0.9493933,0.1800573 A 0.66895307,0.6753941 0 0 0 9.8132227,4.5178987 L 11.003685,1.3639181 A 0.66895307,0.6753941 0 0 0 10.616041,0.49190474 C 9.8048399,0.17997824 8.9366262,0.00468564 8.0461305,9.504203e-5 Z M 1.1206171,4.9524173 A 0.6753941,0.66895307 0 0 0 0.49339247,5.3832156 C 0.15673857,6.2565119 -0.00448423,7.1580129 9.4674247e-5,8.0461309 0.00468467,8.9366269 0.17997777,9.8048399 0.49190437,10.616041 A 0.6753941,0.66895307 0 0 0 1.3639178,11.003685 L 4.5178984,9.8139669 A 0.6753941,0.66895307 0 0 0 4.9077745,8.9486499 C 4.7900894,8.6454619 4.7289362,8.3240699 4.7277172,7.9992559 4.7281549,7.6742149 4.7884643,7.3512909 4.9055425,7.0476309 A 0.6753941,0.66895307 0 0 0 4.514178,6.1845459 L 1.3646619,4.9963155 A 0.6753941,0.66895307 0 0 0 1.1206171,4.9524173 Z m 13.7587649,0 a 0.6753941,0.66895307 0 0 0 -0.244045,0.043898 l -3.149515,1.1882306 a 0.6753941,0.66895307 0 0 0 -0.391365,0.863085 c 0.117079,0.30366 0.177388,0.626584 0.177826,0.951625 -0.0012,0.324814 -0.06237,0.646206 -0.180058,0.949394 a 0.6753941,0.66895307 0 0 0 0.389877,0.865317 l 3.153979,1.1897181 a 0.6753941,0.66895307 0 0 0 0.872013,-0.387644 c 0.311927,-0.8112001 0.48722,-1.6794151 0.49181,-2.5699101 0.0046,-0.888119 -0.156644,-1.789619 -0.493298,-2.6629155 A 0.6753941,0.66895307 0 0 0 14.879382,4.9524173 Z M 9.210551,11.048327 a 0.66895307,0.6753941 0 0 0 -0.2619017,0.0439 C 8.6454617,11.209911 8.3240697,11.271064 7.999256,11.272283 7.6742149,11.271845 7.3512907,11.211536 7.0476303,11.094457 a 0.66895307,0.6753941 0 0 0 -0.863085,0.391365 l -1.1882301,3.149516 a 0.66895307,0.6753941 0 0 0 0.3869001,0.871269 c 0.873296,0.336654 1.7747969,0.497877 2.6629152,0.493298 0.8904957,-0.0046 1.7587098,-0.179883 2.5699105,-0.49181 a 0.66895307,0.6753941 0 0 0 0.387644,-0.872013 L 9.8132227,11.482102 A 0.66895307,0.6753941 0 0 0 9.210551,11.048327 Z"/>
</svg>
