<svg xmlns="http://www.w3.org/2000/svg" width="24" height="24" version="1.1">
 <defs>
  <style id="current-color-scheme" type="text/css">
   .ColorScheme-Text { color:#f8f8f2; } .ColorScheme-Highlight { color:#4285f4; } .ColorScheme-NeutralText { color:#ff9800; } .ColorScheme-PositiveText { color:#4caf50; } .ColorScheme-NegativeText { color:#f44336; }
  </style>
 </defs>
 <path style="fill:currentColor" class="ColorScheme-Text" d="M 6,4 C 4.892,4 4,4.892 4,6 v 12 c 0,1.108 0.892,2 2,2 h 12 c 1.108,0 2,-0.892 2,-2 V 6 C 20,4.892 19.108,4 18,4 Z M 6.4863281,8 H 11 V 9 H 7.3164062 l -0.1875,2.171875 c 0.1253689,-0.0221 0.2939482,-0.04866 0.5078126,-0.07813 0.2138643,-0.02947 0.4508722,-0.04492 0.7089843,-0.04492 0.8038348,0 1.4444772,0.204218 1.9238279,0.609375 C 10.756257,12.06336 11,12.634446 11,13.371094 11,14.188773 10.738442,14.833232 10.214844,15.304688 9.6986196,15.768775 8.9760785,16 8.046875,16 7.6338956,16 7.2504667,15.962337 6.8964844,15.888672 6.5425021,15.815007 6.2433628,15.708322 6,15.568359 v -0.916015 c 0.2654867,0.162063 0.5867844,0.290956 0.9628906,0.386718 0.3834808,0.0884 0.7471423,0.132813 1.09375,0.132813 0.5825959,0 1.0522677,-0.137596 1.40625,-0.410156 0.3613569,-0.279926 0.5410154,-0.711016 0.5410154,-1.292969 0,-0.515653 -0.1574999,-0.909081 -0.4746091,-1.181641 -0.3171091,-0.279927 -0.8200187,-0.419923 -1.5058594,-0.419921 -0.2064897,-1e-6 -0.4415446,0.01786 -0.7070313,0.05469 -0.2654867,0.03683 -0.4803362,0.0745 -0.6425781,0.111328 L 6.1875,11.724609 Z m 9.2578129,0 c 0.404722,0 0.785074,0.039214 1.142578,0.1191406 0.36425,0.079927 0.701432,0.1925682 1.011719,0.3378906 L 17.554688,9.308594 C 17.298364,9.192336 17.009324,9.089147 16.685547,9.001953 16.368515,8.907493 16.037372,8.8613281 15.693359,8.8613281 c -0.863407,0 -1.537771,0.2828519 -2.023437,0.8496099 -0.478921,0.559491 -0.71875,1.322668 -0.71875,2.289062 0,0.617621 0.09131,1.16692 0.273437,1.646484 0.18887,0.472298 0.482883,0.842483 0.88086,1.111328 0.397977,0.261582 0.918851,0.392579 1.566406,0.392579 0.317032,0 0.58795,-0.01836 0.810547,-0.05469 0.222597,-0.03633 0.335453,-0.08 0.517578,-0.130859 V 13 h -2 v -1 h 3 v 3.597656 c -0.391231,0.138057 -0.785618,0.239293 -1.183594,0.304688 C 16.418429,15.967739 15.966839,16 15.460938,16 14.712202,16 14.081006,15.83924 13.568359,15.519531 13.055711,15.192556 12.664345,14.732541 12.394531,14.136719 12.131462,13.533631 12,12.821072 12,12 12,11.193461 12.145496,10.492306 12.435547,9.896484 12.732343,9.293396 13.160838,8.8289286 13.720703,8.5019531 14.280568,8.1677115 14.954934,8 15.744141,8 Z"/>
</svg>
