<svg xmlns="http://www.w3.org/2000/svg" width="24" height="24" version="1.1">
 <defs>
  <style id="current-color-scheme" type="text/css">
   .ColorScheme-Text { color:#f8f8f2; } .ColorScheme-Highlight { color:#4285f4; } .ColorScheme-NeutralText { color:#ff9800; } .ColorScheme-PositiveText { color:#4caf50; } .ColorScheme-NegativeText { color:#f44336; }
  </style>
 </defs>
 <path style="fill:currentColor" class="ColorScheme-Text" d="m 17.43564,3.9999898 a 1.0000948,0.99972028 0 0 0 -0.160156,0.019524 L 6.9766559,6.188623 a 1.0000948,0.99972028 0 0 0 -0.0293,0.00977 c -1.436541,0.3464702 -2.448943,1.432051 -3.130859,2.678684 -0.681916,1.246533 -1.092221,2.709758 -1.361328,4.137122 -0.269107,1.427265 -0.38906,2.817595 -0.433594,3.904787 -0.02227,0.543597 -0.02567,1.010469 -0.01758,1.372533 0.005,0.223016 0.03379,0.377315 0.04883,0.534956 1.63e-4,0 -1.7e-4,-2.34e-4 0,0.0098 a 1.0000948,0.99972028 0 0 0 -0.0039,0.07419 h 0.0098 c 0.01128,0.07997 -0.0069,0.137755 0.02344,0.253811 a 1.0000948,0.99972028 0 0 0 0.957031,0.745815 l 9.0390631,0.08981 a 1.0000948,0.99972028 0 0 0 0.220703,-0.02147 l 9.892578,-2.128109 a 1.0000948,0.99972028 0 0 0 0.789063,-0.931292 c 0,0 0.147573,-2.972755 -0.369141,-6.040705 C 22.353105,9.3443879 21.938624,7.7736258 21.177868,6.4737128 20.417113,5.1737998 19.181713,4.0987056 17.537243,4.0078397 a 1.0000948,0.99972028 0 0 0 -0.101562,0 z m 0.05078,2.018775 c 0.842493,0.069974 1.423078,0.5308324 1.964844,1.4564856 0.556625,0.9511437 0.9521,2.3294435 1.1875,3.7271196 0.407935,2.421992 0.315148,4.256893 0.296875,4.865365 l -8.660155,1.862583 C 12.268784,15.427803 11.967856,9.4109869 9.0625939,7.7934906 Z M 6.9727499,8.996165 c 2.947353,0 3.0273441,8.99663 3.0273441,8.99663 H 4.0000939 c 0,0 0.0253,-8.99663 2.972656,-8.99663 z m 11.7265621,1.999251 -4.617188,1.181199 -0.08203,0.113238 0.06641,1.388152 0.140625,0.03905 3.394531,-0.900053 0.07617,1.161674 0.09766,0.01562 1.15039,-0.396336 0.07422,-0.06443 -0.210945,-2.458063 z M 7.0000939,11.995042 a 1,0.99962552 0 0 0 -1,0.999625 1,0.99962552 0 0 0 0.316406,0.728244 l -0.816406,2.270633 3,-0.01562 -0.798828,-2.270634 a 1,0.99962552 0 0 0 0.298828,-0.712624 1,0.99962552 0 0 0 -1,-0.999624 z"/>
</svg>
