<svg xmlns="http://www.w3.org/2000/svg" width="24" height="24" version="1.1">
 <defs>
  <style id="current-color-scheme" type="text/css">
   .ColorScheme-Text { color:#f8f8f2; } .ColorScheme-Highlight { color:#4285f4; } .ColorScheme-NeutralText { color:#ff9800; } .ColorScheme-PositiveText { color:#4caf50; } .ColorScheme-NegativeText { color:#f44336; }
  </style>
 </defs>
 <g transform="translate(-344 -524.36)">
  <path style="fill:currentColor" class="ColorScheme-Text" d="m351 529.36s-2 0-2 2.0625v9.9375c0 2 2 2 2 2h10c2 0 2-2 2-2v-10s0-2-2-2zm3 2 0.0002 4h4l-0.0002-4h2l0.0002 10-2.0002-0.00002 0.0002-4h-4l-0.0002 4-1.9998 0.00002-0.0002-10z"/>
 </g>
</svg>
