<svg xmlns="http://www.w3.org/2000/svg" width="24" height="24" version="1.1">
 <defs>
  <style id="current-color-scheme" type="text/css">
   .ColorScheme-Text { color:#f8f8f2; } .ColorScheme-Highlight { color:#4285f4; } .ColorScheme-NeutralText { color:#ff9800; } .ColorScheme-PositiveText { color:#4caf50; } .ColorScheme-NegativeText { color:#f44336; }
  </style>
 </defs>
 <path style="stroke-linejoin:round;stroke:currentColor;fill:none" class="ColorScheme-Text" d="m20.5 18v1.5c0 1-0 1-1 1-1 0-1-0-1-1l-0-2c-0-1 0-1 1-1h1.5"/>
 <path style="stroke-linejoin:round;stroke:currentColor;fill:none" class="ColorScheme-Text" d="m16.5 21v-2.5h-2v-2.5m2 2.5v-2.5"/>
</svg>
