<svg xmlns="http://www.w3.org/2000/svg" width="24" height="24" version="1.1">
 <defs>
  <style id="current-color-scheme" type="text/css">
   .ColorScheme-Text { color:#f8f8f2; } .ColorScheme-Highlight { color:#4285f4; } .ColorScheme-NeutralText { color:#ff9800; } .ColorScheme-PositiveText { color:#4caf50; } .ColorScheme-NegativeText { color:#f44336; }
  </style>
 </defs>
 <path style="fill:currentColor" class="ColorScheme-Text" d="M 4,4 C 4.625289,4.9191748 5.0814606,6.662158 5.3378906,8.681641 4.4662891,9.664932 4.0008959,10.819243 4,12 4.00265,13.214174 4.4964048,14.399175 5.4160156,15.398438 5.1963716,17.38357 4.740364,19.093055 4,20 6.101032,20 8.0025374,19.106296 9.3808594,17.662109 10.222682,17.883472 11.107941,17.997678 12,18 16.418278,18 20,15.313708 20,12 20,8.686291 16.418278,6 12,6 11.107941,6.0023218 10.222682,6.1165275 9.3808594,6.3378906 8.0025374,4.8937041 6.101032,4 4,4 Z m 8,4 a 6,4 0 0 1 0.652344,0.02539 c 0.0045,3.41e-4 0.0092,-3.48e-4 0.01367,0 a 6,4 0 0 1 0.05664,0.0059 6,4 0 0 1 5.175782,3.248047 c 0.0031,0.01117 0.0087,0.02201 0.01172,0.0332 A 6,4 0 0 1 18,12 6,4 0 0 1 17.91602,12.642578 c -0.0068,0.0274 -0.01184,0.05472 -0.01953,0.08203 A 6,4 0 0 1 17.625,13.375 6,4 0 0 1 13.324219,15.896484 c -0.004,6.36e-4 -0.0077,0.0013 -0.01172,0.002 a 6,4 0 0 1 -0.03125,0.0039 6,4 0 0 1 -0.482422,0.05664 c -0.07783,0.0073 -0.155536,0.01433 -0.234375,0.01953 A 6,4 0 0 1 12.015625,16 l -0.0098,0 A 6,4 0 0 1 12,16 6,4 0 0 1 9.4160156,15.603516 L 8.7480469,15.427734 7.9335938,16.28125 c -0.2143292,0.224571 -0.4977484,0.342544 -0.7402344,0.527344 0.06099,-0.40272 0.1643575,-0.768464 0.2109375,-1.189453 l 0.099609,-0.90625 -0.2460937,-0.267579 A 6,4 0 0 1 6.0605469,12.533203 c -0.00494,-0.02341 -0.00745,-0.04693 -0.011719,-0.07031 A 6,4 0 0 1 6,12 6,4 0 0 1 6.046875,11.523438 c 0.00351,-0.01891 0.00972,-0.03771 0.013672,-0.05664 A 6,4 0 0 1 12,8 Z m -3,3 c -0.5522847,0 -1,0.447715 -1,1 0,0.552285 0.4477153,1 1,1 0.5522847,0 1,-0.447715 1,-1 0,-0.552285 -0.4477153,-1 -1,-1 z m 3,0 c -0.552285,0 -1,0.447715 -1,1 0,0.552285 0.447715,1 1,1 0.552285,0 1,-0.447715 1,-1 0,-0.552285 -0.447715,-1 -1,-1 z m 3,0 c -0.552285,0 -1,0.447715 -1,1 0,0.552285 0.447715,1 1,1 0.552285,0 1,-0.447715 1,-1 0,-0.552285 -0.447715,-1 -1,-1 z"/>
</svg>
