<svg xmlns="http://www.w3.org/2000/svg" width="24" height="24" version="1.1">
 <defs>
  <style id="current-color-scheme" type="text/css">
   .ColorScheme-Text { color:#f8f8f2; } .ColorScheme-Highlight { color:#4285f4; } .ColorScheme-NeutralText { color:#ff9800; } .ColorScheme-PositiveText { color:#4caf50; } .ColorScheme-NegativeText { color:#f44336; }
  </style>
 </defs>
 <path style="fill:currentColor" class="ColorScheme-Text" d="M 12.091333,4.000855 C 9.7696025,3.9761267 7.4797634,4.9620161 5.9001763,6.8211675 c -2.40699,2.832993 -2.5407412,6.9648805 -0.3242057,9.9492195 2.2165355,2.98434 6.2127234,4.04971 9.6207064,2.564453 3.407983,-1.485257 5.345263,-5.13593 4.66778,-8.791016 a 1.0003003,1.0002238 0 1 0 -1.964764,0.363282 c 0.509861,2.750751 -0.93898,5.475972 -3.503766,6.59375 C 11.831143,18.618633 8.8494989,17.824941 7.1813747,15.578981 5.5132502,13.333021 5.6140485,10.248149 7.4255054,8.1160894 9.2369624,5.9840307 12.2652,5.3857071 14.751382,6.6688238 A 1.0004025,1.000326 0 1 0 15.669314,4.89148 C 14.84343,4.4652417 13.969941,4.1954268 13.087387,4.0750738 12.756428,4.0299413 12.423009,4.0043876 12.091333,4.000855 Z m 6.917691,1 A 0.99775018,0.99921588 0 0 0 18.245382,5.3524175 L 11.835484,12.68445 9.5719034,11.172731 A 0.99775018,0.99921588 0 1 0 8.4645262,12.83484 l 2.9940198,1.998047 a 0.99775018,0.99921588 0 0 0 1.304635,-0.173828 L 19.745322,6.6668706 A 0.99775018,0.99921588 0 0 0 19.009024,5.000855 Z"/>
</svg>
