<svg xmlns="http://www.w3.org/2000/svg" width="24" height="24" version="1.1">
 <defs>
  <style id="current-color-scheme" type="text/css">
   .ColorScheme-Text { color:#f8f8f2; } .ColorScheme-Highlight { color:#4285f4; } .ColorScheme-NeutralText { color:#ff9800; } .ColorScheme-PositiveText { color:#4caf50; } .ColorScheme-NegativeText { color:#f44336; }
  </style>
 </defs>
 <path style="opacity:0.3;fill:currentColor" class="ColorScheme-Text" d="M 11.601562,4.0019531 C 9.4833395,4.0371311 7.8325133,4.8238158 6.2695312,6.375 4.5801833,8.0515966 3.9718666,9.591331 3.9785156,12.169922 c 0.00203,0.7935 0.063363,1.456258 0.1777344,2.041016 A 4.5,4.5 0 0 1 5.5,14 4.5,4.5 0 0 1 10,18.5 4.5,4.5 0 0 1 9.8320312,19.699219 c 0.082001,0.02027 0.1800048,0.05381 0.2558598,0.07031 0.945319,0.205627 1.250138,0.261547 2.326171,0.216797 2.262478,-0.09408 3.794515,-0.727884 5.240235,-2.167969 1.457084,-1.451405 2.184891,-3.196799 2.326172,-5.576171 C 20.233399,7.9824861 17.956592,4.9828678 13.888672,4.2167969 13.06498,4.0616791 12.307637,3.9902273 11.601562,4.0019531 Z M 9.5351562,7 c 0.2656961,0 0.7414338,0.5671789 1.0976568,1.3066406 0.388227,0.8059144 0.384275,1.0499644 -0.01758,1.3144534 -0.53122,0.349638 -0.9687505,0.822979 -0.9687505,1.046875 0,0.115608 0.3358267,0.562297 0.7460935,0.992187 0.670614,0.702688 0.779876,0.889556 1.085938,1.859375 0.191128,0.605625 0.431799,1.135695 0.548828,1.208985 0.164935,0.103292 0.370847,0.04254 0.982422,-0.294922 l 0.246093,-0.136719 c 0.48473,-0.267468 0.538121,-0.364969 0.871094,0.136719 0.189607,0.234578 0.48431,0.72058 0.654297,1.080078 0.368609,0.779549 0.304588,0.958058 -0.449219,1.259766 -1.681004,0.672809 -2.634884,-0.04942 -4.6269528,-3.498047 C 8.0356761,10.385356 7.7122131,9.288067 8.2207031,8.2539062 8.4865161,7.7132951 9.2345442,7 9.5351562,7 Z"/>
 <path style="fill:currentColor" class="ColorScheme-Text" d="M 5.5,15 A 3.5,3.5 0 0 0 2,18.5 3.5,3.5 0 0 0 5.5,22 3.5,3.5 0 0 0 9,18.5 3.5,3.5 0 0 0 5.5,15 Z M 5,16 h 1 v 1 H 5 Z m 0,2 h 1 v 3 H 5 Z"/>
</svg>
