<svg xmlns="http://www.w3.org/2000/svg" width="22" height="22" viewBox="0 0 22 22">
 <defs>
  <style id="current-color-scheme" type="text/css">
   .ColorScheme-Text { color:#CFD5D6; } .ColorScheme-Highlight { color:#4285f4; }
  </style>
 </defs>
 <path style="fill:currentColor" class="ColorScheme-Text" d="m5 1l-4 4h10l4-4h-10zm0 5l-4 4h10l4-4h-10zm0 5l-4 4h10l4-4h-10z" transform="translate(3 3)"/>
</svg>
