<svg xmlns="http://www.w3.org/2000/svg" width="22" height="22" version="1.1">
 <defs>
  <style id="current-color-scheme" type="text/css">
   .ColorScheme-Text { color:#CFD5D6; } .ColorScheme-Highlight { color:#4285f4; }
  </style>
 </defs>
 <g transform="translate(3,3)">
  <path style="fill:currentColor" class="ColorScheme-Text" d="M 4,3 V 5 H 9 C 9,5 10,5 10,6 V 7 H 5 C 2,7 2,10 2,10 2,10 2,13 5,13 H 14 V 6 C 14,3 11,3 11,3 Z M 7,9 H 10 V 11 H 7 C 6,11 6,10 6,10 6,10 6,9 7,9 Z"/>
 </g>
</svg>
