<svg xmlns="http://www.w3.org/2000/svg" width="22" height="22" viewBox="0 0 22 22">
 <defs>
  <style id="current-color-scheme" type="text/css">
   .ColorScheme-Text { color:#CFD5D6; } .ColorScheme-Highlight { color:#4285f4; }
  </style>
 </defs>
 <path style="fill:currentColor" class="ColorScheme-Text" d="m10 1v2h-1.5391l-1.5996 9h-0.8613v-2h-5v5h5v-2h1.5391l1.5976-9h0.8633v2h5v-5h-5z" transform="translate(3 3)"/>
</svg>
