<svg xmlns="http://www.w3.org/2000/svg" width="22" height="22" version="1.1">
 <defs>
  <style id="current-color-scheme" type="text/css">
   .ColorScheme-Text { color:#CFD5D6; } .ColorScheme-Highlight { color:#4285f4; }
  </style>
 </defs>
 <rect style="fill:currentColor" class="ColorScheme-Highlight" width="6" height="6" x="8" y="8"/>
 <path style="fill:currentColor" class="ColorScheme-Text" d="m 15,6 2,2.5 2,2.5 -2,2.5 -2,2.5 v -5 z"/>
 <rect style="fill:currentColor" class="ColorScheme-Text" width="4" height="4" x="3" y="9"/>
 <path style="fill:currentColor" class="ColorScheme-Highlight" transform="matrix(0.69282032,0,0,0.39999999,4.0717967,2.6000001)" d="M 5.6698729,3.5000001 10,3.5 14.330127,3.4999999 12.165063,7.2500001 10,11 7.8349365,7.2499999 Z"/>
</svg>
