<svg xmlns="http://www.w3.org/2000/svg" width="22" height="22" version="1.1">
 <defs>
  <style id="current-color-scheme" type="text/css">
   .ColorScheme-Text { color:#CFD5D6; } .ColorScheme-Highlight { color:#4285f4; }
  </style>
 </defs>
 <g transform="matrix(1,0,0,1,3,3)">
  <path style="fill:currentColor" class="ColorScheme-Text" d="M 1.25 3 C 1 3 1 3.25 1 3.25 L 1 4.75 C 1 5 1.25 5 1.25 5 L 2.75 5 C 3 5 3 4.75 3 4.75 L 3 3.25 C 3 3 2.75 3 2.75 3 L 1.25 3 z M 5.25 3 C 5 3 5 3.25 5 3.25 L 5 4.75 C 5 5 5.25 5 5.25 5 L 6.75 5 C 7 5 7 4.75 7 4.75 L 7 3.25 C 7 3 6.75 3 6.75 3 L 5.25 3 z M 9.25 3 C 9 3 9 3.25 9 3.25 L 9 4.75 C 9 5 9.25 5 9.25 5 L 10.75 5 C 11 5 11 4.75 11 4.75 L 11 3.25 C 11 3 10.75 3 10.75 3 L 9.25 3 z M 13.25 3 C 13 3 13 3.25 13 3.25 L 13 4.75 C 13 5 13.25 5 13.25 5 L 14.75 5 C 15 5 15 4.75 15 4.75 L 15 3.25 C 15 3 14.75 3 14.75 3 L 13.25 3 z M 1.25 7 C 1 7 1 7.25 1 7.25 L 1 8.75 C 1 9 1.25 9 1.25 9 L 2.75 9 C 3 9 3 8.75 3 8.75 L 3 7.25 C 3 7 2.75 7 2.75 7 L 1.25 7 z M 5.25 7 C 5 7 5 7.25 5 7.25 L 5 8.75 C 5 9 5.25 9 5.25 9 L 6.75 9 C 7 9 7 8.75 7 8.75 L 7 7.25 C 7 7 6.75 7 6.75 7 L 5.25 7 z M 9.25 7 C 9 7 9 7.25 9 7.25 L 9 8.75 C 9 9 9.25 9 9.25 9 L 10.75 9 C 11 9 11 8.75 11 8.75 L 11 7.25 C 11 7 10.75 7 10.75 7 L 9.25 7 z M 13.25 7 C 13 7 13 7.25 13 7.25 L 13 8.75 C 13 9 13.25 9 13.25 9 L 14.75 9 C 15 9 15 8.75 15 8.75 L 15 7.25 C 15 7 14.75 7 14.75 7 L 13.25 7 z M 1.25 11 C 1 11 1 11.25 1 11.25 L 1 12.75 C 1 13 1.25 13 1.25 13 L 2.75 13 C 3 13 3 12.75 3 12.75 L 3 11.25 C 3 11 2.75 11 2.75 11 L 1.25 11 z M 5.25 11 C 5 11 5 11.25 5 11.25 L 5 12.75 C 5 13 5.25 13 5.25 13 L 6.75 13 C 7 13 7 12.75 7 12.75 L 7 11.25 C 7 11 6.75 11 6.75 11 L 5.25 11 z M 9.25 11 C 9 11 9 11.25 9 11.25 L 9 12.75 C 9 13 9.25 13 9.25 13 L 10.75 13 C 11 13 11 12.75 11 12.75 L 11 11.25 C 11 11 10.75 11 10.75 11 L 9.25 11 z M 13.25 11 C 13 11 13 11.25 13 11.25 L 13 12.75 C 13 13 13.25 13 13.25 13 L 14.75 13 C 15 13 15 12.75 15 12.75 L 15 11.25 C 15 11 14.75 11 14.75 11 L 13.25 11 z"/>
 </g>
</svg>
