<svg xmlns="http://www.w3.org/2000/svg" viewBox="0 0 24 24">
 <path d="m 4 4 c -0.547 0 -1 0.41 -1 1 l 0 0 -1 0 c -0.502 0 -1 0.385 -1 1 0 4.594 0 3.406 0 8 0 0.546 0.493 1 1 1 l 11 0 c 0.516 0 1 -0.437 1 -1 l 0 -7 c 0 -0.577 -0.423 -1.015 -1 -1 l -2 0 0 -1 c 0 -0.487 -0.402 -1 -1 -1 z" style="visibility:visible;fill:#268bd2;opacity:0.5;fill-opacity:1;stroke:none;display:inline;color:#6c71c4;fill-rule:nonzero"/>
 <path d="m 4 4 c -0.544 0 -1 1 -1 1 l 0 0 -1 0 c -0.507 0 -1 0.396 -1 1 0 4.594 0 3.406 0 8 0 0.487 0.419 1 1 1 l 11 0 c 0.521 0 1 -0.443 1 -1 l 0 -7 c 0 -0.573 -0.394 -1 -1 -1 l -2 0 0 -1 c 0 -0.559 -0.457 -1 -1 -1 z m 5 2 0 1 4 0 0 7 -11 0 0 -8 z" style="visibility:visible;fill:#6c71c4;opacity:0.5;fill-opacity:1;stroke:none;display:inline;color:#6c71c4;fill-rule:nonzero"/>
 <path d="m 11.841 19.5 c -0.183 -0.018 -0.341 -0.195 -0.341 -0.382 l 0 -7.233 c 0 -0.202 0.18 -0.385 0.378 -0.385 l 9.248 0 c 0.195 0 0.374 0.184 0.374 0.385 l 0 6.559 c 0 0.202 -0.18 0.382 -0.374 0.382 l -3.612 0 0 0.292 c 0 0.198 -0.18 0.382 -0.374 0.382 l -5.262 0 c -0.015 0 -0.026 0 -0.037 0 z" style="fill:#a57953;stroke:#a57953"/>
 <path d="m 10.905 12.5 c -0.22 0.022 -0.405 0.195 -0.405 0.384 l 0 7.237 c 0 0.199 0.212 0.38 0.45 0.38 l 11.1 0 c 0.235 0 0.45 -0.181 0.45 -0.38 l 0 -6.564 c 0 -0.203 -0.216 -0.384 -0.45 -0.384 l -4.334 0 0 -0.289 c 0 -0.199 -0.216 -0.38 -0.45 -0.384 l -6.314 0 c -0.015 0 -0.03 0 -0.045 0 z" style="fill:#268bd2;stroke:#a57953"/>
 <path d="m 13 10 c -0.547 0 -1 0.41 -1 1 l 0 0 -1 0 c -0.502 0 -1 0.385 -1 1 0 4.594 0 3.406 0 8 0 0.546 0.493 1 1 1 l 11 0 c 0.516 0 1 -0.437 1 -1 l 0 -7 c 0 -0.577 -0.423 -1.015 -1 -1 l -2 0 0 -1 c 0 -0.487 -0.402 -1 -1 -1 z" style="visibility:visible;fill:#268bd2;fill-opacity:1;stroke:none;display:inline;color:#6c71c4;fill-rule:nonzero"/>
 <path d="m 13 10 c -0.544 0 -1 1 -1 1 l 0 0 -1 0 c -0.507 0 -1 0.396 -1 1 0 4.594 0 3.406 0 8 0 0.487 0.419 1 1 1 l 11 0 c 0.521 0 1 -0.443 1 -1 l 0 -7 c 0 -0.573 -0.394 -1 -1 -1 l -2 0 0 -1 c 0 -0.559 -0.457 -1 -1 -1 z m 5 2 0 1 4 0 0 7 -11 0 0 -8 z" style="visibility:visible;fill:#6c71c4;fill-opacity:1;stroke:none;display:inline;color:#6c71c4;fill-rule:nonzero"/>
</svg>
