<svg xmlns="http://www.w3.org/2000/svg" viewBox="0 0 24 24">
 <path d="m 4 3 c -0.547 0 -1 0.41 -1 1 l 0 1 -1 0 c -0.502 0 -1 0.385 -1 1 0 4.594 0 9.406 0 14 0 0.546 0.493 1 1 1 l 20 0 c 0.516 0 1 -0.437 1 -1 l 0 -13 c 0 -0.577 -0.423 -1 -1 -1 l -2 0 0 -2 c 0 -0.487 -0.402 -1 -1 -1 z" style="visibility:visible;fill:#268bd2;fill-opacity:1;stroke:none;display:inline;color:#002b36;fill-rule:nonzero"/>
 <path d="m 4 3 c -0.544 0 -1 0.399 -1 1 l 0 1 -1 0 c -0.507 0 -1 0.396 -1 1 0 4.594 0 9.406 0 14 0 0.487 0.419 1 1 1 l 20 0 c 0.521 0 1 -0.443 1 -1 l 0 -13 c 0 -0.573 -0.394 -1 -1 -1 l -2 0 0 -2 c 0 -0.559 -0.457 -1 -1 -1 z m 10 3 0 1 8 0 0 13 -20 0 0 -14 z" style="visibility:visible;fill:#6c71c4;fill-opacity:1;stroke:none;display:inline;color:#002b36;fill-rule:nonzero"/>
 <path d="m 7 9 0 4 4 0 -1.094 -1.094 c 0.542 -0.544 1.265 -0.906 2.094 -0.906 c 1.657 0 3 1.343 3 3 0 1.657 -1.343 3 -3 3 -0.884 0 -1.67 -0.391 -2.219 -1 l -2.344 0 c 0.774 1.76 2.517 3 4.563 3 2.761 0 5 -2.239 5 -5 c 0 -2.761 -2.239 -5 -5 -5 -1.382 0 -2.6 0.59 -3.5 1.5 l -1.5 -1.5 z" style="fill:#002b36;fill-opacity:1;stroke:none"/>
</svg>
