<svg xmlns="http://www.w3.org/2000/svg" width="22" height="22" version="1">
 <rect style="opacity:0.2" width="20" height="12" x="1" y="8.5" rx="1" ry="1"/>
 <path style="fill:#FB3D74" d="M 1,16 C 1,16.554 1.446,17 2,17 H 20 C 20.554,17 21,16.554 21,16 V 5 C 21,4.446 20.554,4 20,4 H 10 V 3 C 10,2.446 9.554,2 9,2 H 2 C 1.446,2 1,2.446 1,3"/>
 <rect style="opacity:0.2" width="20" height="12" x="1" y="7.5" rx="1" ry="1"/>
 <rect style="fill:#e4e4e4" width="16" height="8" x="3" y="6" rx="1" ry="1"/>
 <rect style="fill:#FB3D74" width="20" height="12" x="1" y="8" rx="1" ry="1"/>
 <path style="opacity:0.1;fill:#ffffff" d="M 2,2 C 1.446,2 1,2.446 1,3 V 3.5 C 1,2.946 1.446,2.5 2,2.5 H 9 C 9.554,2.5 10,2.946 10,3.5 V 3 C 10,2.446 9.554,2 9,2 Z M 10,4 V 4.5 H 20 C 20.554,4.5 21,4.946 21,5.5 V 5 C 21,4.446 20.554,4 20,4 Z"/>
 <path style="fill:#212223" d="M 10.733,11 A 2.6667,2.7273 0 0 0 8.2097,12.853 2.1333,2.1818 0 0 0 7.0001,14.818 2.1333,2.1818 0 0 0 9.1334,17 2.1333,2.1818 0 0 0 10.551,16.445 2.6667,2.7273 0 0 0 10.733,16.455 2.6667,2.7273 0 0 0 11.86,16.195 2.1333,2.1818 0 0 0 12.867,16.455 2.1333,2.1818 0 0 0 15,14.273 2.1333,2.1818 0 0 0 12.866,12.091 2.1333,2.1818 0 0 0 12.862,12.091 2.6667,2.7273 0 0 0 10.733,11 Z"/>
</svg>
