<svg xmlns="http://www.w3.org/2000/svg" width="24" height="24">
 <defs>
  <style id="current-color-scheme" type="text/css">
   .ColorScheme-Text { color:#CFD5D6; } .ColorScheme-Highlight { color:#4285f4; }
  </style>
 </defs>
 <path style="fill:currentColor" class="ColorScheme-Text" transform="translate(1 1)" d="M 10.5,3 V 4.8125 H 11.5 V 3 Z M 5.6875,4.9688 4.9688,5.6875 6.25,7 6.9687,6.25 Z M 16.313,4.9688 15.031,6.25 15.75,7 17.031,5.6875 Z M 11,6 C 8.2386,6 6,8.2386 6,11 6,13.761 8.2386,16 11,16 13.761,16 16,13.761 16,11 16,8.2386 13.761,6 11,6 Z M 3,10.5 V 11.5 H 4.8125 V 10.5 Z M 17.188,10.5 V 11.5 H 19 V 10.5 Z M 6.25,15.031 4.9688,16.313 5.6875,17.031 6.9687,15.75 Z M 15.75,15.031 15.031,15.75 16.313,17.031 17.031,16.313 Z M 10.5,17.188 V 19 H 11.5 V 17.188 Z"/>
</svg>
