<svg xmlns="http://www.w3.org/2000/svg" width="24" height="24" version="1.1">
 <defs>
  <style id="current-color-scheme" type="text/css">
   .ColorScheme-Text { color:#CFD5D6; } .ColorScheme-Highlight { color:#4285f4; }
  </style>
 </defs>
 <g transform="matrix(1,0,0,1,4,4)">
  <path class="ColorScheme-Text" d="M 8,0 C 3.5817,0 0,3.5817 0,8 0,12.418 3.5817,16 8,16 12.418,16 16,12.418 16,8 16,3.5817 12.418,0 8,0 Z M 7,2 10,4 7,6 V 5.1738 C 5.8021,5.5973 5.001,6.7295 5,8 5.0012,9.0283 5.529,9.9843 6.3984,10.533 L 5.4453,11.168 C 5.1516,11.364 5.005,11.677 5.002,11.99 3.7449,11.048 3.0035,9.5707 3,8 3.0003,5.6242 4.6722,3.5767 7,3.1016 Z M 10.998,4.0098 C 12.255,4.9516 12.996,6.4293 13,8 13,10.376 11.328,12.423 9,12.898 V 14 L 6,12 9,10 V 10.826 C 10.198,10.403 10.999,9.2705 11,8 10.999,6.9717 10.471,6.0157 9.6016,5.4668 L 10.555,4.832 C 10.848,4.6362 10.995,4.3235 10.998,4.0098 Z" style="fill:currentColor"/>
 </g>
</svg>
