<svg xmlns="http://www.w3.org/2000/svg" width="24" height="24" version="1.1">
 <defs>
  <style id="current-color-scheme" type="text/css">
   .ColorScheme-Text { color:#CFD5D6; } .ColorScheme-Highlight { color:#4285f4; }
  </style>
 </defs>
 <g transform="translate(4,4)">
  <path style="fill:currentColor" class="ColorScheme-Text" d="M 11.547,3 9,10 H 10 L 10.728,8 H 13.271 L 14,10 H 15 L 12.453,3 Z M 12,4.5 12.908,7 H 11.092 Z M 9,3 V 4 H 5 V 3 Z M 3,3 V 7 L 0,5 Z M 8,6 V 7 H 5 V 6 Z M 7,9 V 10 H 5 V 9 Z M 3,9 V 13 L 0,11 Z M 15,12 V 13 H 5 V 12 Z"/>
 </g>
</svg>
