<svg xmlns="http://www.w3.org/2000/svg" width="24" height="24" version="1.1">
 <defs>
  <style id="current-color-scheme" type="text/css">
   .ColorScheme-Text { color:#CFD5D6; } .ColorScheme-Highlight { color:#4285f4; }
  </style>
 </defs>
 <g transform="translate(4,4)">
  <path style="fill:currentColor" class="ColorScheme-Text" d="M 5 1 L 1 5 L 1 11 L 5 15 L 11 15 L 15 11 L 15 5 L 11 1 L 5 1 z M 7 4 L 9 4 L 9 7 L 8.75 9 L 7.25 9 L 7 7 L 7 4 z M 8 9.75 A 1.25 1.25 0 0 1 9.25 11 A 1.25 1.25 0 0 1 8 12.25 A 1.25 1.25 0 0 1 6.75 11 A 1.25 1.25 0 0 1 8 9.75 z"/>
 </g>
</svg>
