<svg xmlns="http://www.w3.org/2000/svg" width="16" height="16" version="1.1">
 <path style="fill:#cbe3e7" d="M 1,1 H 3 V 3 H 1 Z"/>
 <path style="fill:#cbe3e7" d="M 3,1 H 5 V 3 H 3 Z"/>
 <path style="fill:#cbe3e7" d="M 5,1 H 7 V 3 H 5 Z"/>
 <path style="fill:#cbe3e7" d="M 5,3 H 7 V 5 H 5 Z"/>
 <path style="fill:#cbe3e7" d="M 3,5 H 5 V 7 H 3 Z"/>
 <path style="fill:#cbe3e7" d="M 1,7 H 3 V 9 H 1 Z"/>
 <path style="fill:#cbe3e7" d="M 3,9 H 5 V 11 H 3 Z"/>
 <path style="fill:#cbe3e7" d="M 5,7 H 7 V 9 H 5 Z"/>
 <path style="fill:#cbe3e7" d="M 7,5 H 9 V 7 H 7 Z"/>
 <path style="fill:#cbe3e7" d="M 9,5 H 11 V 7 H 9 Z"/>
 <path style="fill:#cbe3e7" d="M 9,1 H 11 V 3 H 9 Z"/>
 <path style="fill:#cbe3e7" d="M 11,3 H 13 V 5 H 11 Z"/>
 <path style="fill:#cbe3e7" d="M 11,9 H 13 V 11 H 11 Z"/>
 <path style="fill:#cbe3e7" d="M 7,11 H 9 V 13 H 7 Z"/>
 <path style="fill:#cbe3e7" d="M 9,13 H 11 V 15 H 9 Z"/>
 <path style="fill:#cbe3e7" d="M 3,13 H 5 V 15 H 3 Z"/>
 <path style="fill:#cbe3e7" d="M 13,11 H 15 V 13 H 13 Z"/>
 <path style="fill:#cbe3e7" d="M 13,13 H 15 V 15 H 13 Z"/>
 <path style="fill:#cbe3e7" d="M 13,13 H 15 V 15 H 13 Z"/>
</svg>
