<svg xmlns="http://www.w3.org/2000/svg" width="16" height="16" version="1.1">
 <path style="fill:#cbe3e7" d="M 8,1 C 4.14,1 1,4.13 1,8 1,11.87 4.14,15 8,15 11.87,15 15,11.87 15,8 15,4.13 11.87,1 8,1 Z M 5,5 C 5.56,5 6,5.45 6,6 6,6.55 5.56,7 5,7 4.45,7 4,6.55 4,6 4,5.45 4.45,5 5,5 Z M 11,5 C 11.56,5 12,5.45 12,6 12,6.55 11.56,7 11,7 10.45,7 10,6.55 10,6 10,5.45 10.45,5 11,5 Z M 4,10 H 12 C 11.05,11.26 9.58,12 8,12 6.43,12 4.94,11.26 4,10 Z"/>
</svg>
