<svg xmlns="http://www.w3.org/2000/svg" width="16" height="16" version="1.1">
 <path style="fill:#cbe3e7" d="M 7,1.5 V 4 H 5 C 2,4 0,6.13 0,9.25 0,12.5 4,14 4,14 4,14 2.13,11.35 2.56,10 2.93,8.87 4.14,8 5.5,8 H 7 V 10.5 L 13.5,6 Z"/>
 <path style="fill:#cbe3e7" d="M 9.5,1.5 16,6 9.5,10.5 V 9.4609 L 14.5,6 9.5,2.5391 Z"/>
</svg>
