<svg xmlns="http://www.w3.org/2000/svg" width="16" height="16" version="1.1">
 <path style="fill:#f8f8f2" d="M 10,1 V 3 H 12 C 13.662,3 15,4.338 15,6 V 10 C 15,11.662 13.662,13 12,13 H 4 C 2.338,13 1,11.662 1,10 V 6 C 1,4.338 2.338,3 4,3 H 5 V 5 H 4 C 3.446,5 3,5.446 3,6 V 10 C 3,10.554 3.446,11 4,11 H 12 C 12.554,11 13,10.554 13,10 V 6 C 13,5.446 12.554,5 12,5 H 10 V 7 L 6,4 Z"/>
</svg>
