<svg xmlns="http://www.w3.org/2000/svg" width="22" height="22" version="1.1">
 <defs>
  <style id="current-color-scheme" type="text/css">
   .ColorScheme-Text { color:#f8f8f2; } .ColorScheme-Highlight { color:#4285f4; } .ColorScheme-NeutralText { color:#ff9800; } .ColorScheme-PositiveText { color:#4caf50; } .ColorScheme-NegativeText { color:#f44336; }
  </style>
 </defs>
 <path style="fill:currentColor" class="ColorScheme-Text" d="M 14.309,5.1318 C 13.487,4.6572 12.313,5.1162 11.471,6.1611 10.927,4.9343 9.915,4.1859 8.9983,4.4315 8.0818,4.677 7.5767,5.832 7.7194,7.1663 6.4672,6.6825 5.2214,6.872 4.7468,7.694 4.2722,8.5161 4.731,9.6897 5.776,10.532 4.5494,11.076 3.8027,12.089 4.0483,13.006 4.2938,13.922 5.448,14.424 6.7824,14.282 6.863,14.073 6.9579,13.864 7.0769,13.658 7.5537,13.166 8.3372,12.595 9.1369,12.286 A 2,2 0 0 1 8.8773,11.712 2,2 0 0 1 10.291,9.2624 2,2 0 0 1 12.741,10.676 2,2 0 0 1 11.327,13.126 2,2 0 0 1 10.699,13.19 C 10.83,14.037 10.73,14.997 10.542,15.656 L 10.541,15.658 C 10.422,15.864 10.289,16.051 10.148,16.226 10.691,17.452 11.704,18.2 12.62,17.955 13.537,17.709 14.039,16.555 13.896,15.221 15.149,15.705 16.395,15.515 16.869,14.693 17.344,13.871 16.885,12.697 15.84,11.855 17.067,11.311 17.816,10.297 17.571,9.3807 17.325,8.4641 16.171,7.9616 14.837,8.1045 15.32,6.8524 15.131,5.6065 14.309,5.1319 Z"/>
 <path style="opacity:0.3;fill:currentColor" class="ColorScheme-Text" d="M 9.1396,12.285 C 8.339,12.594 7.5544,13.165 7.0769,13.658 6.2459,15.098 6.3494,16.702 7.3089,17.256 8.2685,17.81 9.71,17.098 10.541,15.658 L 10.542,15.657 C 10.73,14.997 10.832,14.035 10.7,13.188 A 2,2 0 0 1 9.8109,12.923 2,2 0 0 1 9.1396,12.285 Z"/>
</svg>
