<svg xmlns="http://www.w3.org/2000/svg" width="22" height="22" version="1.1">
 <defs>
  <style id="current-color-scheme" type="text/css">
   .ColorScheme-Text { color:#f8f8f2; } .ColorScheme-Highlight { color:#4285f4; } .ColorScheme-NeutralText { color:#ff9800; } .ColorScheme-PositiveText { color:#4caf50; } .ColorScheme-NegativeText { color:#f44336; }
  </style>
 </defs>
 <path style="fill:currentColor;opacity:0.3" class="ColorScheme-Text" d="M 11 3 A 8 8 0 0 0 3 11 A 8 8 0 0 0 3.0703125 11.976562 C 3.157948 11.56928 3.4496006 11.171221 3.828125 10.953125 L 6.9863281 9.1308594 C 7.7270832 8.7035678 8.7024067 8.964994 9.1308594 9.7050781 L 9.046875 9.5585938 L 11.978516 7.8652344 C 12.604846 7.5033498 13.33837 7.7186494 13.828125 8.2148438 L 13.980469 8.1269531 L 13.525391 7.3320312 C 12.964405 6.3535709 13.711834 5.0348231 14.847656 5.0332031 A 1.0001 1.0001 0 0 0 14.849609 5.0332031 L 16.318359 5.0332031 A 8 8 0 0 0 11 3 z M 18.984375 10.5625 L 18.503906 11.404297 A 1.0001 1.0001 0 0 0 18.503906 11.40625 C 17.943607 12.383924 16.41319 12.381612 15.853516 11.404297 L 15.853516 11.402344 L 15.851562 11.402344 L 15.539062 10.855469 L 14.166016 11.650391 C 13.539496 12.013201 12.804601 11.797643 12.314453 11.300781 L 9.2578125 13.066406 C 8.5737603 13.461642 7.7288502 13.215871 7.2597656 12.601562 L 5.4003906 13.675781 A 1.0001 1.0001 0 0 0 5.3984375 13.675781 C 5.0167939 13.895679 4.5208416 13.950451 4.1230469 13.818359 C 3.7490408 13.694167 3.4787615 13.44234 3.2949219 13.150391 A 8 8 0 0 0 11 19 A 8 8 0 0 0 13.257812 18.669922 A 1.0001 1.0001 0 0 1 13 18 L 13 16 A 1.0001 1.0001 0 0 1 14 15 L 15 15 L 15 14 A 1.0001 1.0001 0 0 1 16 13 L 18 13 A 1.0001 1.0001 0 0 1 18.669922 13.259766 A 8 8 0 0 0 19 11 A 8 8 0 0 0 18.984375 10.5625 z"/>
 <path style="fill:currentColor" class="ColorScheme-Text" d="m 14.849403,6.0324475 a 0.52837956,0.53379665 0 0 0 -0.456474,0.8013394 l 0.949777,1.6618302 -1.754464,1.0133925 -0.328125,-0.56808 A 0.57148571,0.57148571 0 0 0 12.478867,8.7311079 L 8.6808754,10.924187 8.2656972,10.205437 A 0.57148571,0.57148571 0 0 0 7.4855629,9.9967314 L 4.328197,11.819276 a 0.57152042,0.57152042 0 1 0 0.5714286,0.989955 l 2.6629464,-1.53683 0.4140623,0.717634 a 0.57148571,0.57148571 0 0 0 0.7812503,0.209822 l 3.7979914,-2.193081 0.328125,0.569197 a 0.57148571,0.57148571 0 0 0 0.78125,0.208705 l 2.24442,-1.2968735 0.811384,1.4196415 a 0.52837956,0.53379665 0 0 0 0.915178,0.0011 L 19.965474,6.8338138 A 0.52837956,0.53379665 0 0 0 19.949849,6.2757511 0.52837956,0.53379665 0 0 0 19.507885,6.0324475 Z"/>
 <path style="fill:currentColor" class="ColorScheme-Text" d="m 16,14 v 2 h -2 v 2 h 2 v 2 h 2 v -2 h 2 v -2 h -2 v -2 z"/>
</svg>
