<svg xmlns="http://www.w3.org/2000/svg" width="16" height="16" viewBox="0 0 16 16">
 <defs>
  <style id="current-color-scheme" type="text/css">
   .ColorScheme-Text { color:#c0c0c0; } .ColorScheme-Highlight { color:#4285f4; }
  </style>
 </defs>
 <path style="fill:currentColor" class="ColorScheme-Text" d="M 1 2 L 1 4 L 2 4 L 2 14 L 6 14 L 6 4 L 10 4 L 10 14 L 14 14 L 14 4 L 15 4 L 15 2 L 1 2 z"/>
</svg>
