<svg xmlns="http://www.w3.org/2000/svg" width="16" height="16" version="1.1">
 <defs>
  <style id="current-color-scheme" type="text/css">
   .ColorScheme-Text { color:#c0c0c0; } .ColorScheme-Highlight { color:#4285f4; }
  </style>
 </defs>
 <path style="fill:currentColor" class="ColorScheme-Text" d="M 1,13 V 15 H 3 V 13 Z M 4,13 V 15 H 6 V 13 Z M 7,13 V 15 H 9 V 13 Z M 10,13 V 15 H 12 V 13 Z M 13,13 V 15 H 15 V 13 Z M 1,9 V 11 H 5 V 9 Z M 6,9 V 11 H 10 V 9 Z M 11,9 V 11 H 15 V 9 Z M 11,1 V 3 H 1 V 5 H 11 V 7 L 15,4 Z"/>
</svg>
