<svg xmlns="http://www.w3.org/2000/svg" width="16" height="16" version="1.1">
 <defs>
  <style id="current-color-scheme" type="text/css">
   .ColorScheme-Text { color:#c0c0c0; } .ColorScheme-Highlight { color:#4285f4; }
  </style>
 </defs>
 <path style="fill:currentColor" class="ColorScheme-Text" d="M 4.75,1 C 3,1 3,2.75 3,2.75 V 13.25 C 3,13.25 3,15 4.75,15 H 11.25 C 13,15 13,13.25 13,13.25 V 2.75 C 13,2.75 13,1 11.25,1 Z M 7,2 H 9 V 10 H 7 Z M 7,11 H 9 V 13 H 7 Z"/>
</svg>
