<svg xmlns="http://www.w3.org/2000/svg" width="16" height="16" version="1.1">
 <path style="fill:#efefef" d="M 3,15 C 3,15 2,15 2,14 V 2 C 2,1 3,1 3,1 H 13 C 13,1 14,1 14,2 V 6 H 12 V 3.01 H 4 V 13 H 12 V 10 H 14 V 14 C 14,15 13,15 13,15 Z"/>
 <path style="fill:#efefef" d="M 11,11 V 9 H 15 V 7 H 11 V 5 L 6.5,8 Z"/>
</svg>
