<svg xmlns="http://www.w3.org/2000/svg" width="16" height="16" version="1.1">
 <path style="fill:#efefef" d="M 3,0 V 2 H 5 V 0 Z M 0,3 V 5 H 11 V 16 H 13 V 5 3 H 11 Z M 3,6 V 11 13 H 5 10 V 11 H 5 V 6 Z M 14,11 V 13 H 16 V 11 Z"/>
</svg>
