<svg xmlns="http://www.w3.org/2000/svg" width="48" height="48" version="1">
 <rect style="opacity:0.2" width="40" height="26" x="4" y="17" rx="2" ry="2"/>
 <path style="fill:#61afef" d="M 4,34 C 4,35.108 4.892,36 6,36 H 42 C 43.108,36 44,35.108 44,34 V 12 C 44,10.892 43.108,10 42,10 H 24 C 21,10 20,6 17,6 H 6 C 4.892,6 4,6.892 4,8"/>
 <rect style="opacity:0.2" width="40" height="26" x="4" y="15" rx="2" ry="2"/>
 <rect style="fill:#e4e4e4" width="36" height="16" x="6" y="13" rx="2" ry="2"/>
 <rect style="fill:#61afef" width="40" height="26" x="4" y="16" rx="2" ry="2"/>
 <path style="opacity:0.1;fill:#ffffff" d="M 6,6 C 4.892,6 4,6.892 4,8 V 9 C 4,7.892 4.892,7 6,7 H 17 C 20,7 21,11 24,11 H 42 C 43.108,11 44,11.892 44,13 V 12 C 44,10.892 43.108,10 42,10 H 24 C 21,10 20,6 17,6 Z"/>
 <path style="fill:#282c34" d="M 26.985,21 C 26.241,21.035 25.339,21.581 24.805,22.313 24.326,22.963 23.906,24 24.018,24.995 24.849,25.071 25.698,24.5 26.215,23.768 H 26.213 C 26.731,23.035 27.08,22.016 26.985,21 Z M 27.2,25.009 C 26.132,25.088 25.158,25.739 24.606,25.739 23.977,25.739 23.002,25.031 21.971,25.05 20.616,25.07 19.366,25.83 18.668,27.032 17.261,29.452 18.308,33.037 19.68,34.999 20.351,35.96 21.169,37 22.2,37 23.231,37 23.595,36.353 24.817,36.353 26.039,36.353 26.373,37 27.452,37 28.531,37 29.229,36.002 29.895,35.038 30.665,33.924 30.981,32.843 31,32.788 30.975,32.777 28.879,31.983 28.858,29.591 28.838,27.588 30.508,26.629 30.583,26.581 29.645,25.222 28.183,25.034 27.663,25.013 27.507,24.997 27.352,24.997 27.2,25.009 Z"/>
</svg>
