<svg xmlns="http://www.w3.org/2000/svg" width="64" height="64" version="1.1">
 <rect style="opacity:.2" width="50" height="32" x="7" y="24" rx="2.5" ry="2.5"/>
 <path style="fill:#7CB34F" d="m7 44.5c0 1.385 1.115 2.5 2.5 2.5h45c1.385 0 2.5-1.115 2.5-2.5v-27c0-1.385-1.115-2.5-2.5-2.5h-25.5v-2.5c0-1.385-1.115-2.5-2.5-2.5h-17c-1.385 0-2.5 1.115-2.5 2.5"/>
 <rect style="opacity:.2" width="50" height="32" x="7" y="22" rx="2.5" ry="2.5"/>
 <rect style="fill:#e4e4e4" width="44" height="20" x="10" y="18" rx="2.5" ry="2.5"/>
 <rect style="fill:#7CB34F" width="50" height="32" x="7" y="23" rx="2.5" ry="2.5"/>
 <path style="fill:#ffffff;opacity:.1" d="m9.5 10c-1.385 0-2.5 1.115-2.5 2.5v1c0-1.385 1.115-2.5 2.5-2.5h17c1.385 0 2.5 1.115 2.5 2.5v-1c0-1.385-1.115-2.5-2.5-2.5zm19.5 5v1h25.5c1.39 0 2.5 1.115 2.5 2.5v-1c0-1.385-1.11-2.5-2.5-2.5z"/>
 <path style="fill:#0E0A17" d="m34 29.000005-4 0.605469v14.46875l4-1.074219v-5.589844l4 6.589844 4-1.5-5-6 5.001953-6.498047-3.880859-1.001953-4.121094 6.558594zm-8.144531 3.923828c-0.09459 0-0.189185 0.03684-0.261719 0.109375l-1.572266 1.572266c-0.145067 0.145067-0.110143 0.352307 0 0.52539l1.626953 2.554688c-0.120542 0.250221-0.224922 0.50791-0.3125 0.771484-0.0038 0.01134-0.0099 0.02184-0.01367 0.0332l-2.951171 0.65625c-0.200273 0.044513-0.371096 0.165942-0.371096 0.371097v1.964844c0 0.205155 0.170823 0.32659 0.371094 0.371094l2.951172 0.65625c0.0065 0.0194 0.01679 0.03731 0.02344 0.05664 0.08525 0.256042 0.186352 0.506527 0.302734 0.75l-1.626953 2.552735c-0.110144 0.173083-0.145068 0.380323 0 0.52539l1.572266 1.572266c0.145067 0.145067 0.378368 0.145067 0.523438 0l2.550781-1.625c0.250759 0.121949 0.509105 0.227636 0.773437 0.316406 0.01735 0.0061 0.03339 0.01554 0.05078 0.02148l0.654296 2.949218c0 0.205156 0.16594 0.371094 0.371094 0.371094h2.220703c0.205155 0 0.32659-0.170824 0.371094-0.371094l0.654297-3.039062c0.300604-0.113013 0.592418-0.248149 0.873047-0.404297l2.490234 1.78125c0.145068 0.145067 0.378371 0.145067 0.523438 0l1.572265-1.572266c0.145068-0.145067 0.110144-0.352307 0-0.52539l-0.947265-1.4375-0.09961 0.03711c-0.225251 0.08461-0.478825-0.0032-0.603515-0.208984l-0.996095-1.640621c-0.829936 1.985195-2.789933 3.380859-5.076172 3.380859-3.037566 0-5.5-2.462434-5.5-5.5 0-2.33092 1.452799-4.31835 3.5-5.119141v-1.095703l-0.0078 0.03516c-0.02208 0.0075-0.04245 0.01957-0.06445 0.02734-0.260825 0.08662-0.515895 0.189688-0.763672 0.308594l-2.54689-1.623047c-0.07254-0.07253-0.167127-0.109375-0.261719-0.109375z"/>
</svg>
