<svg xmlns="http://www.w3.org/2000/svg" width="22" height="22" version="1.1">
 <defs>
  <style id="current-color-scheme" type="text/css">
   .ColorScheme-Text { color:#d0d0d0; } .ColorScheme-Highlight { color:#4285f4; } .ColorScheme-NeutralText { color:#ff9800; } .ColorScheme-PositiveText { color:#4caf50; } .ColorScheme-NegativeText { color:#f44336; }
  </style>
 </defs>
 <path style="fill:currentColor" class="ColorScheme-Text" d="M 6 3 L 6 19 L 17 19 C 17.554 19 18 18.554 18 18 L 18 4 C 18 3.446 17.554 3 17 3 L 16 3 L 16 10 C 16 10.554 15.554 11 15 11 L 13 11 C 12.446 11 12 10.554 12 10 L 12 3 L 6 3 z M 13 3 L 13 10 L 15 10 L 15 3 L 13 3 z"/>
 <path style="opacity:0.3;fill:currentColor" class="ColorScheme-Text" d="M 5,3 C 4.446,3 4,3.446 4,4 l 0,14 c 0,0.554 0.446,1 1,1 L 6,19 6,3 5,3 Z"/>
</svg>
