<svg xmlns="http://www.w3.org/2000/svg" width="22" height="22" version="1.1">
 <defs>
  <style id="current-color-scheme" type="text/css">
   .ColorScheme-Text { color:#d0d0d0; } .ColorScheme-Highlight { color:#4285f4; } .ColorScheme-NeutralText { color:#ff9800; } .ColorScheme-PositiveText { color:#4caf50; } .ColorScheme-NegativeText { color:#f44336; }
  </style>
 </defs>
 <path style="fill:currentColor" class="ColorScheme-Text" d="M 9.720052,3 C 9.189865,3 8.760417,3.429442 8.760417,3.959635 c 0,0.530193 0.429448,0.960938 0.959635,0.960938 2.474266,0 4.480469,2.004933 4.480469,4.479166 0,0.5302 0.429435,0.959636 0.959635,0.959636 0.5302,0 0.959636,-0.429436 0.959636,-0.959636 C 16.119792,5.865119 13.254652,3 9.720052,3 Z M 9.39974,5.880208 C 5.865119,5.880214 2.999999,8.745314 3,12.279948 c 0,0.5302 0.429442,0.959635 0.959635,0.959635 0.530194,0 0.960938,-0.429435 0.960938,-0.959635 0,-2.474266 2.004933,-4.480469 4.479167,-4.480469 0.5302,0 0.959635,-0.429442 0.959635,-0.959636 0,-0.530193 -0.429435,-0.959635 -0.959635,-0.959635 z m 8.640625,2.880208 c -0.5302,0 -0.960938,0.42945 -0.960938,0.959636 0,2.474267 -2.004899,4.480469 -4.479166,4.480469 -0.5302,0 -0.959636,0.429435 -0.959636,0.959635 0,0.5302 0.429436,0.959636 0.959636,0.959636 3.5346,0 6.399739,-2.86514 6.399739,-6.39974 0,-0.530186 -0.429435,-0.959636 -0.959635,-0.959636 z m -11.200522,2.88021 c -0.530193,0 -0.959635,0.429434 -0.959635,0.959634 0,3.534601 2.865106,6.39974 6.39974,6.39974 0.5302,0 0.959636,-0.429435 0.959636,-0.959635 0,-0.5302 -0.429436,-0.960938 -0.959636,-0.960938 -2.474267,0 -4.480469,-2.0049 -4.480469,-4.479167 0,-0.5302 -0.429442,-0.959634 -0.959636,-0.959634 z"/>
</svg>
