<svg xmlns="http://www.w3.org/2000/svg" width="22" height="22" version="1.1">
 <defs>
  <style id="current-color-scheme" type="text/css">
   .ColorScheme-Text { color:#d0d0d0; } .ColorScheme-Highlight { color:#4285f4; } .ColorScheme-NeutralText { color:#ff9800; } .ColorScheme-PositiveText { color:#4caf50; } .ColorScheme-NegativeText { color:#f44336; }
  </style>
 </defs>
 <path style="fill:currentColor" class="ColorScheme-Text" d="m 13.972853,3.0004186 c -0.08669,-0.00541 -0.224954,0.052592 -0.478515,0.1660156 -0.300984,0.1346429 -0.984079,0.2441407 -1.519532,0.2441406 -1.894939,0.039685 -3.4120548,0.7044527 -4.6406248,1.9589843 -1.66758,1.7143604 -2.192301,3.8724012 -1.431641,5.8749999 0.175588,0.46226 0.281926,0.932494 0.236328,1.044922 -0.04558,0.112423 -0.366205,0.422558 -0.710937,0.691407 -0.74902,0.58406 -1.26689,1.526779 -1.396484,2.539062 -0.07785,0.608054 -0.02388,0.897726 0.30664,1.621093 0.70984,1.553379 2.319357,2.218356 4.035156,1.667969 0.993492,-0.318676 1.9873838,-1.450655 2.7832038,-3.167968 0.687326,-1.483288 0.717404,-1.519977 1.455078,-1.787109 1.243636,-0.450378 2.027721,-0.947362 2.806641,-1.781251 C 16.79908,10.594257 17.311517,8.6802002 16.816603,6.8500279 16.594214,6.0277089 16.405741,5.744552 15.398635,4.6976842 14.760712,4.0345613 14.195189,3.3622314 14.140822,3.2054967 14.094992,3.0734506 14.059552,3.0058093 13.972853,3.0004186 Z m -3.136718,2 c 0.583947,0.0024 1.034985,0.1788654 1.158203,0.5292968 0.0404,0.1149159 -0.130658,0.6565893 -0.38086,1.203125 -0.643418,1.4055408 -0.847528,2.1787227 -1.236328,4.6582026 -0.4821979,3.075068 -1.0088648,4.402744 -2.0644528,5.201172 -0.665454,0.50331 -1.483417,0.545393 -1.919922,0.101562 -0.377644,-0.383984 -0.486213,-0.864898 -0.310547,-1.369139 0.139149,-0.399431 0.673188,-0.46395 1.687406,-0.613281 0.705615,-0.103876 1.203125,-0.59278 1.203125,-1.232422 0,-0.402502 -0.162872,-0.633313 -0.710937,-1.212891 -0.847927,-0.896702 -1.619049,-1.757208 -1.622954,-2.8437504 -0.0062,-1.6994458 0.826812,-3.1447546 2.248047,-3.904297 0.6497829,-0.3472521 1.3652678,-0.5199739 1.9492198,-0.517578 z m 2.33789,1.001953 c 0.204073,-0.026668 0.463475,0.1829108 0.830078,0.6191407 1.448466,1.7234699 1.300085,4.3315807 -0.332031,5.8300787 -0.695725,0.638752 -0.859407,0.678105 -1.341797,0.333984 -0.279023,-0.199046 -0.332376,-0.379441 -0.330078,-1.107423 0.0033,-1.115268 0.382421,-3.8470418 0.677734,-4.8847647 0.143104,-0.5028478 0.292018,-0.7643278 0.496094,-0.7910157 z"/>
</svg>
