<svg xmlns="http://www.w3.org/2000/svg" width="22" height="22" version="1.1">
 <defs>
  <style id="current-color-scheme" type="text/css">
   .ColorScheme-Text { color:#d0d0d0; } .ColorScheme-Highlight { color:#4285f4; } .ColorScheme-NeutralText { color:#ff9800; } .ColorScheme-PositiveText { color:#4caf50; } .ColorScheme-NegativeText { color:#f44336; }
  </style>
 </defs>
 <path style="fill:currentColor" class="ColorScheme-Text" d="M 10 3 L 10 5.0859375 A 6 6 0 0 1 11 5 A 6 6 0 0 1 12 5.0898438 L 12 3 L 10 3 z M 6.0507812 4.6367188 L 4.6367188 6.0507812 L 6.1132812 7.5273438 A 6 6 0 0 1 7.5292969 6.1152344 L 6.0507812 4.6367188 z M 15.949219 4.6367188 L 14.472656 6.1132812 A 6 6 0 0 1 15.884766 7.5292969 L 17.363281 6.0507812 L 15.949219 4.6367188 z M 11 6 A 5 5 0 0 0 6 11 A 5 5 0 0 0 6.1464844 12.175781 C 6.1537832 12.174123 6.1606561 12.171542 6.1679688 12.169922 C 6.5797152 9.8273547 8.5442774 8 11 8 C 13.072335 8.0017964 14.855484 9.3202967 15.595703 11.212891 C 15.72971 11.24758 15.859312 11.292108 15.988281 11.337891 A 5 5 0 0 0 16 11 A 5 5 0 0 0 11 6 z M 11 9 A 4 4 0 0 0 7 13 A 3 3 0 0 0 4 16 A 3 3 0 0 0 7 19 L 14.5 19 L 15 19 L 15 18.960938 A 3.5 3.5 0 0 0 18 15.5 A 3.5 3.5 0 0 0 14.875 12.021484 A 4 4 0 0 0 11 9 z M 3 10 L 3 12 L 5.0859375 12 A 6 6 0 0 1 5 11 A 6 6 0 0 1 5.0898438 10 L 3 10 z M 16.914062 10 A 6 6 0 0 1 17 11 A 6 6 0 0 1 16.910156 12 L 19 12 L 19 10 L 16.914062 10 z"/>
</svg>
