<svg xmlns="http://www.w3.org/2000/svg" width="24" height="24" version="1.1">
 <defs>
  <style id="current-color-scheme" type="text/css">
   .ColorScheme-Text { color:#cbe3e7; } .ColorScheme-Highlight { color:#4285f4; } .ColorScheme-NeutralText { color:#ff9800; } .ColorScheme-PositiveText { color:#4caf50; } .ColorScheme-NegativeText { color:#f44336; }
  </style>
 </defs>
 <path style="fill:currentColor" class="ColorScheme-Text" d="M 19,9 H 17 V 4 H 13 V 9 H 11 V 4 H 7 V 9 H 5 V 11 H 19 Z M 19,13 H 5 V 15 H 7 V 20 H 11 V 15 H 13 V 20 H 17 V 15 H 19 Z"/>
</svg>
