<svg xmlns="http://www.w3.org/2000/svg" width="24" height="24" version="1.1">
 <defs>
  <style id="current-color-scheme" type="text/css">
   .ColorScheme-Text { color:#cbe3e7; } .ColorScheme-Highlight { color:#4285f4; } .ColorScheme-NeutralText { color:#ff9800; } .ColorScheme-PositiveText { color:#4caf50; } .ColorScheme-NegativeText { color:#f44336; }
  </style>
 </defs>
 <g transform="translate(4,4)">
  <path style="fill:currentColor" class="ColorScheme-Text" d="M 2.7422,1 C 2.1033,1 1.7663,1.7601 2.1855,2.2422 L 7.3613,8.4062 4.3164,10.639 C 3.5012,11.234 4.4287,12.418 5.2031,11.85 L 8.3281,9.5566 12.67,14.727 C 13.283,15.493 14.451,14.478 13.818,13.762 L 9.541,8.668 12.686,6.3613 C 13.265,5.9498 12.99,5 12.268,5 12.099,5 11.934,5.0501 11.799,5.1523 L 8.5742,7.5176 3.334,1.2773 C 3.1895,1.0992 2.9721,1 2.7422,1 Z"/>
 </g>
</svg>
