<svg xmlns="http://www.w3.org/2000/svg" width="24" height="24" viewBox="0 0 24 24">
 <defs>
  <style id="current-color-scheme" type="text/css">
   .ColorScheme-Text { color:#cbe3e7; } .ColorScheme-Highlight { color:#4285f4; } .ColorScheme-NeutralText { color:#ff9800; } .ColorScheme-PositiveText { color:#4caf50; } .ColorScheme-NegativeText { color:#f44336; }
  </style>
 </defs>
 <path style="fill:currentColor" class="ColorScheme-Text" d="M 5 4 L 5 5 L 2 5 L 2 11 L 5 11 L 5 12 L 14 12 L 14 9 L 5 9 L 5 10 L 3 10 L 3 9 L 4 9 L 4 7 L 3 7 L 3 6 L 5 6 L 5 7 L 14 7 L 14 4 L 5 4 z" transform="translate(4 4)"/>
</svg>
