<svg xmlns="http://www.w3.org/2000/svg" width="24" height="24" version="1.1">
 <defs>
  <style id="current-color-scheme" type="text/css">
   .ColorScheme-Text { color:#cbe3e7; } .ColorScheme-Highlight { color:#4285f4; } .ColorScheme-NeutralText { color:#ff9800; } .ColorScheme-PositiveText { color:#4caf50; } .ColorScheme-NegativeText { color:#f44336; }
  </style>
 </defs>
 <g transform="translate(4,4)">
  <path style="fill:currentColor" class="ColorScheme-Text" d="M 2.5,2 C 2.5,2 1,2 1,3.5 V 7.5 C 1,9 2.5,9 2.5,9 H 3 L 4.5,11 6,9 H 9.5 C 9.5,9 11,9 11,7.5 V 3.5 C 11,2 9.5,2 9.5,2 Z M 12,10 V 12 H 10 V 13 H 12 V 15 H 13 V 13 H 15 V 12 H 13 V 10 Z"/>
 </g>
</svg>
