<svg xmlns="http://www.w3.org/2000/svg" width="24" height="24" version="1.1">
 <defs>
  <style id="current-color-scheme" type="text/css">
   .ColorScheme-Text { color:#cbe3e7; } .ColorScheme-Highlight { color:#4285f4; } .ColorScheme-NeutralText { color:#ff9800; } .ColorScheme-PositiveText { color:#4caf50; } .ColorScheme-NegativeText { color:#f44336; }
  </style>
 </defs>
 <g transform="translate(4,4)">
  <path style="fill:currentColor" class="ColorScheme-Text" d="M 2,3 C 1,3 1,4 1,4 V 12 C 1,12 1,13 2,13 H 14 C 15,13 15,12 15,12 V 4 C 15,4 15,3 14,3 Z M 3,8 H 5 V 9 H 3 Z M 6,8 H 10 V 9 H 6 Z M 11,8 H 13 V 9 H 11 Z M 3,10 H 4 V 11 H 3 Z M 5,10 H 9 V 11 H 5 Z M 10,10 H 13 V 11 H 10 Z"/>
 </g>
</svg>
