<svg xmlns="http://www.w3.org/2000/svg" width="24" height="24" version="1.1">
 <defs>
  <style id="current-color-scheme" type="text/css">
   .ColorScheme-Text { color:#cbe3e7; } .ColorScheme-Highlight { color:#4285f4; } .ColorScheme-NeutralText { color:#ff9800; } .ColorScheme-PositiveText { color:#4caf50; } .ColorScheme-NegativeText { color:#f44336; }
  </style>
 </defs>
 <path style="fill:currentColor" class="ColorScheme-Text" d="M 15.45,19.478 C 14.069,20.068 12.707,20.161 11.567,19.741 10.994,19.531 5.918,17.393 5.539,17.118 5.2199,16.886 5.0771,16.653 5.0317,16.292 4.9255,15.446 5.6833,14.831 6.5283,15.078 7.3461,15.378 9.0813,15.754 9.0813,15.754 L 7.0342,12.08 C 5.1505,8.699 4.9882,8.386 5.0006,8.163 5.0299,7.634 5.4231,7.242 5.9501,7.217 6.4576,7.193 6.5322,7.289 7.9411,9.789 9.1263,11.891 9.225,12.047 9.3909,12.084 9.6191,12.134 9.6899,12.089 9.7373,11.864 9.7717,11.7 9.6123,11.392 8.1726,8.837 6.6299,6.1 6.5699,5.9822 6.5765,5.7001 6.5952,4.8989 7.5258,4.5093 8.157,5.0385 8.2688,5.1322 8.8836,6.166 9.913,7.992 11.439,10.7 11.503,10.802 11.658,10.797 11.854,10.791 11.981,10.645 11.974,10.434 11.971,10.341 11.392,9.252 10.538,7.735 9.4454,5.7922 9.1066,5.1441 9.104,4.9915 9.0987,4.6727 9.3033,4.3343 9.6121,4.1511 10.039,3.9537 10.499,3.9294 10.675,4.2005 L 12.287,7.062 C 13.329,8.909 13.949,9.954 14.038,10.01 14.192,10.108 14.448,9.992 14.498,9.803 14.521,9.712 14.236,9.157 13.429,7.725 12.205,5.5537 12.085,5.3399 12.329,4.8837 12.876,4.2359 13.592,4.2015 13.94,4.6857 L 16.359,9.022 C 17.074,10.68 18.555,12.219 18.901,13.991 19.206,15.548 18.808,16.864 17.696,17.977 17.218,18.455 16.111,19.196 15.45,19.478 Z"/>
</svg>
