<svg xmlns="http://www.w3.org/2000/svg" width="24" height="24" version="1.1">
 <defs>
  <style id="current-color-scheme" type="text/css">
   .ColorScheme-Text { color:#a9b1d6; } .ColorScheme-Highlight { color:#4285f4; } .ColorScheme-NeutralText { color:#ff9800; } .ColorScheme-PositiveText { color:#4caf50; } .ColorScheme-NegativeText { color:#f44336; }
  </style>
 </defs>
 <path opacity=".3" style="fill:currentColor" class="ColorScheme-Text" d="m12.524 20h5.4757l-7.0462-7.4937-3.3086 2.2912z"/>
 <path style="fill:currentColor" class="ColorScheme-Text" d="m12.524 4h5.4757l-7.524 8-2.8213 2.807-2.6547-2.807z"/>
</svg>
