<svg xmlns="http://www.w3.org/2000/svg" width="16" height="16" version="1.1">
 <circle style="fill:#e2d5bc" cx="4.5" cy="11.5" r="2.5"/>
 <circle style="fill:#e2d5bc" cx="11.5" cy="11.5" r="2.5"/>
</svg>
