<svg xmlns="http://www.w3.org/2000/svg" width="24" height="24" version="1.1">
 <defs>
  <style id="current-color-scheme" type="text/css">
   .ColorScheme-Text { color:#c0c0c0; } .ColorScheme-Highlight { color:#4285f4; }
  </style>
 </defs>
 <path style="fill:none;stroke:currentColor;stroke-linecap:round" class="ColorScheme-Text" d="M 0.5,23.5 C 4,21 3,6 7,6 13,6 9,23.5 16.5,23.5 21,23.5 21,6.5 21,6.5"/>
 <path style="fill:currentColor" class="ColorScheme-Text" d="M 14,2 V 1 L 12,2.5 14,4 V 3 H 18 V 4 L 20,2.5 18,1 V 2 Z M 20,0 H 21 V 10 H 20 Z M 11,0 H 12 V 10 H 11 Z M 3,0 H 4 V 10 H 3 Z M 0,12 V 13 H 24 V 12 Z M 6,2 V 1 L 4,2.5 6,4 V 3 H 9 V 4 L 11,2.5 9,1 V 2 Z M 1,10 V 15 H 6 V 10 Z M 9,10 V 15 H 14 V 10 Z M 18,10 V 15 H 23 V 10 Z"/>
</svg>
