<svg xmlns="http://www.w3.org/2000/svg" width="24" height="24" viewBox="0 0 24 24">
 <defs>
  <style id="current-color-scheme" type="text/css">
   .ColorScheme-Text { color:#c0c0c0; } .ColorScheme-Highlight { color:#4285f4; }
  </style>
 </defs>
 <path style="fill:currentColor" class="ColorScheme-Text" d="M 5 1 L 5 4 C 5 4.55228 4.55228 5 4 5 L 1 5 L 1 11 L 4 11 C 4.55228 11 5 11.44772 5 12 L 5 15 L 11 15 L 11 12 C 11 11.44772 11.44772 11 12 11 L 15 11 L 15 5 L 12 5 C 11.44772 5 11 4.55228 11 4 L 11 1 L 5 1 z" transform="translate(4 4)"/>
</svg>
