<svg xmlns="http://www.w3.org/2000/svg" width="24" height="24" version="1.1">
 <defs>
  <style id="current-color-scheme" type="text/css">
   .ColorScheme-Text { color:#c0c0c0; } .ColorScheme-Highlight { color:#4285f4; }
  </style>
 </defs>
 <g transform="translate(4,4)">
  <path style="fill:currentColor" class="ColorScheme-Text" d="M 11.5,5 A 2.5,2.5 0 0 0 9,7.5 2.5,2.5 0 0 0 11.5,10 2.5,2.5 0 0 0 14,7.5 2.5,2.5 0 0 0 11.5,5 Z M 11.5,6 A 1.5,1.5 0 0 1 13,7.5 1.5,1.5 0 0 1 11.5,9 1.5,1.5 0 0 1 10,7.5 1.5,1.5 0 0 1 11.5,6 Z M 4.5,7 A 2.5,2.5 0 0 0 2,9.5 2.5,2.5 0 0 0 4.5,12 2.5,2.5 0 0 0 7,9.5 2.5,2.5 0 0 0 4.5,7 Z M 4.5,8 A 1.5,1.5 0 0 1 6,9.5 1.5,1.5 0 0 1 4.5,11 1.5,1.5 0 0 1 3,9.5 1.5,1.5 0 0 1 4.5,8 Z"/>
  <path style="fill:currentColor" class="ColorScheme-Text" d="M 6,8 C 7,8 8,6.5 10,6.5 V 8.5 C 9,8.5 8,10 6,10 Z M 13,6.5 C 15,6.5 16,7 16,7 V 9 C 16,9 14,8.5 13,8.5 Z M 0,9 C 1,9 3,8.5 3,8.5 V 10.5 C 3,10.5 1,11 0,11 Z"/>
 </g>
</svg>
