<svg xmlns="http://www.w3.org/2000/svg" width="24" height="24" version="1.1">
 <defs>
  <style id="current-color-scheme" type="text/css">
   .ColorScheme-Text { color:#c0c0c0; } .ColorScheme-Highlight { color:#4285f4; }
  </style>
 </defs>
 <g transform="translate(4,4)">
  <path style="fill:currentColor" class="ColorScheme-Text" d="M 6,5 H 9 V 6 H 7 C 7,6 5,6 5,8.5 5,11 7,11 7,11 H 11 V 5 C 11,5 11,3 9,3 H 6 Z M 0,5 V 11 L 4,8 Z M 16,5 12,8 16,11 Z M 8,8 H 9 V 9 H 8 C 8,9 7,9 7,8.5 7,8 8,8 8,8 Z"/>
 </g>
</svg>
