<svg xmlns="http://www.w3.org/2000/svg" width="24" height="24" viewBox="0 0 24 24">
 <defs>
  <style id="current-color-scheme" type="text/css">
   .ColorScheme-Text { color:#c0c0c0; } .ColorScheme-Highlight { color:#4285f4; }
  </style>
 </defs>
 <path style="fill:currentColor" class="ColorScheme-Text" d="M 12 1 L 12 2 L 12 3 L 12 3.3125 L 8.3125 7 L 6 7 L 6 9.3125 L 3.3125 12 L 3 12 L 2 12 L 1 12 L 1 15 L 4 15 L 4 12.6875 L 6.6875 10 L 9 10 L 9 7.6875 L 12.6875 4 L 15 4 L 15 1 L 12 1 z" transform="translate(4 4)"/>
</svg>
