<svg xmlns="http://www.w3.org/2000/svg" width="24" height="24" viewBox="0 0 24 24">
 <defs>
  <style id="current-color-scheme" type="text/css">
   .ColorScheme-Text { color:#c0c0c0; } .ColorScheme-Highlight { color:#4285f4; }
  </style>
 </defs>
 <path style="fill:currentColor" class="ColorScheme-Text" d="M 9 1 C 6.2473 1 4 3.2473 4 6 L 4 9 L 2 9 L 5 14 L 8 9 L 6 9 L 6 6 C 6 4.3207 7.3207 3 9 3 C 10.6793 3 12 4.3207 12 6 L 12 11 L 14 11 L 14 6 C 14 3.2473 11.7527 1 9 1 z" transform="translate(4 4)"/>
</svg>
