<svg xmlns="http://www.w3.org/2000/svg" width="24" height="24" version="1.1">
 <defs>
  <style id="current-color-scheme" type="text/css">
   .ColorScheme-Text { color:#c0c0c0; } .ColorScheme-Highlight { color:#4285f4; }
  </style>
 </defs>
 <g transform="translate(4,4)">
  <path style="fill:currentColor" class="ColorScheme-Text" d="M 14,8 10,12 V 14 H 12 L 16,10 Z M 2,2 C 0,2 0,4 0,4 V 12 C 0,12 0,14 2,14 H 9 V 12 C 9,11.735 9.1055,11.48 9.293,11.293 L 13.293,7.293 C 13.477,7.1093 13.74,7.0043 14,7 14.271,6.9958 14.516,7.1015 14.707,7.293 L 16,8.5859 V 4 C 16,4 16,2 14,2 Z M 2,4 8,7 14,4 V 6 L 8,9 2,6 Z"/>
 </g>
</svg>
