<svg xmlns="http://www.w3.org/2000/svg" width="24" height="24" viewBox="0 0 24 24">
 <defs>
  <style id="current-color-scheme" type="text/css">
   .ColorScheme-Text { color:#c0c0c0; } .ColorScheme-Highlight { color:#4285f4; }
  </style>
 </defs>
 <path style="fill:currentColor" class="ColorScheme-Text" d="M 0 4 L 0 12 L 7 8 L 0 4 z M 7 8 L 7 12 L 14 8 L 7 4 L 7 8 z M 14 8 L 14 12 L 16 12 L 16 4 L 14 4 L 14 8 z" transform="translate(4 4)"/>
</svg>
