<svg xmlns="http://www.w3.org/2000/svg" width="16" height="16" version="1.1">
 <defs>
  <style id="current-color-scheme" type="text/css">
   .ColorScheme-Text { color:#f8f8f2; } .ColorScheme-Highlight { color:#4285f4; } .ColorScheme-NeutralText { color:#ff9800; } .ColorScheme-PositiveText { color:#4caf50; } .ColorScheme-NegativeText { color:#f44336; }
  </style>
 </defs>
 <path style="fill:currentColor" class="ColorScheme-Text" d="M 8.779,2.0011 C 8.728,1.9956 8.676,2.011 8.637,2.0461 8.597,2.0811 8.573,2.1317 8.568,2.1867 L 8.342,4.673 C 8.331,4.7874 8.411,4.8905 8.518,4.9015 9.136,4.9657 9.731,5.1445 10.289,5.4328 10.38,5.4853 10.488,5.4406 10.549,5.3351 L 11.561,3.0851 C 11.607,2.9816 11.567,2.8577 11.471,2.8078 10.623,2.37 9.717,2.0986 8.779,2.0011 Z M 6.916,2.0382 C 5.9825,2.174 5.0878,2.4831 4.2559,2.9562 4.1611,3.0101 4.1256,3.1359 4.1758,3.2375 L 5.2676,5.4445 C 5.3025,5.515 5.3699,5.5539 5.4395,5.5539 5.4702,5.5539 5.5003,5.5469 5.5293,5.5304 6.077,5.2188 6.667,5.0163 7.281,4.9269 7.388,4.9115 7.462,4.8065 7.447,4.6925 L 7.135,2.216 C 7.12,2.1021 7.022,2.0229 6.916,2.0382 Z M 12.902,3.8351 C 12.851,3.8408 12.804,3.8685 12.771,3.9113 L 11.301,5.8488 C 11.268,5.8916 11.254,5.9462 11.26,6.002 11.265,6.056 11.29,6.107 11.33,6.142 11.813,6.563 12.218,7.065 12.537,7.636 12.574,7.701 12.639,7.738 12.705,7.738 12.739,7.738 12.774,7.729 12.805,7.709 L 14.805,6.427 C 14.898,6.368 14.922,6.23 14.871,6.142 14.389,5.2775 13.775,4.5163 13.045,3.88 13.005,3.8452 12.954,3.8296 12.902,3.8351 Z M 2.8613,4.0421 C 2.8097,4.0386 2.7594,4.0565 2.7207,4.0929 2.0139,4.759 1.427,5.5438 0.9766,6.427 0.9519,6.476 0.9465,6.535 0.9609,6.587 0.9754,6.64 1.0075,6.684 1.0527,6.711 L 3.0977,7.91 C 3.1893,7.963 3.3022,7.928 3.3613,7.826 3.659,7.242 4.048,6.723 4.5156,6.283 4.5544,6.246 4.5768,6.195 4.5801,6.14 4.5834,6.085 4.5672,6.029 4.5332,5.9875 L 2.9941,4.1125 C 2.9602,4.071 2.9128,4.0457 2.8613,4.0421 Z M 15.393,7.834 13.168,8.58 C 13.066,8.614 13.009,8.732 13.041,8.841 13.201,9.388 13.294,9.958 13.281,10.537 L 13.275,10.802 C 13.272,10.888 13.346,11.021 13.461,11.021 L 15.797,11.136 C 15.9,11.136 15.985,11.049 15.99,10.937 15.996,10.798 16,10.537 16,10.537 16,9.662 15.877,8.799 15.635,7.97 15.603,7.861 15.495,7.799 15.393,7.834 Z M 7.893,10.097 4.7382,8.103 C 4.7382,8.103 4.6554,8.069 4.6132,8.074 4.6132,8.074 4.5304,8.099 4.4981,8.132 4.4333,8.199 4.4187,8.304 4.4609,8.388 L 6.182,11.845 C 6.182,11.845 6.172,11.981 6.172,12.048 6.172,12.57 6.361,13.059 6.705,13.427 7.049,13.796 7.506,14 7.992,14 8.479,14 8.937,13.796 9.281,13.427 9.625,13.059 9.814,12.57 9.814,12.048 9.814,11.527 9.625,11.036 9.281,10.668 8.938,10.299 8.48,10.096 7.994,10.095 Z M 0.5176,8.14 C 0.4679,8.126 0.4138,8.132 0.3691,8.16 0.3245,8.187 0.2928,8.233 0.2793,8.287 0.0945,9.017 0,9.774 0,10.537 0,10.667 0.0098,10.937 0.0098,10.937 0.0146,11.049 0.1,11.136 0.2032,11.136 L 2.5391,11.021 C 2.6374,11.017 2.7247,10.927 2.7247,10.802 2.7207,10.709 2.7188,10.537 2.7188,10.537 2.7188,10.032 2.7804,9.532 2.9024,9.05 2.9304,8.939 2.8691,8.825 2.7657,8.795 Z"/>
</svg>
