<svg xmlns="http://www.w3.org/2000/svg" width="16" height="16" version="1.1">
 <defs>
  <style id="current-color-scheme" type="text/css">
   .ColorScheme-Text { color:#f8f8f2; } .ColorScheme-Highlight { color:#4285f4; } .ColorScheme-NeutralText { color:#ff9800; } .ColorScheme-PositiveText { color:#4caf50; } .ColorScheme-NegativeText { color:#f44336; }
  </style>
 </defs>
 <path style="fill:currentColor" class="ColorScheme-Text" d="M 11.759766 2 A 0.76197312 0.74978719 0 0 0 11.638672 2.0136719 L 3.7910156 3.640625 A 0.76197312 0.74978719 0 0 0 3.7695312 3.6484375 C 2.6750296 3.9082965 1.904318 4.7232322 1.3847656 5.6582031 C 0.86521329 6.5930991 0.55268915 7.6892466 0.34765625 8.7597656 C 0.23738817 9.3354576 0.16309192 9.8949201 0.109375 10.423828 A 2.5 2.5 0 0 1 1.5 10 A 2.5 2.5 0 0 1 1.6953125 10.009766 C 1.9239513 8.0846822 2.4648178 5.7480469 3.7890625 5.7480469 C 6.0346534 5.7480469 6.0957031 12.494141 6.0957031 12.494141 L 4 12.494141 A 2.5 2.5 0 0 1 4 12.5 A 2.5 2.5 0 0 1 3.5273438 13.958984 L 7.6777344 14 A 0.76197312 0.74978719 0 0 0 7.8476562 13.984375 L 15.384766 12.388672 A 0.76197312 0.74978719 0 0 0 15.984375 11.689453 C 15.984375 11.689453 16.09681 9.4591571 15.703125 7.1582031 C 15.506278 6.0076931 15.190948 4.8303994 14.611328 3.8554688 C 14.031708 2.8805379 13.090814 2.0740086 11.837891 2.0058594 A 0.76197312 0.74978719 0 0 0 11.759766 2.0058594 L 11.759766 2 z M 11.798828 3.5136719 C 12.440724 3.5661519 12.884103 3.9112317 13.296875 4.6054688 C 13.720968 5.3188235 14.02182 6.3540906 14.201172 7.4023438 C 14.511978 9.2188307 14.441656 10.594428 14.427734 11.050781 L 7.828125 12.447266 C 7.8230203 10.570388 7.5943812 6.0588206 5.3808594 4.8457031 L 11.798828 3.5136719 z M 12.759766 7 L 9.0664062 7.7871094 L 9 7.8632812 L 9.0527344 8.7890625 L 9.1660156 8.8144531 L 11.880859 8.2148438 L 11.941406 8.9902344 L 12.019531 9 L 12.941406 8.7363281 L 13 8.6933594 L 12.832031 7.0527344 L 12.759766 7 z M 3.8105469 7.9960938 A 0.76190089 0.74971612 0 0 0 3.046875 8.7460938 A 0.76190089 0.74971612 0 0 0 3.2890625 9.2929688 L 2.8789062 10.416016 A 2.5 2.5 0 0 1 3.4921875 10.992188 L 4.953125 10.984375 L 4.34375 9.28125 A 0.76190089 0.74971612 0 0 0 4.5722656 8.7460938 A 0.76190089 0.74971612 0 0 0 3.8105469 7.9960938 z"/>
 <circle style="fill:currentColor" class="ColorScheme-Highlight" cx="1.5" cy="12.5" r="1.5"/>
</svg>
