<svg xmlns="http://www.w3.org/2000/svg" width="16" height="16" version="1.1">
 <defs>
  <style id="current-color-scheme" type="text/css">
   .ColorScheme-Text { color:#f8f8f2; } .ColorScheme-Highlight { color:#4285f4; } .ColorScheme-NeutralText { color:#ff9800; } .ColorScheme-PositiveText { color:#4caf50; } .ColorScheme-NegativeText { color:#f44336; }
  </style>
 </defs>
 <path style="fill:currentColor" class="ColorScheme-Text" d="M 8,0.721 5.8107,3.0003 H 3.0002 V 5.8108 L 0.7209,8 3.0002,10.221 V 13 H 5.8107 L 8,15.279 10.221,13 H 13 V 10.221 L 15.279,8 13,6.0003 V 3.0003 H 10.221 Z M 8,4.0003 C 10.21,4.0003 12,5.7903 12,8 12,10.21 10.21,12 8,12 5.7902,12 4.0002,10.21 4.0002,8 4.0002,5.7903 5.7902,4.0003 8,4.0003 Z M 8,5.0003 C 6.3433,5.0003 5.0002,6.3434 5.0002,8 5.0002,9.657 6.3433,11 8,11 Z"/>
</svg>
