/* XPM */
static char * title_1_inactive_xpm[] = {
"2 26 3 1",
" 	c None",
".	c #2B3339",
"+	c #2B3339",
"..",
"++",
"++",
"++",
"++",
"++",
"++",
"++",
"++",
"++",
"++",
"++",
"++",
"++",
"++",
"++",
"++",
"++",
"++",
"++",
"++",
"++",
"++",
"++",
"++",
"++"};
